id,is_iceberg
d4bb8bac,0.9978248
28612c22,3.2155157e-07
d5c8ab27,0.00083912123
b8cf5edb,0.113602206
3f6778c5,0.13107465
0ecf7d79,7.7436576e-05
4acfe35a,0.967843
a5b4d551,7.5009516e-06
cacbe718,0.99573416
de1244d8,0.96579593
04f859f9,0.9851656
cedc73e3,0.1413974
6f17e58c,0.14003026
d45f1475,0.93481475
c35ccd42,1.8370623e-07
1799793b,0.9801783
bdf823e2,0.46373802
be0aa969,1.2269497e-06
65951e77,0.9780909
e8b76fb7,0.91948056
ac6ca227,0.9634876
a8104355,0.9977366
e76a4a04,8.5758e-05
502a8388,0.9973137
c0c841d0,1.6681637e-05
ee49f0fb,0.99520606
dc6fa59d,0.99601597
3cef79cb,0.9949437
84673729,0.78446907
c5227b8a,6.992636e-05
574a1da7,0.9991381
207b59dd,0.9070243
309b5423,1.2415116e-07
7cf1ff70,0.99783
a8c38f58,0.0008234892
f659df68,0.96028787
076a815e,0.9997955
6a9478ad,0.85889053
f8661e3b,0.99090296
ea9da7da,1.2025762e-05
ec4952c3,0.9081894
1c607692,0.61971205
4cf47a74,0.6583707
e0cd0236,0.733114
06b6ac23,0.95521116
11d06927,0.66148335
996ea0b1,0.9998367
e0ccd7bb,8.581215e-07
b2bc5d27,0.54924136
71a0d13b,0.9998592
95ed1e8c,1.228239e-08
bffad1b6,0.73877525
ce151e35,0.916062
020f5eaa,0.7572999
ed3f900a,0.00468927
58835983,0.9984432
a783bdb3,0.92465085
76bf0e79,0.58621836
aada72d9,0.0012134312
a1ca4187,0.99760157
5a3d8224,0.00015544354
328e68bd,0.009023041
32f5ee95,0.2035547
ce73809a,0.9997234
9a3c8482,5.3103713e-06
b37083ff,0.025718296
f01671c0,0.99927205
64e98469,1.0756814e-07
ebd806e6,0.97634435
0df5c436,0.00045813096
0bd98db1,9.7006196e-05
9f5d3bfb,1.2143565e-06
7a6149bc,0.99886
2b92dadd,0.9758237
b7555b43,0.00010006067
90230ea7,0.0152751
7dfdee78,0.8231214
5bbdfc71,0.99889696
ac16f7f2,0.78890425
862b4f57,0.96352535
4283f28a,0.10521105
850a381c,0.09628477
f78fd217,0.907383
9e37732e,3.718013e-07
e8f6b3f0,0.61179656
d5a615f8,0.005204428
ee9b291e,0.90335375
affcd7bf,0.7783868
3b43490b,0.34510377
73efa120,1.8429755e-06
9b47d1bf,3.226053e-05
d3c1e961,0.99825925
63aae86a,0.004174718
95429378,0.98226786
de13af0f,0.0793864
328b74f4,0.99035394
d89d6fbc,0.633489
7346c439,0.999065
0719d5e2,0.4370692
68a20f15,0.9992299
fee78b0c,0.0066864504
c3fca286,0.00059918425
a873532e,0.99910307
93afeece,0.5444151
92a21542,9.031345e-05
d65f8eb3,0.99791104
2e5462d9,9.868994e-08
2757a316,0.7486339
7ce75dda,0.99823254
02e48c95,0.99931
70a639ef,0.925874
76412298,0.93182546
f8dd4fcc,1.508675e-08
e337d0b8,0.123145565
11a04625,0.0023179199
3c866636,0.993873
04bfcaec,0.9933836
42a86b3a,0.010451836
84fe7f94,0.012993781
04e6f331,0.6173337
92c90853,0.914881
660a98a7,0.011983808
89670962,0.8427238
9d586019,0.30023077
5f49ea3b,0.000104601815
968e1414,0.99626005
389d7eaf,0.985679
65ca9e76,0.9719597
a09cae27,0.0022917665
00c5b3e0,0.1546952
7f9df2b0,0.9964551
a2303efc,0.9828143
cb62e5cb,0.9985409
9ff1e0f0,0.00011973996
39fd995a,0.9293637
544d0681,0.9990676
cb0319fc,0.99855715
d86deb2b,0.9429933
cdee905a,0.9994462
2539742b,0.0011717427
2ea3c9f1,0.5304269
9cadda28,0.011455629
8376a077,0.99242425
04e11240,0.0006706863
c7d6f6f8,0.99967563
bba1a0f1,0.019174587
7f66bb44,3.847051e-08
9d8f326c,0.9973851
