id,is_iceberg
d4bb8bac,0.98933476
28612c22,5.0654136e-05
d5c8ab27,0.047253333
b8cf5edb,0.16054147
3f6778c5,0.2982254
0ecf7d79,0.0021907005
4acfe35a,0.91494864
a5b4d551,0.00015657811
cacbe718,0.9925844
de1244d8,0.97590905
04f859f9,0.9355501
cedc73e3,0.14880127
6f17e58c,0.06420563
d45f1475,0.8777948
c35ccd42,1.6157554e-05
1799793b,0.96691984
bdf823e2,0.34467953
be0aa969,8.096825e-05
65951e77,0.9524661
e8b76fb7,0.17956418
ac6ca227,0.8720377
a8104355,0.9924298
e76a4a04,0.00055727
502a8388,0.984922
c0c841d0,9.2112045e-05
ee49f0fb,0.9195135
dc6fa59d,0.9797825
3cef79cb,0.9841302
84673729,0.8724058
c5227b8a,0.007667953
574a1da7,0.9906405
207b59dd,0.84556156
309b5423,0.00012540494
7cf1ff70,0.99226475
a8c38f58,0.032089073
f659df68,0.7215301
076a815e,0.99896014
6a9478ad,0.77829677
f8661e3b,0.9826087
ea9da7da,0.0006450739
ec4952c3,0.8511967
1c607692,0.40252423
4cf47a74,0.536474
e0cd0236,0.22167909
06b6ac23,0.9022698
11d06927,0.5989861
996ea0b1,0.9977653
e0ccd7bb,0.0001456366
b2bc5d27,0.40373272
71a0d13b,0.9989386
95ed1e8c,6.758079e-06
bffad1b6,0.8327381
ce151e35,0.8820087
020f5eaa,0.5821986
ed3f900a,0.030815793
58835983,0.9965197
a783bdb3,0.2835269
76bf0e79,0.5857146
aada72d9,0.0028816194
a1ca4187,0.9953784
5a3d8224,0.0004663766
328e68bd,0.029192375
32f5ee95,0.78790325
ce73809a,0.99887663
9a3c8482,0.00020900262
b37083ff,0.013784255
f01671c0,0.99603087
64e98469,0.00021887911
ebd806e6,0.96909744
0df5c436,0.020679558
0bd98db1,0.0013268787
9f5d3bfb,2.3054234e-05
7a6149bc,0.97957283
2b92dadd,0.6643616
b7555b43,0.0025992736
90230ea7,0.16705841
7dfdee78,0.8359117
5bbdfc71,0.99807453
ac16f7f2,0.83975655
862b4f57,0.9783328
4283f28a,0.33534715
850a381c,0.11348225
f78fd217,0.77455115
9e37732e,2.3472861e-05
e8f6b3f0,0.2880606
d5a615f8,0.00020444198
ee9b291e,0.8234555
affcd7bf,0.68887496
3b43490b,0.15132181
73efa120,0.00013205495
9b47d1bf,0.00041376156
d3c1e961,0.9961862
63aae86a,0.021763619
95429378,0.9592289
de13af0f,0.065827765
328b74f4,0.9729549
d89d6fbc,0.31685454
7346c439,0.9929467
0719d5e2,0.26883763
68a20f15,0.997867
fee78b0c,0.0051789293
c3fca286,0.0022918012
a873532e,0.99018925
93afeece,0.3706382
92a21542,0.00068107405
d65f8eb3,0.9867301
2e5462d9,4.6589063e-05
2757a316,0.84435713
7ce75dda,0.99540174
02e48c95,0.9969325
70a639ef,0.8203228
76412298,0.9286643
f8dd4fcc,1.3389091e-05
e337d0b8,0.3681525
11a04625,0.009663104
3c866636,0.9913686
04bfcaec,0.9947634
42a86b3a,0.009696537
84fe7f94,0.01220086
04e6f331,0.5105599
92c90853,0.8824887
660a98a7,0.05164967
89670962,0.9352326
9d586019,0.21437341
5f49ea3b,0.006815177
968e1414,0.9888896
389d7eaf,0.88390774
65ca9e76,0.9073689
a09cae27,0.015268403
00c5b3e0,0.32530266
7f9df2b0,0.9877908
a2303efc,0.98150635
cb62e5cb,0.995774
9ff1e0f0,0.0032009599
39fd995a,0.7028549
544d0681,0.9950433
cb0319fc,0.99291396
d86deb2b,0.8083823
cdee905a,0.9983783
2539742b,0.0004255954
2ea3c9f1,0.70482635
9cadda28,0.0028187272
8376a077,0.9838216
04e11240,0.01326036
c7d6f6f8,0.9986212
bba1a0f1,0.010598514
7f66bb44,7.828525e-06
9d8f326c,0.9887137
