id,is_iceberg
d4bb8bac,0.9915398
28612c22,0.00010266633
d5c8ab27,0.0046816915
b8cf5edb,0.29073808
3f6778c5,0.057033833
0ecf7d79,0.016437227
4acfe35a,0.67375046
a5b4d551,5.5269975e-05
cacbe718,0.99220884
de1244d8,0.9314271
04f859f9,0.93635887
cedc73e3,0.02219296
6f17e58c,0.06571634
d45f1475,0.91847014
c35ccd42,6.097262e-06
1799793b,0.9649805
bdf823e2,0.42273185
be0aa969,0.0005016788
65951e77,0.9423961
e8b76fb7,0.48071986
ac6ca227,0.8886658
a8104355,0.9930936
e76a4a04,0.031206906
502a8388,0.99053675
c0c841d0,0.001922817
ee49f0fb,0.9754871
dc6fa59d,0.96332455
3cef79cb,0.9775994
84673729,0.600862
c5227b8a,0.00074502116
574a1da7,0.99560946
207b59dd,0.88766485
309b5423,2.636063e-05
7cf1ff70,0.9844455
a8c38f58,0.0065727746
f659df68,0.64983326
076a815e,0.9986993
6a9478ad,0.6360786
f8661e3b,0.97872853
ea9da7da,0.0015926667
ec4952c3,0.8548378
1c607692,0.1767007
4cf47a74,0.16888416
e0cd0236,0.49338403
06b6ac23,0.93594974
11d06927,0.6223421
996ea0b1,0.9994041
e0ccd7bb,8.5384727e-07
b2bc5d27,0.4203578
71a0d13b,0.9989492
95ed1e8c,4.6173873e-06
bffad1b6,0.7833175
ce151e35,0.840836
020f5eaa,0.53187144
ed3f900a,0.015512856
58835983,0.9963391
a783bdb3,0.8466796
76bf0e79,0.67683023
aada72d9,0.0007163105
a1ca4187,0.9952852
5a3d8224,0.00012197693
328e68bd,0.02989945
32f5ee95,0.55303663
ce73809a,0.9992735
9a3c8482,0.0018038873
b37083ff,0.0041563013
f01671c0,0.9980782
64e98469,0.000114299466
ebd806e6,0.96609133
0df5c436,0.004024563
0bd98db1,0.0005188076
9f5d3bfb,3.876189e-06
7a6149bc,0.98870414
2b92dadd,0.70932096
b7555b43,0.0015527663
90230ea7,0.02013771
7dfdee78,0.6783092
5bbdfc71,0.99888736
ac16f7f2,0.80231273
862b4f57,0.9611236
4283f28a,0.34821656
850a381c,0.034330547
f78fd217,0.8774204
9e37732e,0.00013325778
e8f6b3f0,0.29519236
d5a615f8,0.0004941417
ee9b291e,0.7577613
affcd7bf,0.52278936
3b43490b,0.41021886
73efa120,7.513256e-05
9b47d1bf,0.0034549711
d3c1e961,0.99457836
63aae86a,0.0003051298
95429378,0.97724074
de13af0f,0.029362546
328b74f4,0.8797074
d89d6fbc,0.51882184
7346c439,0.99449027
0719d5e2,0.4941548
68a20f15,0.99759954
fee78b0c,0.00041290894
c3fca286,0.00010580311
a873532e,0.9977938
93afeece,0.6047573
92a21542,0.00032929078
d65f8eb3,0.98815733
2e5462d9,3.6532215e-06
2757a316,0.6298712
7ce75dda,0.9933675
02e48c95,0.99743086
70a639ef,0.78043807
76412298,0.9446653
f8dd4fcc,1.4178131e-06
e337d0b8,0.1474479
11a04625,0.0014752875
3c866636,0.99170333
04bfcaec,0.99215525
42a86b3a,0.009943007
84fe7f94,0.011859026
04e6f331,0.5019334
92c90853,0.8201789
660a98a7,0.0076969177
89670962,0.9563567
9d586019,0.3471376
5f49ea3b,0.020495096
968e1414,0.9751492
389d7eaf,0.8384064
65ca9e76,0.7954272
a09cae27,0.025522301
00c5b3e0,0.15786059
7f9df2b0,0.98919135
a2303efc,0.9523171
cb62e5cb,0.9972784
9ff1e0f0,0.0008066918
39fd995a,0.8026381
544d0681,0.9964005
cb0319fc,0.988516
d86deb2b,0.92483383
cdee905a,0.9972025
2539742b,0.0012488384
2ea3c9f1,0.5725172
9cadda28,0.03638953
8376a077,0.9807169
04e11240,0.0052918554
c7d6f6f8,0.9992238
bba1a0f1,0.0025665786
7f66bb44,2.4069188e-05
9d8f326c,0.9839234
