id,is_iceberg
d4bb8bac,0.99534565
28612c22,1.7922335e-06
d5c8ab27,7.277199e-05
b8cf5edb,0.11288694
3f6778c5,0.09341054
0ecf7d79,0.0004939585
4acfe35a,0.79370505
a5b4d551,1.4229579e-06
cacbe718,0.99165547
de1244d8,0.9647302
04f859f9,0.95418537
cedc73e3,0.119884886
6f17e58c,0.096563995
d45f1475,0.94707876
c35ccd42,2.0681446e-08
1799793b,0.9766841
bdf823e2,0.646749
be0aa969,4.3139284e-08
65951e77,0.9770885
e8b76fb7,0.69805676
ac6ca227,0.91761774
a8104355,0.99875355
e76a4a04,0.0023932126
502a8388,0.9836668
c0c841d0,0.00011736458
ee49f0fb,0.9077295
dc6fa59d,0.9432026
3cef79cb,0.99153405
84673729,0.76125044
c5227b8a,1.1715729e-05
574a1da7,0.99194837
207b59dd,0.6439775
309b5423,1.5778083e-09
7cf1ff70,0.9939296
a8c38f58,0.0006106668
f659df68,0.5600014
076a815e,0.99956983
6a9478ad,0.8604838
f8661e3b,0.9808621
ea9da7da,5.4883635e-06
ec4952c3,0.9067137
1c607692,0.41415817
4cf47a74,0.20604585
e0cd0236,0.71298856
06b6ac23,0.9650097
11d06927,0.7400728
996ea0b1,0.99998045
e0ccd7bb,7.847159e-06
b2bc5d27,0.63738406
71a0d13b,0.99978226
95ed1e8c,1.6555138e-09
bffad1b6,0.76488787
ce151e35,0.90785956
020f5eaa,0.5715104
ed3f900a,0.008574331
58835983,0.9999893
a783bdb3,0.48616794
76bf0e79,0.88264644
aada72d9,1.7619806e-05
a1ca4187,0.9969585
5a3d8224,3.197815e-05
328e68bd,0.07074801
32f5ee95,0.10856225
ce73809a,0.9997414
9a3c8482,1.9377429e-05
b37083ff,0.0013769901
f01671c0,0.9979311
64e98469,1.0905145e-10
ebd806e6,0.96154314
0df5c436,0.00095269585
0bd98db1,1.4907064e-07
9f5d3bfb,1.2861285e-07
7a6149bc,0.9973449
2b92dadd,0.56430095
b7555b43,0.0011804079
90230ea7,0.057865877
7dfdee78,0.82729715
5bbdfc71,0.9999119
ac16f7f2,0.8314978
862b4f57,0.9698305
4283f28a,0.32558876
850a381c,0.0031407229
f78fd217,0.8977811
9e37732e,4.232715e-09
e8f6b3f0,0.6070561
d5a615f8,7.651493e-05
ee9b291e,0.6598481
affcd7bf,0.76288265
3b43490b,0.66190815
73efa120,1.8263396e-08
9b47d1bf,0.00044841837
d3c1e961,0.987604
63aae86a,0.00011222833
95429378,0.9739525
de13af0f,0.059435915
328b74f4,0.95987535
d89d6fbc,0.30537486
7346c439,0.989537
0719d5e2,0.28752068
68a20f15,0.9996995
fee78b0c,0.0002235069
c3fca286,8.127491e-06
a873532e,0.99857485
93afeece,0.7071267
92a21542,1.2388106e-05
d65f8eb3,0.98469794
2e5462d9,1.9995712e-10
2757a316,0.8583257
7ce75dda,0.99774975
02e48c95,0.9955557
70a639ef,0.8784037
76412298,0.9456832
f8dd4fcc,1.2868359e-10
e337d0b8,0.41551822
11a04625,0.0033109353
3c866636,0.9955778
04bfcaec,0.99731845
42a86b3a,0.014336154
84fe7f94,0.056947265
04e6f331,0.7451789
92c90853,0.86960894
660a98a7,0.008522001
89670962,0.9685667
9d586019,0.66454035
5f49ea3b,5.37531e-06
968e1414,0.9850317
389d7eaf,0.8308991
65ca9e76,0.8678672
a09cae27,0.10303954
00c5b3e0,0.2712093
7f9df2b0,0.9837399
a2303efc,0.971993
cb62e5cb,0.99815935
9ff1e0f0,9.192208e-06
39fd995a,0.780654
544d0681,0.9999176
cb0319fc,0.9937843
d86deb2b,0.94704294
cdee905a,0.9995455
2539742b,2.684103e-07
2ea3c9f1,0.81113964
9cadda28,0.0008747194
8376a077,0.97723776
04e11240,0.010084096
c7d6f6f8,0.99999845
bba1a0f1,0.001295264
7f66bb44,1.9288178e-09
9d8f326c,0.9813905
