id,is_iceberg
d4bb8bac,0.98581636
28612c22,2.6219257e-07
d5c8ab27,0.006227422
b8cf5edb,0.04936748
3f6778c5,0.321831
0ecf7d79,1.2209665e-10
4acfe35a,0.85295737
a5b4d551,8.166096e-06
cacbe718,0.986803
de1244d8,0.9861437
04f859f9,0.9301207
cedc73e3,0.0964727
6f17e58c,0.10257742
d45f1475,0.92712617
c35ccd42,4.8084865e-09
1799793b,0.95846176
bdf823e2,0.1314899
be0aa969,5.0347584e-11
65951e77,0.9645483
e8b76fb7,0.6714175
ac6ca227,0.8165316
a8104355,0.99892443
e76a4a04,9.4724746e-05
502a8388,0.9884609
c0c841d0,1.03266295e-07
ee49f0fb,0.9720015
dc6fa59d,0.98269546
3cef79cb,0.9910307
84673729,0.79470056
c5227b8a,1.8840911e-06
574a1da7,0.97992367
207b59dd,0.7312596
309b5423,1.2334106e-12
7cf1ff70,0.99549145
a8c38f58,0.00028293146
f659df68,0.8000614
076a815e,0.9986927
6a9478ad,0.8588814
f8661e3b,0.95785075
ea9da7da,5.314272e-09
ec4952c3,0.92226267
1c607692,0.37122518
4cf47a74,0.45977664
e0cd0236,0.4652406
06b6ac23,0.9577926
11d06927,0.528416
996ea0b1,0.99997807
e0ccd7bb,6.0465422e-06
b2bc5d27,0.6415418
71a0d13b,0.9983461
95ed1e8c,5.0086896e-10
bffad1b6,0.7393582
ce151e35,0.8177288
020f5eaa,0.70688486
ed3f900a,0.016378963
58835983,0.9997116
a783bdb3,0.5720186
76bf0e79,0.82768875
aada72d9,0.00018213494
a1ca4187,0.9364537
5a3d8224,5.3121794e-06
328e68bd,0.03726176
32f5ee95,0.24962512
ce73809a,0.9995715
9a3c8482,1.2693434e-07
b37083ff,0.00058568787
f01671c0,0.9930354
64e98469,1.3950939e-12
ebd806e6,0.97073776
0df5c436,0.085071295
0bd98db1,8.992822e-07
9f5d3bfb,2.3637476e-08
7a6149bc,0.99767846
2b92dadd,0.8455104
b7555b43,0.0017649333
90230ea7,0.33493406
7dfdee78,0.70716727
5bbdfc71,0.99806184
ac16f7f2,0.94517267
862b4f57,0.98789024
4283f28a,0.23833948
850a381c,0.094731174
f78fd217,0.71641064
9e37732e,1.711062e-13
e8f6b3f0,0.4176207
d5a615f8,7.441471e-06
ee9b291e,0.8307564
affcd7bf,0.7410987
3b43490b,0.2540653
73efa120,1.794098e-09
9b47d1bf,1.1253832e-06
d3c1e961,0.9959765
63aae86a,0.0030562184
95429378,0.9581604
de13af0f,0.029183822
328b74f4,0.9453782
d89d6fbc,0.377397
7346c439,0.99844426
0719d5e2,0.20215747
68a20f15,0.9997818
fee78b0c,9.585146e-05
c3fca286,6.675802e-05
a873532e,0.9934109
93afeece,0.47372025
92a21542,0.00013410124
d65f8eb3,0.9770158
2e5462d9,3.4208306e-11
2757a316,0.9343957
7ce75dda,0.9954848
02e48c95,0.99716336
70a639ef,0.8452003
76412298,0.92327744
f8dd4fcc,5.3109044e-14
e337d0b8,0.43968722
11a04625,0.011017487
3c866636,0.9901338
04bfcaec,0.99561286
42a86b3a,0.02853637
84fe7f94,0.051383752
04e6f331,0.66169083
92c90853,0.8341773
660a98a7,0.04101332
89670962,0.9246912
9d586019,0.408923
5f49ea3b,6.662402e-07
968e1414,0.99019617
389d7eaf,0.92326087
65ca9e76,0.9418037
a09cae27,0.105399445
00c5b3e0,0.067577645
7f9df2b0,0.98737794
a2303efc,0.98070395
cb62e5cb,0.9933883
9ff1e0f0,0.00018098838
39fd995a,0.78818166
544d0681,0.9990094
cb0319fc,0.9986393
d86deb2b,0.7783841
cdee905a,0.99820817
2539742b,5.152695e-09
2ea3c9f1,0.51202726
9cadda28,0.00016276154
8376a077,0.9535153
04e11240,0.0016078263
c7d6f6f8,0.99988735
bba1a0f1,0.003452421
7f66bb44,4.8385216e-14
9d8f326c,0.9908812
