id,is_iceberg
d4bb8bac,0.99716944
28612c22,0.00019471452
d5c8ab27,5.8598634e-05
b8cf5edb,0.31735533
3f6778c5,0.83869976
0ecf7d79,0.0001157382
4acfe35a,0.9573371
a5b4d551,0.0003268431
cacbe718,0.99871826
de1244d8,0.9971892
04f859f9,0.9739119
cedc73e3,0.25654683
6f17e58c,0.10822485
d45f1475,0.9879216
c35ccd42,2.38027e-08
1799793b,0.99338335
bdf823e2,0.9211402
be0aa969,6.214803e-09
65951e77,0.99199766
e8b76fb7,0.98803806
ac6ca227,0.9684335
a8104355,0.9999912
e76a4a04,0.0013447842
502a8388,0.99797577
c0c841d0,2.8253819e-05
ee49f0fb,0.9835576
dc6fa59d,0.9965926
3cef79cb,0.9997855
84673729,0.9471368
c5227b8a,0.00026024473
574a1da7,0.9990914
207b59dd,0.7980662
309b5423,1.7152806e-09
7cf1ff70,0.99988973
a8c38f58,0.021681024
f659df68,0.8664895
076a815e,0.9999616
6a9478ad,0.97282416
f8661e3b,0.9981944
ea9da7da,2.9008427e-06
ec4952c3,0.94429046
1c607692,0.79128003
4cf47a74,0.6735547
e0cd0236,0.7640912
06b6ac23,0.98944
11d06927,0.8222668
996ea0b1,1.0
e0ccd7bb,0.00022574757
b2bc5d27,0.8997534
71a0d13b,0.9999423
95ed1e8c,7.179701e-08
bffad1b6,0.8412852
ce151e35,0.98397934
020f5eaa,0.7598055
ed3f900a,0.011520105
58835983,1.0
a783bdb3,0.15469937
76bf0e79,0.9661058
aada72d9,4.0536164e-05
a1ca4187,0.9999999
5a3d8224,2.735435e-06
328e68bd,0.52833515
32f5ee95,0.33664447
ce73809a,0.9999974
9a3c8482,0.00011465828
b37083ff,0.010047117
f01671c0,0.9998217
64e98469,3.3089396e-09
ebd806e6,0.99177104
0df5c436,0.0010263999
0bd98db1,3.2988873e-07
9f5d3bfb,3.274854e-08
7a6149bc,0.9999896
2b92dadd,0.5297022
b7555b43,0.0024300884
90230ea7,0.34151855
7dfdee78,0.9559334
5bbdfc71,0.99999726
ac16f7f2,0.98095953
862b4f57,0.9997098
4283f28a,0.4506187
850a381c,0.39809427
f78fd217,0.97958994
9e37732e,4.8415777e-10
e8f6b3f0,0.79690254
d5a615f8,0.00010032494
ee9b291e,0.9629387
affcd7bf,0.9158861
3b43490b,0.953743
73efa120,4.191078e-06
9b47d1bf,6.2016184e-06
d3c1e961,0.999571
63aae86a,0.014381707
95429378,0.99538064
de13af0f,0.6304358
328b74f4,0.9976714
d89d6fbc,0.8104928
7346c439,0.99990904
0719d5e2,0.4745099
68a20f15,0.9999975
fee78b0c,0.0012021174
c3fca286,7.227633e-05
a873532e,0.99856585
93afeece,0.9862482
92a21542,3.0805226e-05
d65f8eb3,0.9943516
2e5462d9,2.91535e-08
2757a316,0.9962883
7ce75dda,0.99694073
02e48c95,0.99993324
70a639ef,0.954532
76412298,0.98724884
f8dd4fcc,2.1927656e-08
e337d0b8,0.82418567
11a04625,0.18679184
3c866636,0.9991239
04bfcaec,0.99971396
42a86b3a,0.0788738
84fe7f94,0.0106228115
04e6f331,0.9290034
92c90853,0.92983603
660a98a7,0.06281653
89670962,0.9930214
9d586019,0.89209515
5f49ea3b,0.00012780805
968e1414,0.99956435
389d7eaf,0.95700705
65ca9e76,0.95458484
a09cae27,0.17086439
00c5b3e0,0.507952
7f9df2b0,0.99724555
a2303efc,0.9951904
cb62e5cb,0.99977046
9ff1e0f0,1.9562583e-05
39fd995a,0.9628311
544d0681,0.9999999
cb0319fc,0.99989104
d86deb2b,0.98229927
cdee905a,0.99999356
2539742b,2.0726454e-09
2ea3c9f1,0.8061402
9cadda28,2.6706708e-05
8376a077,0.9937809
04e11240,0.024478823
c7d6f6f8,1.0
bba1a0f1,0.012582158
7f66bb44,4.4566368e-11
9d8f326c,0.99612087
