id,is_iceberg
d4bb8bac,0.9994999
28612c22,5.216874e-13
d5c8ab27,1.8491959e-07
b8cf5edb,0.26648405
3f6778c5,0.26916784
0ecf7d79,3.5985668e-06
4acfe35a,0.27369967
a5b4d551,2.2126639e-11
cacbe718,0.9954586
de1244d8,0.99848974
04f859f9,0.9731959
cedc73e3,0.0038657922
6f17e58c,0.00027416856
d45f1475,0.90214705
c35ccd42,7.533819e-14
1799793b,0.852827
bdf823e2,0.35344303
be0aa969,4.807461e-12
65951e77,0.98710316
e8b76fb7,0.94835675
ac6ca227,0.8951239
a8104355,0.9999993
e76a4a04,0.0039516743
502a8388,0.99868995
c0c841d0,9.066663e-09
ee49f0fb,0.9830236
dc6fa59d,0.9933391
3cef79cb,0.9997404
84673729,0.9351517
c5227b8a,2.2085678e-09
574a1da7,0.997658
207b59dd,0.67861205
309b5423,2.266285e-15
7cf1ff70,0.99925274
a8c38f58,5.450279e-08
f659df68,0.58097637
076a815e,0.99999857
6a9478ad,0.92391694
f8661e3b,0.99610233
ea9da7da,1.1285561e-08
ec4952c3,0.7524678
1c607692,0.08726738
4cf47a74,0.18444236
e0cd0236,0.61508924
06b6ac23,0.9738497
11d06927,0.75223094
996ea0b1,0.99999964
e0ccd7bb,3.9035397e-10
b2bc5d27,0.6968786
71a0d13b,0.99998844
95ed1e8c,3.7217344e-15
bffad1b6,0.1060056
ce151e35,0.9378067
020f5eaa,0.31432974
ed3f900a,6.0901657e-05
58835983,0.9999995
a783bdb3,0.69498
76bf0e79,0.91711885
aada72d9,1.4290135e-09
a1ca4187,0.9997267
5a3d8224,2.050891e-09
328e68bd,0.00027114557
32f5ee95,0.08372444
ce73809a,0.99999607
9a3c8482,1.09807e-10
b37083ff,9.571444e-06
f01671c0,0.9930697
64e98469,1.6679262e-12
ebd806e6,0.9867734
0df5c436,2.5834588e-06
0bd98db1,2.8702582e-10
9f5d3bfb,1.7761984e-13
7a6149bc,0.9999256
2b92dadd,0.4423566
b7555b43,1.8927413e-07
90230ea7,0.0038615617
7dfdee78,0.78305817
5bbdfc71,0.9999956
ac16f7f2,0.14349344
862b4f57,0.99935466
4283f28a,0.01374647
850a381c,4.5433688e-05
f78fd217,0.9123217
9e37732e,8.200916e-12
e8f6b3f0,0.5245953
d5a615f8,1.769024e-07
ee9b291e,0.8160296
affcd7bf,0.56100994
3b43490b,0.11906531
73efa120,1.8221293e-12
9b47d1bf,9.793777e-07
d3c1e961,0.99886775
63aae86a,7.546838e-06
95429378,0.9870798
de13af0f,0.006267464
328b74f4,0.9881296
d89d6fbc,0.03997458
7346c439,0.99676514
0719d5e2,0.0121127665
68a20f15,0.99998415
fee78b0c,4.7958715e-06
c3fca286,1.8535335e-08
a873532e,0.9999745
93afeece,0.4359437
92a21542,5.820777e-09
d65f8eb3,0.9958484
2e5462d9,5.449652e-17
2757a316,0.99162465
7ce75dda,0.99986756
02e48c95,0.99915683
70a639ef,0.88608766
76412298,0.9693581
f8dd4fcc,1.2828491e-17
e337d0b8,0.1559507
11a04625,0.0009571357
3c866636,0.9997495
04bfcaec,0.9998473
42a86b3a,0.00028378324
84fe7f94,0.018527042
04e6f331,0.7594202
92c90853,0.8389527
660a98a7,0.00036892397
89670962,0.91407114
9d586019,0.6296937
5f49ea3b,2.8579699e-08
968e1414,0.99440104
389d7eaf,0.90113354
65ca9e76,0.93372667
a09cae27,0.0066193175
00c5b3e0,0.00040480614
7f9df2b0,0.9926339
a2303efc,0.9945391
cb62e5cb,0.999853
9ff1e0f0,1.4134206e-10
39fd995a,0.45936984
544d0681,0.9999968
cb0319fc,0.9901811
d86deb2b,0.79306245
cdee905a,0.9999484
2539742b,1.4584884e-09
2ea3c9f1,0.14330894
9cadda28,1.3536455e-05
8376a077,0.9963379
04e11240,7.385375e-07
c7d6f6f8,1.0
bba1a0f1,0.007811837
7f66bb44,4.790399e-12
9d8f326c,0.9957699
