id,is_iceberg
d4bb8bac,0.9912633
28612c22,2.6957036e-05
d5c8ab27,0.00023915293
b8cf5edb,0.04898855
3f6778c5,0.32097083
0ecf7d79,0.00017834679
4acfe35a,0.7127829
a5b4d551,2.0563151e-05
cacbe718,0.9934767
de1244d8,0.9884538
04f859f9,0.93271
cedc73e3,0.090773694
6f17e58c,0.02284285
d45f1475,0.9576653
c35ccd42,1.742998e-08
1799793b,0.9874341
bdf823e2,0.33202016
be0aa969,9.2832494e-07
65951e77,0.9641339
e8b76fb7,0.2787138
ac6ca227,0.9363779
a8104355,0.99789184
e76a4a04,0.011224306
502a8388,0.9895034
c0c841d0,4.1547817e-05
ee49f0fb,0.947688
dc6fa59d,0.978296
3cef79cb,0.99369824
84673729,0.8675506
c5227b8a,0.00024880993
574a1da7,0.98511916
207b59dd,0.21498683
309b5423,2.1544908e-09
7cf1ff70,0.94837016
a8c38f58,0.0033919103
f659df68,0.67514175
076a815e,0.9997545
6a9478ad,0.8249431
f8661e3b,0.9699214
ea9da7da,1.4946418e-05
ec4952c3,0.8631152
1c607692,0.34761593
4cf47a74,0.22904885
e0cd0236,0.49039337
06b6ac23,0.8990487
11d06927,0.7385139
996ea0b1,0.9998627
e0ccd7bb,0.00016084906
b2bc5d27,0.53730154
71a0d13b,0.999084
95ed1e8c,1.4021171e-07
bffad1b6,0.5179027
ce151e35,0.9677027
020f5eaa,0.5902533
ed3f900a,0.026428109
58835983,0.999734
a783bdb3,0.035290856
76bf0e79,0.8099882
aada72d9,4.1603646e-05
a1ca4187,0.96657836
5a3d8224,9.0372105e-06
328e68bd,0.016702158
32f5ee95,0.13464658
ce73809a,0.9996056
9a3c8482,1.544335e-05
b37083ff,0.003558498
f01671c0,0.99850035
64e98469,1.28127775e-08
ebd806e6,0.9373294
0df5c436,0.0006688604
0bd98db1,1.5555584e-05
9f5d3bfb,1.6253335e-06
7a6149bc,0.99726284
2b92dadd,0.18453571
b7555b43,0.00065869495
90230ea7,0.32792312
7dfdee78,0.8311705
5bbdfc71,0.999881
ac16f7f2,0.4472279
862b4f57,0.96091497
4283f28a,0.02199241
850a381c,0.017169932
f78fd217,0.8623652
9e37732e,7.9410063e-07
e8f6b3f0,0.65278316
d5a615f8,0.00080038176
ee9b291e,0.775192
affcd7bf,0.7387591
3b43490b,0.17978898
73efa120,2.1153592e-07
9b47d1bf,0.0023430008
d3c1e961,0.99557316
63aae86a,0.01041308
95429378,0.94462126
de13af0f,0.07343085
328b74f4,0.99030274
d89d6fbc,0.024890903
7346c439,0.9888314
0719d5e2,0.30538443
68a20f15,0.9997875
fee78b0c,0.004682814
c3fca286,0.00011497261
a873532e,0.9817317
93afeece,0.7061375
92a21542,2.8301578e-05
d65f8eb3,0.99333125
2e5462d9,1.6277411e-06
2757a316,0.92307943
7ce75dda,0.98467493
02e48c95,0.99923253
70a639ef,0.8882798
76412298,0.95953125
f8dd4fcc,6.654069e-09
e337d0b8,0.6377633
11a04625,0.030409874
3c866636,0.9923543
04bfcaec,0.99725914
42a86b3a,0.0075587793
84fe7f94,0.07956873
04e6f331,0.43675157
92c90853,0.79151404
660a98a7,0.06947356
89670962,0.9753539
9d586019,0.47858286
5f49ea3b,1.4678525e-05
968e1414,0.95090413
389d7eaf,0.9439041
65ca9e76,0.81812006
a09cae27,0.0067419014
00c5b3e0,0.5378629
7f9df2b0,0.9842672
a2303efc,0.98525375
cb62e5cb,0.99727553
9ff1e0f0,9.878266e-06
39fd995a,0.12173479
544d0681,0.9977059
cb0319fc,0.98590475
d86deb2b,0.44841763
cdee905a,0.9975139
2539742b,0.0026203664
2ea3c9f1,0.57382154
9cadda28,0.0043094754
8376a077,0.98480463
04e11240,0.0021276262
c7d6f6f8,0.999985
bba1a0f1,0.00073158456
7f66bb44,1.7046165e-08
9d8f326c,0.9983535
