id,is_iceberg
d4bb8bac,0.9984719
28612c22,9.893475e-05
d5c8ab27,0.014599745
b8cf5edb,0.23744208
3f6778c5,0.58979136
0ecf7d79,6.8409696e-05
4acfe35a,0.9239681
a5b4d551,3.4052962e-05
cacbe718,0.9847541
de1244d8,0.95413595
04f859f9,0.94465
cedc73e3,0.53005725
6f17e58c,0.12754439
d45f1475,0.892409
c35ccd42,2.561954e-07
1799793b,0.9701302
bdf823e2,0.57500523
be0aa969,2.693429e-07
65951e77,0.9532418
e8b76fb7,0.45459154
ac6ca227,0.857018
a8104355,0.9992218
e76a4a04,0.003105121
502a8388,0.9844072
c0c841d0,0.00030410782
ee49f0fb,0.9952602
dc6fa59d,0.98497283
3cef79cb,0.9955842
84673729,0.91170037
c5227b8a,0.00016635652
574a1da7,0.9875892
207b59dd,0.32273522
309b5423,2.1259568e-07
7cf1ff70,0.9874464
a8c38f58,0.022385659
f659df68,0.90178365
076a815e,0.99974877
6a9478ad,0.850715
f8661e3b,0.9698677
ea9da7da,1.2198387e-05
ec4952c3,0.8656815
1c607692,0.7770992
4cf47a74,0.63067126
e0cd0236,0.600325
06b6ac23,0.9517384
11d06927,0.79352236
996ea0b1,0.99986255
e0ccd7bb,0.0005151508
b2bc5d27,0.6870341
71a0d13b,0.9993563
95ed1e8c,8.039372e-07
bffad1b6,0.8555264
ce151e35,0.911441
020f5eaa,0.7525944
ed3f900a,0.2708758
58835983,0.99272
a783bdb3,0.46213955
76bf0e79,0.7686303
aada72d9,0.0006201444
a1ca4187,0.9697262
5a3d8224,0.0010096678
328e68bd,0.06959644
32f5ee95,0.6863373
ce73809a,0.9987962
9a3c8482,0.00083577016
b37083ff,0.045621462
f01671c0,0.99815506
64e98469,3.0828204e-07
ebd806e6,0.9522225
0df5c436,0.010969005
0bd98db1,2.5584757e-05
9f5d3bfb,3.397952e-05
7a6149bc,0.99539185
2b92dadd,0.8859432
b7555b43,0.039880987
90230ea7,0.3805324
7dfdee78,0.8074327
5bbdfc71,0.99890673
ac16f7f2,0.8642883
862b4f57,0.9858494
4283f28a,0.14486621
850a381c,0.34347856
f78fd217,0.85290873
9e37732e,1.8723682e-07
e8f6b3f0,0.55957365
d5a615f8,0.017934
ee9b291e,0.9037367
affcd7bf,0.8496627
3b43490b,0.24853809
73efa120,2.212673e-06
9b47d1bf,0.00020702383
d3c1e961,0.969403
63aae86a,0.074949265
95429378,0.9464625
de13af0f,0.090997696
328b74f4,0.9554826
d89d6fbc,0.5716248
7346c439,0.98926556
0719d5e2,0.66383195
68a20f15,0.99890316
fee78b0c,0.00951469
c3fca286,0.0021560153
a873532e,0.9970682
93afeece,0.60260206
92a21542,0.00074049004
d65f8eb3,0.9755788
2e5462d9,2.9423884e-07
2757a316,0.88971865
7ce75dda,0.9957216
02e48c95,0.9975134
70a639ef,0.92738634
76412298,0.8704282
f8dd4fcc,2.592351e-07
e337d0b8,0.6728465
11a04625,0.06520261
3c866636,0.9919333
04bfcaec,0.99182266
42a86b3a,0.07563679
84fe7f94,0.061764445
04e6f331,0.47729355
92c90853,0.8651728
660a98a7,0.3359251
89670962,0.864214
9d586019,0.5944743
5f49ea3b,0.0002239171
968e1414,0.99358517
389d7eaf,0.938497
65ca9e76,0.9333078
a09cae27,0.08126992
00c5b3e0,0.4834899
7f9df2b0,0.94927347
a2303efc,0.957562
cb62e5cb,0.9879417
9ff1e0f0,6.127946e-05
39fd995a,0.8448181
544d0681,0.9960788
cb0319fc,0.9920533
d86deb2b,0.6634616
cdee905a,0.99889094
2539742b,2.674669e-07
2ea3c9f1,0.5546344
9cadda28,0.00011066382
8376a077,0.96537894
04e11240,0.029364396
c7d6f6f8,0.9994597
bba1a0f1,0.06287697
7f66bb44,1.5966756e-05
9d8f326c,0.98170483
