id,is_iceberg
d4bb8bac,0.9864277
28612c22,0.00012417468
d5c8ab27,0.000363263
b8cf5edb,0.43577614
3f6778c5,0.56518555
0ecf7d79,2.436684e-05
4acfe35a,0.8879781
a5b4d551,4.9640254e-05
cacbe718,0.9845068
de1244d8,0.88987654
04f859f9,0.8634891
cedc73e3,0.24928826
6f17e58c,0.19021812
d45f1475,0.8644695
c35ccd42,4.7383574e-07
1799793b,0.9338447
bdf823e2,0.66986555
be0aa969,8.540615e-07
65951e77,0.89069337
e8b76fb7,0.7462408
ac6ca227,0.8255021
a8104355,0.9975508
e76a4a04,0.001759931
502a8388,0.97471285
c0c841d0,0.00024268453
ee49f0fb,0.991159
dc6fa59d,0.9515447
3cef79cb,0.9766788
84673729,0.93610173
c5227b8a,1.9036035e-05
574a1da7,0.99394095
207b59dd,0.8997705
309b5423,5.1754498e-08
7cf1ff70,0.92476064
a8c38f58,0.024399646
f659df68,0.66754436
076a815e,0.9996032
6a9478ad,0.758193
f8661e3b,0.95323735
ea9da7da,6.012059e-05
ec4952c3,0.73286444
1c607692,0.52066857
4cf47a74,0.39726323
e0cd0236,0.2904997
06b6ac23,0.9117156
11d06927,0.48867893
996ea0b1,0.99988747
e0ccd7bb,0.00010405306
b2bc5d27,0.66942525
71a0d13b,0.9990471
95ed1e8c,4.1580194e-08
bffad1b6,0.72174025
ce151e35,0.8423777
020f5eaa,0.563762
ed3f900a,0.08018347
58835983,0.998621
a783bdb3,0.5306206
76bf0e79,0.6817336
aada72d9,8.242616e-05
a1ca4187,0.90452516
5a3d8224,4.804749e-05
328e68bd,0.375528
32f5ee95,0.51387507
ce73809a,0.9993969
9a3c8482,0.00051345973
b37083ff,0.004198209
f01671c0,0.99863845
64e98469,4.1595193e-08
ebd806e6,0.906214
0df5c436,1.324275e-05
0bd98db1,1.2516181e-06
9f5d3bfb,3.7795787e-06
7a6149bc,0.9901848
2b92dadd,0.86227083
b7555b43,0.0024500939
90230ea7,0.40633857
7dfdee78,0.7103288
5bbdfc71,0.9990792
ac16f7f2,0.5499973
862b4f57,0.94899684
4283f28a,0.20146595
850a381c,0.07123862
f78fd217,0.79349613
9e37732e,1.1149951e-06
e8f6b3f0,0.67818475
d5a615f8,0.0014883385
ee9b291e,0.8678445
affcd7bf,0.71087474
3b43490b,0.47130263
73efa120,3.1733535e-07
9b47d1bf,0.00027497223
d3c1e961,0.96193236
63aae86a,0.016538924
95429378,0.89213574
de13af0f,0.34440157
328b74f4,0.9418309
d89d6fbc,0.8052179
7346c439,0.99194145
0719d5e2,0.31072372
68a20f15,0.99665403
fee78b0c,0.004458411
c3fca286,0.00052525004
a873532e,0.9912424
93afeece,0.6093491
92a21542,0.00079236657
d65f8eb3,0.9857055
2e5462d9,5.103227e-07
2757a316,0.9424753
7ce75dda,0.9928652
02e48c95,0.99822897
70a639ef,0.79148066
76412298,0.8203956
f8dd4fcc,3.145834e-07
e337d0b8,0.6142681
11a04625,0.08298488
3c866636,0.9847387
04bfcaec,0.9802439
42a86b3a,0.03953022
84fe7f94,0.06703797
04e6f331,0.6323994
92c90853,0.8184897
660a98a7,0.05688971
89670962,0.958277
9d586019,0.5849935
5f49ea3b,9.593074e-06
968e1414,0.9822565
389d7eaf,0.94298875
65ca9e76,0.85323024
a09cae27,0.03985961
00c5b3e0,0.13525389
7f9df2b0,0.98030776
a2303efc,0.9557146
cb62e5cb,0.9949767
9ff1e0f0,1.1941717e-05
39fd995a,0.870363
544d0681,0.9984854
cb0319fc,0.98969847
d86deb2b,0.8714719
cdee905a,0.989116
2539742b,5.445715e-06
2ea3c9f1,0.38508108
9cadda28,0.0021399844
8376a077,0.95139194
04e11240,0.007302712
c7d6f6f8,0.9999291
bba1a0f1,0.01908805
7f66bb44,1.7690761e-06
9d8f326c,0.9758936
