id,is_iceberg
d4bb8bac,0.9997596
28612c22,4.6795653e-06
d5c8ab27,0.00014102866
b8cf5edb,0.045666702
3f6778c5,0.19442071
0ecf7d79,0.016752886
4acfe35a,0.85001945
a5b4d551,1.0468826e-05
cacbe718,0.9980478
de1244d8,0.97068465
04f859f9,0.95394135
cedc73e3,0.08574699
6f17e58c,0.020274179
d45f1475,0.93394023
c35ccd42,1.0470032e-09
1799793b,0.97213674
bdf823e2,0.36570907
be0aa969,9.806959e-08
65951e77,0.9701053
e8b76fb7,0.9913856
ac6ca227,0.9638791
a8104355,0.9999975
e76a4a04,0.011761743
502a8388,0.9867237
c0c841d0,2.0341186e-06
ee49f0fb,0.9801404
dc6fa59d,0.9705866
3cef79cb,0.9999038
84673729,0.8299131
c5227b8a,0.001184465
574a1da7,0.9957973
207b59dd,0.07746998
309b5423,8.540148e-09
7cf1ff70,0.9929033
a8c38f58,0.00015501813
f659df68,0.91805226
076a815e,0.99988437
6a9478ad,0.7039275
f8661e3b,0.9831965
ea9da7da,4.8326515e-06
ec4952c3,0.6798478
1c607692,0.77528805
4cf47a74,0.5346572
e0cd0236,0.65254843
06b6ac23,0.98501474
11d06927,0.5562733
996ea0b1,0.99999857
e0ccd7bb,1.3903417e-05
b2bc5d27,0.5817967
71a0d13b,0.9980002
95ed1e8c,2.3567569e-07
bffad1b6,0.73063064
ce151e35,0.9077762
020f5eaa,0.85654074
ed3f900a,0.021098206
58835983,0.9999906
a783bdb3,0.19223124
76bf0e79,0.89947796
aada72d9,2.2480948e-05
a1ca4187,0.9972193
5a3d8224,5.4791948e-05
328e68bd,0.07854953
32f5ee95,0.07809886
ce73809a,0.999736
9a3c8482,1.8304096e-06
b37083ff,0.0040271785
f01671c0,0.99763465
64e98469,1.2031265e-06
ebd806e6,0.98217463
0df5c436,0.0011315985
0bd98db1,3.3502633e-06
9f5d3bfb,8.194549e-07
7a6149bc,0.9999751
2b92dadd,0.47701445
b7555b43,0.00051220617
90230ea7,0.034494452
7dfdee78,0.88364017
5bbdfc71,0.99955696
ac16f7f2,0.86196315
862b4f57,0.99965644
4283f28a,0.18249321
850a381c,0.08395328
f78fd217,0.9185422
9e37732e,7.1304322e-09
e8f6b3f0,0.5337655
d5a615f8,4.5691562e-05
ee9b291e,0.46317998
affcd7bf,0.6644701
3b43490b,0.0635661
73efa120,2.2123957e-07
9b47d1bf,0.0008082473
d3c1e961,0.9984969
63aae86a,0.014029459
95429378,0.9760936
de13af0f,0.020595796
328b74f4,0.987182
d89d6fbc,0.24850874
7346c439,0.98145574
0719d5e2,0.19801688
68a20f15,0.9999976
fee78b0c,0.009336919
c3fca286,7.4527215e-06
a873532e,0.9979461
93afeece,0.70525277
92a21542,3.2722575e-05
d65f8eb3,0.9906446
2e5462d9,1.0088506e-08
2757a316,0.8524979
7ce75dda,0.9927857
02e48c95,0.9998041
70a639ef,0.781247
76412298,0.8978131
f8dd4fcc,2.531089e-08
e337d0b8,0.19138862
11a04625,0.0016123765
3c866636,0.9960658
04bfcaec,0.99201137
42a86b3a,0.01737481
84fe7f94,0.048682623
04e6f331,0.26485124
92c90853,0.7968013
660a98a7,0.012798535
89670962,0.9806662
9d586019,0.43357742
5f49ea3b,0.00047567833
968e1414,0.99521756
389d7eaf,0.9594858
65ca9e76,0.93030256
a09cae27,0.04402073
00c5b3e0,0.08729093
7f9df2b0,0.9855597
a2303efc,0.97198695
cb62e5cb,0.9962872
9ff1e0f0,7.3999304e-06
39fd995a,0.65141904
544d0681,0.9976464
cb0319fc,0.99728596
d86deb2b,0.96627253
cdee905a,0.99877185
2539742b,1.1477107e-06
2ea3c9f1,0.20139357
9cadda28,0.0006340215
8376a077,0.98283017
04e11240,0.0015339187
c7d6f6f8,0.999982
bba1a0f1,0.0044468255
7f66bb44,1.18165016e-08
9d8f326c,0.989096
