id,is_iceberg
d4bb8bac,0.99998665
28612c22,0.00071133097
d5c8ab27,0.02296027
b8cf5edb,0.24005209
3f6778c5,0.40320665
0ecf7d79,0.05904855
4acfe35a,0.8493081
a5b4d551,0.00056712946
cacbe718,0.9988716
de1244d8,0.9874737
04f859f9,0.9552874
cedc73e3,0.37138253
6f17e58c,0.022208927
d45f1475,0.933634
c35ccd42,4.0500677e-06
1799793b,0.9918915
bdf823e2,0.4851264
be0aa969,0.00010832656
65951e77,0.9552928
e8b76fb7,0.93227327
ac6ca227,0.8950882
a8104355,0.999987
e76a4a04,0.035599526
502a8388,0.99508345
c0c841d0,0.0018954959
ee49f0fb,0.99722797
dc6fa59d,0.99582964
3cef79cb,0.99982965
84673729,0.9675406
c5227b8a,0.015664922
574a1da7,0.9985782
207b59dd,0.746672
309b5423,1.3730572e-06
7cf1ff70,0.99978703
a8c38f58,0.022817872
f659df68,0.9547903
076a815e,0.99994266
6a9478ad,0.6399148
f8661e3b,0.9935788
ea9da7da,0.00019929599
ec4952c3,0.848399
1c607692,0.57913536
4cf47a74,0.79996824
e0cd0236,0.8265383
06b6ac23,0.9700275
11d06927,0.45281857
996ea0b1,0.9999999
e0ccd7bb,0.00010097769
b2bc5d27,0.4711677
71a0d13b,0.9999354
95ed1e8c,3.085515e-05
bffad1b6,0.88153297
ce151e35,0.8602739
020f5eaa,0.8936177
ed3f900a,0.05533244
58835983,0.9999995
a783bdb3,0.43167704
76bf0e79,0.825484
aada72d9,0.00074792706
a1ca4187,0.99941707
5a3d8224,7.2425835e-05
328e68bd,0.14685045
32f5ee95,0.50182045
ce73809a,0.9998846
9a3c8482,0.0033531042
b37083ff,0.028484486
f01671c0,0.9996419
64e98469,1.2000464e-06
ebd806e6,0.9922131
0df5c436,0.06444318
0bd98db1,0.00010335382
9f5d3bfb,1.2734864e-05
7a6149bc,0.9999187
2b92dadd,0.94935626
b7555b43,0.006408344
90230ea7,0.24607597
7dfdee78,0.7770513
5bbdfc71,0.9999281
ac16f7f2,0.94420254
862b4f57,0.9996779
4283f28a,0.6765795
850a381c,0.20715988
f78fd217,0.79367375
9e37732e,5.322463e-06
e8f6b3f0,0.12910716
d5a615f8,0.00077161373
ee9b291e,0.8477204
affcd7bf,0.84759974
3b43490b,0.53124774
73efa120,0.0004720697
9b47d1bf,0.017428853
d3c1e961,0.9993339
63aae86a,0.006961679
95429378,0.97321224
de13af0f,0.030317945
328b74f4,0.9940295
d89d6fbc,0.42442283
7346c439,0.99965644
0719d5e2,0.27213022
68a20f15,0.9999981
fee78b0c,0.0033927453
c3fca286,0.00030904822
a873532e,0.9997154
93afeece,0.297588
92a21542,0.00052782265
d65f8eb3,0.9936132
2e5462d9,1.4963576e-05
2757a316,0.92728555
7ce75dda,0.9966968
02e48c95,0.9999486
70a639ef,0.8093915
76412298,0.9347717
f8dd4fcc,6.907326e-08
e337d0b8,0.5792192
11a04625,0.111907765
3c866636,0.9948119
04bfcaec,0.9990821
42a86b3a,0.03879893
84fe7f94,0.0062130964
04e6f331,0.49906406
92c90853,0.9405282
660a98a7,0.08641136
89670962,0.97986495
9d586019,0.4809492
5f49ea3b,0.023293225
968e1414,0.9992988
389d7eaf,0.9722777
65ca9e76,0.9896799
a09cae27,0.40736347
00c5b3e0,0.30531234
7f9df2b0,0.9966012
a2303efc,0.9855291
cb62e5cb,0.99879754
9ff1e0f0,0.00048444574
39fd995a,0.7399106
544d0681,0.99962854
cb0319fc,0.9998778
d86deb2b,0.9711731
cdee905a,0.9999627
2539742b,6.884209e-06
2ea3c9f1,0.5203854
9cadda28,0.004600298
8376a077,0.98288697
04e11240,0.012573317
c7d6f6f8,0.99999213
bba1a0f1,0.03996956
7f66bb44,1.2569986e-06
9d8f326c,0.99862695
