id,is_iceberg
d4bb8bac,0.8286807
28612c22,2.9689136e-05
d5c8ab27,0.00013497823
b8cf5edb,0.03297224
3f6778c5,0.7444844
0ecf7d79,0.0002682687
4acfe35a,0.31309065
a5b4d551,0.00032169253
cacbe718,0.99560463
de1244d8,0.93047357
04f859f9,0.8676429
cedc73e3,0.6738964
6f17e58c,0.05829591
d45f1475,0.7373365
c35ccd42,6.047598e-06
1799793b,0.9381493
bdf823e2,0.4116817
be0aa969,9.170765e-06
65951e77,0.90583205
e8b76fb7,0.9016748
ac6ca227,0.72763526
a8104355,0.98287416
e76a4a04,0.009640601
502a8388,0.9702041
c0c841d0,0.00024760867
ee49f0fb,0.98547065
dc6fa59d,0.96355206
3cef79cb,0.9522346
84673729,0.74574393
c5227b8a,0.00011247676
574a1da7,0.99786323
207b59dd,0.033316262
309b5423,4.0824145e-07
7cf1ff70,0.8773636
a8c38f58,0.0014185809
f659df68,0.9068862
076a815e,0.9984536
6a9478ad,0.5388936
f8661e3b,0.9877955
ea9da7da,4.3421198e-05
ec4952c3,0.9384034
1c607692,0.73930186
4cf47a74,0.7813903
e0cd0236,0.83418953
06b6ac23,0.9536253
11d06927,0.575288
996ea0b1,0.9994536
e0ccd7bb,0.0014350004
b2bc5d27,0.568059
71a0d13b,0.9980995
95ed1e8c,3.1075226e-06
bffad1b6,0.48311856
ce151e35,0.76833063
020f5eaa,0.8650366
ed3f900a,0.19938126
58835983,0.99822396
a783bdb3,0.38253435
76bf0e79,0.77343524
aada72d9,5.4807155e-05
a1ca4187,0.5491639
5a3d8224,0.001951292
328e68bd,0.07536657
32f5ee95,0.020060053
ce73809a,0.9991198
9a3c8482,4.2027168e-05
b37083ff,0.02437763
f01671c0,0.9988638
64e98469,1.8097252e-07
ebd806e6,0.95611036
0df5c436,0.0008262927
0bd98db1,5.4642246e-06
9f5d3bfb,0.00015487053
7a6149bc,0.98760825
2b92dadd,0.49071765
b7555b43,0.010533464
90230ea7,0.2454681
7dfdee78,0.66122115
5bbdfc71,0.99838233
ac16f7f2,0.88558525
862b4f57,0.88060784
4283f28a,0.052390587
850a381c,0.06680975
f78fd217,0.8245226
9e37732e,6.303813e-07
e8f6b3f0,0.5765649
d5a615f8,0.0066131246
ee9b291e,0.47778004
affcd7bf,0.66758466
3b43490b,0.67858475
73efa120,7.808185e-06
9b47d1bf,0.0009804678
d3c1e961,0.9890513
63aae86a,0.050924763
95429378,0.9239196
de13af0f,0.1229817
328b74f4,0.95317984
d89d6fbc,0.148085
7346c439,0.98506784
0719d5e2,0.21940427
68a20f15,0.98671186
fee78b0c,0.015547092
c3fca286,0.00021095162
a873532e,0.98332953
93afeece,0.45682794
92a21542,4.21725e-05
d65f8eb3,0.9847899
2e5462d9,8.5401183e-07
2757a316,0.6853007
7ce75dda,0.96057904
02e48c95,0.9987306
70a639ef,0.622234
76412298,0.8622509
f8dd4fcc,3.4240795e-08
e337d0b8,0.38884753
11a04625,0.26159146
3c866636,0.9837292
04bfcaec,0.9868996
42a86b3a,0.32328176
84fe7f94,0.37223655
04e6f331,0.35707504
92c90853,0.8438643
660a98a7,0.13946632
89670962,0.90081584
9d586019,0.4984543
5f49ea3b,0.00024330149
968e1414,0.98645973
389d7eaf,0.9144697
65ca9e76,0.9409138
a09cae27,0.47492868
00c5b3e0,0.3864521
7f9df2b0,0.9872455
a2303efc,0.89451206
cb62e5cb,0.99739146
9ff1e0f0,5.1542484e-05
39fd995a,0.36138892
544d0681,0.9949184
cb0319fc,0.988069
d86deb2b,0.967415
cdee905a,0.98698026
2539742b,0.0010354152
2ea3c9f1,0.58668846
9cadda28,0.005844046
8376a077,0.9322399
04e11240,0.034280803
c7d6f6f8,0.9995284
bba1a0f1,0.10087709
7f66bb44,4.0906475e-06
9d8f326c,0.99648213
