id,is_iceberg
d4bb8bac,0.99833715
28612c22,5.292345e-08
d5c8ab27,6.059099e-05
b8cf5edb,0.14995477
3f6778c5,0.43002245
0ecf7d79,4.949411e-06
4acfe35a,0.85148007
a5b4d551,2.937412e-07
cacbe718,0.995978
de1244d8,0.98749954
04f859f9,0.935979
cedc73e3,0.12605254
6f17e58c,0.059191514
d45f1475,0.93279016
c35ccd42,1.636744e-10
1799793b,0.93104255
bdf823e2,0.32217467
be0aa969,3.3852194e-09
65951e77,0.9757524
e8b76fb7,0.9804458
ac6ca227,0.8987521
a8104355,0.99953294
e76a4a04,0.00091005
502a8388,0.99782205
c0c841d0,2.3602372e-06
ee49f0fb,0.9924172
dc6fa59d,0.9930462
3cef79cb,0.99704367
84673729,0.9498951
c5227b8a,0.00010886265
574a1da7,0.99823654
207b59dd,0.3442856
309b5423,4.8325038e-12
7cf1ff70,0.99694
a8c38f58,0.0001237463
f659df68,0.95136636
076a815e,0.9999819
6a9478ad,0.90014124
f8661e3b,0.9915358
ea9da7da,2.579463e-07
ec4952c3,0.88391596
1c607692,0.5939418
4cf47a74,0.617857
e0cd0236,0.86224765
06b6ac23,0.9429863
11d06927,0.6284984
996ea0b1,0.99999917
e0ccd7bb,8.608579e-06
b2bc5d27,0.8054738
71a0d13b,0.9998808
95ed1e8c,3.161736e-11
bffad1b6,0.54275495
ce151e35,0.92437583
020f5eaa,0.9414394
ed3f900a,0.005140167
58835983,0.9999895
a783bdb3,0.39328557
76bf0e79,0.82997084
aada72d9,1.6561863e-07
a1ca4187,0.99844724
5a3d8224,1.3819312e-06
328e68bd,0.02063753
32f5ee95,0.6174898
ce73809a,0.9999536
9a3c8482,3.1067088e-07
b37083ff,0.00062342937
f01671c0,0.99982005
64e98469,2.5886543e-10
ebd806e6,0.989417
0df5c436,0.00046786582
0bd98db1,5.8741443e-09
9f5d3bfb,2.1603672e-09
7a6149bc,0.99936074
2b92dadd,0.79374164
b7555b43,7.968803e-06
90230ea7,0.15337983
7dfdee78,0.8811783
5bbdfc71,0.9999672
ac16f7f2,0.4514778
862b4f57,0.98456144
4283f28a,0.36027697
850a381c,0.0071911183
f78fd217,0.89278775
9e37732e,1.1704346e-08
e8f6b3f0,0.69899523
d5a615f8,0.00055631367
ee9b291e,0.9741167
affcd7bf,0.5498224
3b43490b,0.25526232
73efa120,1.3058036e-08
9b47d1bf,0.00035129895
d3c1e961,0.9953389
63aae86a,0.0013318837
95429378,0.96114826
de13af0f,0.08360006
328b74f4,0.97973436
d89d6fbc,0.24593846
7346c439,0.99924564
0719d5e2,0.13437721
68a20f15,0.9998801
fee78b0c,0.00057502644
c3fca286,2.8389348e-05
a873532e,0.9995369
93afeece,0.9072165
92a21542,3.5494998e-06
d65f8eb3,0.9965873
2e5462d9,3.0228323e-10
2757a316,0.93307245
7ce75dda,0.9991258
02e48c95,0.9997569
70a639ef,0.8318823
76412298,0.9100576
f8dd4fcc,4.6007642e-11
e337d0b8,0.53444296
11a04625,0.019914571
3c866636,0.997273
04bfcaec,0.9949929
42a86b3a,0.027394334
84fe7f94,0.07769819
04e6f331,0.69529134
92c90853,0.76963955
660a98a7,0.008209768
89670962,0.9581353
9d586019,0.5393045
5f49ea3b,4.3817017e-06
968e1414,0.99814546
389d7eaf,0.9636103
65ca9e76,0.9834435
a09cae27,0.10451213
00c5b3e0,0.0063229245
7f9df2b0,0.9905974
a2303efc,0.97028816
cb62e5cb,0.9994967
9ff1e0f0,2.7047136e-07
39fd995a,0.5988377
544d0681,0.99987507
cb0319fc,0.9987224
d86deb2b,0.9828268
cdee905a,0.99977833
2539742b,2.0335533e-07
2ea3c9f1,0.458094
9cadda28,1.0780032e-05
8376a077,0.9824965
04e11240,0.00015061436
c7d6f6f8,0.99999917
bba1a0f1,0.016974468
7f66bb44,8.360794e-09
9d8f326c,0.9979803
