id,is_iceberg
d4bb8bac,0.67455935
28612c22,0.0011994662
d5c8ab27,0.0008021815
b8cf5edb,0.4001748
3f6778c5,0.6063014
0ecf7d79,0.011820314
4acfe35a,0.93085545
a5b4d551,0.00032247062
cacbe718,0.99457365
de1244d8,0.97433144
04f859f9,0.9435721
cedc73e3,0.34171164
6f17e58c,0.18511346
d45f1475,0.9008584
c35ccd42,5.7156262e-06
1799793b,0.9808508
bdf823e2,0.54759234
be0aa969,3.9251463e-06
65951e77,0.9653876
e8b76fb7,0.148984
ac6ca227,0.8362857
a8104355,0.9985593
e76a4a04,0.042227045
502a8388,0.9823883
c0c841d0,0.002435999
ee49f0fb,0.8796428
dc6fa59d,0.98535085
3cef79cb,0.99450386
84673729,0.8351115
c5227b8a,0.0025274747
574a1da7,0.99399537
207b59dd,0.5112631
309b5423,1.3807877e-06
7cf1ff70,0.98111457
a8c38f58,0.02328731
f659df68,0.8738468
076a815e,0.99976426
6a9478ad,0.7071331
f8661e3b,0.9813246
ea9da7da,0.00014317084
ec4952c3,0.92838407
1c607692,0.7489738
4cf47a74,0.8653628
e0cd0236,0.6317785
06b6ac23,0.9496684
11d06927,0.60402346
996ea0b1,0.999899
e0ccd7bb,0.0040681744
b2bc5d27,0.6007254
71a0d13b,0.998735
95ed1e8c,8.3320665e-06
bffad1b6,0.7248819
ce151e35,0.9351841
020f5eaa,0.8896127
ed3f900a,0.18496042
58835983,0.9996561
a783bdb3,0.020920845
76bf0e79,0.66350967
aada72d9,0.00029820285
a1ca4187,0.98160136
5a3d8224,0.0006212792
328e68bd,0.5135519
32f5ee95,0.64109504
ce73809a,0.99948406
9a3c8482,0.0016462237
b37083ff,0.0015866335
f01671c0,0.9980557
64e98469,2.1847496e-05
ebd806e6,0.96516365
0df5c436,0.0041341097
0bd98db1,7.1108284e-06
9f5d3bfb,1.863331e-05
7a6149bc,0.9965155
2b92dadd,0.5467053
b7555b43,0.0059902165
90230ea7,0.21830888
7dfdee78,0.7753259
5bbdfc71,0.99978894
ac16f7f2,0.79447174
862b4f57,0.97909766
4283f28a,0.17942366
850a381c,0.2997065
f78fd217,0.86955416
9e37732e,7.2563676e-06
e8f6b3f0,0.39076194
d5a615f8,0.001091256
ee9b291e,0.94311607
affcd7bf,0.7210983
3b43490b,0.3886877
73efa120,2.6062378e-05
9b47d1bf,0.0037220425
d3c1e961,0.9928415
63aae86a,0.10522766
95429378,0.94636536
de13af0f,0.57076603
328b74f4,0.9766359
d89d6fbc,0.22192775
7346c439,0.99667335
0719d5e2,0.7823126
68a20f15,0.9984316
fee78b0c,0.0015918412
c3fca286,0.0012774464
a873532e,0.9983557
93afeece,0.78381956
92a21542,0.0011787175
d65f8eb3,0.99416864
2e5462d9,9.254663e-07
2757a316,0.82204014
7ce75dda,0.99709713
02e48c95,0.99947745
70a639ef,0.8358984
76412298,0.90178394
f8dd4fcc,7.399352e-06
e337d0b8,0.6298863
11a04625,0.06364266
3c866636,0.99793494
04bfcaec,0.997903
42a86b3a,0.102135226
84fe7f94,0.07155774
04e6f331,0.56372494
92c90853,0.8721511
660a98a7,0.34905484
89670962,0.9716517
9d586019,0.47302333
5f49ea3b,0.00022705505
968e1414,0.9956792
389d7eaf,0.9663509
65ca9e76,0.9616536
a09cae27,0.1196488
00c5b3e0,0.38235584
7f9df2b0,0.98644036
a2303efc,0.98320735
cb62e5cb,0.9982029
9ff1e0f0,0.00010339611
39fd995a,0.80258626
544d0681,0.9956358
cb0319fc,0.9838388
d86deb2b,0.6136408
cdee905a,0.99945384
2539742b,2.167771e-05
2ea3c9f1,0.61521876
9cadda28,5.8925616e-06
8376a077,0.9546773
04e11240,0.084806435
c7d6f6f8,0.9999622
bba1a0f1,0.004465034
7f66bb44,8.7296314e-05
9d8f326c,0.99758947
