id,is_iceberg
d4bb8bac,0.87957466
28612c22,1.1947527e-05
d5c8ab27,0.000918544
b8cf5edb,0.018437767
3f6778c5,0.32759646
0ecf7d79,9.895853e-05
4acfe35a,0.503549
a5b4d551,5.2201274e-05
cacbe718,0.9950192
de1244d8,0.9068164
04f859f9,0.93441874
cedc73e3,0.08807225
6f17e58c,0.09442845
d45f1475,0.8221531
c35ccd42,8.310308e-06
1799793b,0.9634481
bdf823e2,0.42453519
be0aa969,0.00014446882
65951e77,0.90351295
e8b76fb7,0.61587244
ac6ca227,0.8005267
a8104355,0.97365844
e76a4a04,0.00022057038
502a8388,0.9876396
c0c841d0,7.993937e-05
ee49f0fb,0.9729715
dc6fa59d,0.9287802
3cef79cb,0.9195214
84673729,0.40708715
c5227b8a,0.00058985554
574a1da7,0.9983845
207b59dd,0.21394983
309b5423,7.6054907e-06
7cf1ff70,0.9925338
a8c38f58,0.0009471046
f659df68,0.87227196
076a815e,0.9996406
6a9478ad,0.6119464
f8661e3b,0.97837377
ea9da7da,0.00012824571
ec4952c3,0.8787161
1c607692,0.18428884
4cf47a74,0.61635315
e0cd0236,0.50929517
06b6ac23,0.96684396
11d06927,0.606126
996ea0b1,0.99937516
e0ccd7bb,2.2249706e-05
b2bc5d27,0.50528985
71a0d13b,0.9998456
95ed1e8c,1.0787196e-06
bffad1b6,0.40824062
ce151e35,0.76804024
020f5eaa,0.8026632
ed3f900a,0.06823659
58835983,0.99612445
a783bdb3,0.3704942
76bf0e79,0.65019685
aada72d9,0.00028046116
a1ca4187,0.96768636
5a3d8224,0.00071344944
328e68bd,0.046214093
32f5ee95,0.16134563
ce73809a,0.998767
9a3c8482,0.00013905026
b37083ff,0.014610856
f01671c0,0.99902976
64e98469,2.2522693e-07
ebd806e6,0.9513327
0df5c436,0.0038373074
0bd98db1,3.473219e-05
9f5d3bfb,0.00010152174
7a6149bc,0.9802926
2b92dadd,0.8872845
b7555b43,0.0013094342
90230ea7,0.055133447
7dfdee78,0.7909006
5bbdfc71,0.9994091
ac16f7f2,0.8223765
862b4f57,0.8144128
4283f28a,0.19836737
850a381c,0.026641568
f78fd217,0.8565499
9e37732e,1.3703514e-05
e8f6b3f0,0.34731168
d5a615f8,0.0009975102
ee9b291e,0.47718203
affcd7bf,0.669959
3b43490b,0.3572555
73efa120,2.3734467e-05
9b47d1bf,0.00014641133
d3c1e961,0.99028045
63aae86a,0.003588317
95429378,0.9692936
de13af0f,0.029895918
328b74f4,0.8898979
d89d6fbc,0.0681847
7346c439,0.99527246
0719d5e2,0.2611013
68a20f15,0.99322367
fee78b0c,0.0031715655
c3fca286,3.571557e-05
a873532e,0.99321586
93afeece,0.47878242
92a21542,0.00013175723
d65f8eb3,0.9880943
2e5462d9,4.426799e-06
2757a316,0.61367416
7ce75dda,0.99598336
02e48c95,0.99889344
70a639ef,0.6542211
76412298,0.89381355
f8dd4fcc,2.716745e-07
e337d0b8,0.32894737
11a04625,0.0052301856
3c866636,0.9900259
04bfcaec,0.9938572
42a86b3a,0.012744642
84fe7f94,0.032590203
04e6f331,0.5366043
92c90853,0.6367568
660a98a7,0.049725916
89670962,0.9518495
9d586019,0.4228543
5f49ea3b,0.0014079831
968e1414,0.9897531
389d7eaf,0.83000183
65ca9e76,0.8950719
a09cae27,0.027393159
00c5b3e0,0.09768928
7f9df2b0,0.9922408
a2303efc,0.9652034
cb62e5cb,0.9974388
9ff1e0f0,0.00034464514
39fd995a,0.38264498
544d0681,0.99619305
cb0319fc,0.99680424
d86deb2b,0.95552504
cdee905a,0.99922705
2539742b,0.001780821
2ea3c9f1,0.42328364
9cadda28,0.1298412
8376a077,0.9299944
04e11240,0.0021833011
c7d6f6f8,0.99971193
bba1a0f1,0.007420206
7f66bb44,1.3567061e-06
9d8f326c,0.9949056
