id,is_iceberg
d4bb8bac,0.91696817
28612c22,0.0022532984
d5c8ab27,0.0008232849
b8cf5edb,0.32894328
3f6778c5,0.38245714
0ecf7d79,4.7459544e-05
4acfe35a,0.56322587
a5b4d551,0.006061241
cacbe718,0.9826833
de1244d8,0.9573854
04f859f9,0.945465
cedc73e3,0.11989245
6f17e58c,0.16575317
d45f1475,0.94484884
c35ccd42,7.1073773e-06
1799793b,0.9870422
bdf823e2,0.5771336
be0aa969,9.53742e-06
65951e77,0.9602504
e8b76fb7,0.6344285
ac6ca227,0.91003156
a8104355,0.9708552
e76a4a04,0.000587002
502a8388,0.97653085
c0c841d0,0.0015220011
ee49f0fb,0.8104995
dc6fa59d,0.98801154
3cef79cb,0.9553562
84673729,0.29064438
c5227b8a,0.00046186094
574a1da7,0.9850559
207b59dd,0.8703154
309b5423,5.434996e-06
7cf1ff70,0.98902696
a8c38f58,0.010456127
f659df68,0.36205703
076a815e,0.99682885
6a9478ad,0.7470638
f8661e3b,0.9752008
ea9da7da,9.463616e-06
ec4952c3,0.7797201
1c607692,0.5078058
4cf47a74,0.538107
e0cd0236,0.50288856
06b6ac23,0.9292656
11d06927,0.3677204
996ea0b1,0.99830747
e0ccd7bb,3.292471e-06
b2bc5d27,0.50606227
71a0d13b,0.99772924
95ed1e8c,1.2031681e-05
bffad1b6,0.8874824
ce151e35,0.96026796
020f5eaa,0.1866563
ed3f900a,0.030574793
58835983,0.99013966
a783bdb3,0.65565133
76bf0e79,0.7781674
aada72d9,0.0009844422
a1ca4187,0.98898786
5a3d8224,0.00041069268
328e68bd,0.49678847
32f5ee95,0.30893868
ce73809a,0.9981957
9a3c8482,0.0003697526
b37083ff,0.0010137289
f01671c0,0.9890882
64e98469,2.5141122e-07
ebd806e6,0.95338625
0df5c436,0.00037358384
0bd98db1,0.00014209721
9f5d3bfb,4.2393976e-06
7a6149bc,0.9768593
2b92dadd,0.67500615
b7555b43,0.023996292
90230ea7,0.08205384
7dfdee78,0.71720386
5bbdfc71,0.9931925
ac16f7f2,0.7707046
862b4f57,0.86648184
4283f28a,0.12265803
850a381c,0.041085232
f78fd217,0.8581767
9e37732e,2.2400806e-07
e8f6b3f0,0.43279627
d5a615f8,0.0006100385
ee9b291e,0.9255193
affcd7bf,0.77109563
3b43490b,0.3904855
73efa120,7.557931e-05
9b47d1bf,8.259422e-05
d3c1e961,0.99311227
63aae86a,0.010020924
95429378,0.9364831
de13af0f,0.34487778
328b74f4,0.968902
d89d6fbc,0.6401679
7346c439,0.9952016
0719d5e2,0.5623435
68a20f15,0.99181527
fee78b0c,0.001103085
c3fca286,7.9614605e-05
a873532e,0.9939031
93afeece,0.48828843
92a21542,0.00034600595
d65f8eb3,0.95705116
2e5462d9,1.4761113e-06
2757a316,0.76053697
7ce75dda,0.9953767
02e48c95,0.99561775
70a639ef,0.8735502
76412298,0.96191925
f8dd4fcc,1.7844124e-07
e337d0b8,0.46126318
11a04625,0.002720359
3c866636,0.9870695
04bfcaec,0.97808814
42a86b3a,0.05316344
84fe7f94,0.004081833
04e6f331,0.5742851
92c90853,0.7375844
660a98a7,0.06810367
89670962,0.8451252
9d586019,0.37737897
5f49ea3b,0.010794955
968e1414,0.9879953
389d7eaf,0.89419204
65ca9e76,0.7809712
a09cae27,0.008405451
00c5b3e0,0.4641404
7f9df2b0,0.98633146
a2303efc,0.947943
cb62e5cb,0.9922943
9ff1e0f0,0.0009849375
39fd995a,0.76468706
544d0681,0.9950412
cb0319fc,0.9919069
d86deb2b,0.79742396
cdee905a,0.9957688
2539742b,4.89448e-05
2ea3c9f1,0.743041
9cadda28,0.0084653
8376a077,0.9715566
04e11240,0.08470752
c7d6f6f8,0.996601
bba1a0f1,0.00056862197
7f66bb44,1.014307e-06
9d8f326c,0.994304
