id,is_iceberg
d4bb8bac,0.9987452
28612c22,0.00022662098
d5c8ab27,0.06306547
b8cf5edb,0.513288
3f6778c5,0.3106536
0ecf7d79,0.0010934772
4acfe35a,0.9374333
a5b4d551,2.6531752e-05
cacbe718,0.9989919
de1244d8,0.9974253
04f859f9,0.9948146
cedc73e3,0.13002263
6f17e58c,0.05407577
d45f1475,0.9947595
c35ccd42,1.9262288e-06
1799793b,0.9975031
bdf823e2,0.93251216
be0aa969,0.00037014953
65951e77,0.995381
e8b76fb7,0.8148228
ac6ca227,0.99356574
a8104355,0.9985102
e76a4a04,0.1720782
502a8388,0.9997863
c0c841d0,0.03830827
ee49f0fb,0.9942556
dc6fa59d,0.99789774
3cef79cb,0.9982204
84673729,0.98541784
c5227b8a,0.00021354704
574a1da7,0.99966884
207b59dd,0.96480656
309b5423,3.1432864e-05
7cf1ff70,0.99727964
a8c38f58,0.008578029
f659df68,0.95698667
076a815e,0.99994314
6a9478ad,0.9772729
f8661e3b,0.9959757
ea9da7da,0.000112964655
ec4952c3,0.98540175
1c607692,0.89054
4cf47a74,0.5735618
e0cd0236,0.9027345
06b6ac23,0.9925443
11d06927,0.92394453
996ea0b1,0.9997688
e0ccd7bb,1.8947042e-06
b2bc5d27,0.7406028
71a0d13b,0.9999702
95ed1e8c,1.1673672e-07
bffad1b6,0.94732434
ce151e35,0.992378
020f5eaa,0.9072041
ed3f900a,0.032415725
58835983,0.99902046
a783bdb3,0.91351926
76bf0e79,0.93495274
aada72d9,0.0060994355
a1ca4187,0.99658054
5a3d8224,0.00019540882
328e68bd,0.056013413
32f5ee95,0.7374781
ce73809a,0.99979156
9a3c8482,0.008439954
b37083ff,0.059414085
f01671c0,0.9997931
64e98469,3.065524e-05
ebd806e6,0.9968635
0df5c436,0.0143878795
0bd98db1,0.0051145786
9f5d3bfb,3.6318754e-06
7a6149bc,0.9994091
2b92dadd,0.9919573
b7555b43,0.0057139127
90230ea7,0.052112933
7dfdee78,0.964728
5bbdfc71,0.9996245
ac16f7f2,0.91617227
862b4f57,0.99231625
4283f28a,0.43483815
850a381c,0.22528742
f78fd217,0.98985463
9e37732e,2.6693646e-05
e8f6b3f0,0.504456
d5a615f8,0.03283573
ee9b291e,0.9797537
affcd7bf,0.7233218
3b43490b,0.9231902
73efa120,1.0726138e-06
9b47d1bf,0.03430791
d3c1e961,0.99945134
63aae86a,0.004205919
95429378,0.9978611
de13af0f,0.5050036
328b74f4,0.99749774
d89d6fbc,0.2356685
7346c439,0.99880254
0719d5e2,0.8925481
68a20f15,0.9995628
fee78b0c,0.0084619345
c3fca286,0.00017195086
a873532e,0.9996045
93afeece,0.94148016
92a21542,0.00041349954
d65f8eb3,0.99921465
2e5462d9,1.8722678e-06
2757a316,0.98253846
7ce75dda,0.99968207
02e48c95,0.9994973
70a639ef,0.97749
76412298,0.99561477
f8dd4fcc,2.5089964e-06
e337d0b8,0.821515
11a04625,0.0016161245
3c866636,0.9979831
04bfcaec,0.9990601
42a86b3a,0.019513281
84fe7f94,0.00862988
04e6f331,0.64709437
92c90853,0.98187375
660a98a7,0.0059190346
89670962,0.9872132
9d586019,0.7133891
5f49ea3b,0.0037777852
968e1414,0.9980088
389d7eaf,0.99534744
65ca9e76,0.9920322
a09cae27,0.004072013
00c5b3e0,0.66592497
7f9df2b0,0.99883014
a2303efc,0.99460876
cb62e5cb,0.99946815
9ff1e0f0,0.0018717741
39fd995a,0.8725446
544d0681,0.99950504
cb0319fc,0.99830997
d86deb2b,0.99365246
cdee905a,0.99934024
2539742b,0.039325863
2ea3c9f1,0.91349417
9cadda28,0.05906548
8376a077,0.99864334
04e11240,0.005711634
c7d6f6f8,0.99996114
bba1a0f1,0.00073159573
7f66bb44,2.1725535e-05
9d8f326c,0.99912196
