id,is_iceberg
d4bb8bac,0.9900911
28612c22,4.5600325e-05
d5c8ab27,0.00090031157
b8cf5edb,0.55367124
3f6778c5,0.36142394
0ecf7d79,0.0022192313
4acfe35a,0.90605444
a5b4d551,4.419075e-05
cacbe718,0.9962543
de1244d8,0.98974997
04f859f9,0.97009987
cedc73e3,0.03958885
6f17e58c,0.09691268
d45f1475,0.99471116
c35ccd42,2.1980843e-07
1799793b,0.9639563
bdf823e2,0.6169873
be0aa969,3.7853647e-06
65951e77,0.9859633
e8b76fb7,0.09618358
ac6ca227,0.96357673
a8104355,0.99166757
e76a4a04,0.00089383125
502a8388,0.99181306
c0c841d0,0.00011149307
ee49f0fb,0.94990045
dc6fa59d,0.99732447
3cef79cb,0.9935741
84673729,0.8492106
c5227b8a,5.1691633e-05
574a1da7,0.99095386
207b59dd,0.7245968
309b5423,3.8591116e-07
7cf1ff70,0.98411304
a8c38f58,0.00027980813
f659df68,0.62975174
076a815e,0.9981019
6a9478ad,0.8894244
f8661e3b,0.99430543
ea9da7da,2.4232506e-05
ec4952c3,0.7659058
1c607692,0.31744742
4cf47a74,0.26899296
e0cd0236,0.1871329
06b6ac23,0.9484467
11d06927,0.7995991
996ea0b1,0.9996916
e0ccd7bb,6.8348722e-06
b2bc5d27,0.63397026
71a0d13b,0.99970526
95ed1e8c,5.6469767e-09
bffad1b6,0.116979405
ce151e35,0.94878656
020f5eaa,0.48565376
ed3f900a,0.0022886733
58835983,0.99876726
a783bdb3,0.7115946
76bf0e79,0.8408088
aada72d9,5.4714725e-05
a1ca4187,0.99804115
5a3d8224,2.6664311e-05
328e68bd,0.016739406
32f5ee95,0.48760545
ce73809a,0.99978584
9a3c8482,1.5038481e-05
b37083ff,0.0015880218
f01671c0,0.9968712
64e98469,9.4137795e-07
ebd806e6,0.98002815
0df5c436,0.0017177328
0bd98db1,3.4212426e-05
9f5d3bfb,3.9875708e-08
7a6149bc,0.99111664
2b92dadd,0.5831531
b7555b43,0.00015324644
90230ea7,0.032024805
7dfdee78,0.8983351
5bbdfc71,0.9991703
ac16f7f2,0.53289163
862b4f57,0.97242546
4283f28a,0.09467196
850a381c,0.01505478
f78fd217,0.9399283
9e37732e,5.850074e-06
e8f6b3f0,0.6058426
d5a615f8,2.5760568e-05
ee9b291e,0.9329391
affcd7bf,0.77459633
3b43490b,0.24796443
73efa120,2.7466385e-07
9b47d1bf,0.00024362671
d3c1e961,0.99835134
63aae86a,0.005619269
95429378,0.9879232
de13af0f,0.15046673
328b74f4,0.9837466
d89d6fbc,0.07050277
7346c439,0.9974675
0719d5e2,0.33664805
68a20f15,0.99908185
fee78b0c,2.5838954e-05
c3fca286,4.0322186e-05
a873532e,0.99635184
93afeece,0.41275144
92a21542,5.975928e-05
d65f8eb3,0.99184954
2e5462d9,5.0809952e-08
2757a316,0.9191602
7ce75dda,0.998887
02e48c95,0.9992304
70a639ef,0.88899684
76412298,0.9875329
f8dd4fcc,5.8475976e-08
e337d0b8,0.3840784
11a04625,9.6313786e-05
3c866636,0.9972645
04bfcaec,0.99472237
42a86b3a,0.0012342917
84fe7f94,0.008284027
04e6f331,0.59931105
92c90853,0.7904919
660a98a7,0.009093004
89670962,0.96709365
9d586019,0.66140866
5f49ea3b,2.2757138e-05
968e1414,0.976861
389d7eaf,0.8881537
65ca9e76,0.90757406
a09cae27,0.0013178323
00c5b3e0,0.23279531
7f9df2b0,0.9920175
a2303efc,0.989687
cb62e5cb,0.99869686
9ff1e0f0,8.196175e-05
39fd995a,0.7985859
544d0681,0.99859136
cb0319fc,0.99796367
d86deb2b,0.7008071
cdee905a,0.99925
2539742b,7.50784e-05
2ea3c9f1,0.7535571
9cadda28,0.0028451884
8376a077,0.99251735
04e11240,0.0028163441
c7d6f6f8,0.99959797
bba1a0f1,0.0005200556
7f66bb44,7.7387807e-07
9d8f326c,0.99806064
