id,is_iceberg
d4bb8bac,0.8604405
28612c22,1.71237e-05
d5c8ab27,0.00034677717
b8cf5edb,0.1249371
3f6778c5,0.76904047
0ecf7d79,1.1170419e-05
4acfe35a,0.6484035
a5b4d551,0.00037382144
cacbe718,0.98562115
de1244d8,0.9329126
04f859f9,0.89960665
cedc73e3,0.74917275
6f17e58c,0.11419968
d45f1475,0.8034948
c35ccd42,7.2406897e-06
1799793b,0.9406846
bdf823e2,0.622729
be0aa969,5.280851e-05
65951e77,0.9387805
e8b76fb7,0.78411996
ac6ca227,0.8813537
a8104355,0.91762346
e76a4a04,0.00037249795
502a8388,0.94794434
c0c841d0,0.000117345335
ee49f0fb,0.9702077
dc6fa59d,0.96667427
3cef79cb,0.89759576
84673729,0.76035416
c5227b8a,0.0001388187
574a1da7,0.99502337
207b59dd,0.2711375
309b5423,1.0611078e-06
7cf1ff70,0.9495329
a8c38f58,0.00063997135
f659df68,0.7652604
076a815e,0.992461
6a9478ad,0.73981416
f8661e3b,0.9817347
ea9da7da,7.541394e-05
ec4952c3,0.9094418
1c607692,0.67393965
4cf47a74,0.72288203
e0cd0236,0.73725
06b6ac23,0.93863446
11d06927,0.662143
996ea0b1,0.99651295
e0ccd7bb,0.002395027
b2bc5d27,0.6777618
71a0d13b,0.9959133
95ed1e8c,2.6021423e-06
bffad1b6,0.8065158
ce151e35,0.8628131
020f5eaa,0.82245624
ed3f900a,0.3878368
58835983,0.9881535
a783bdb3,0.4858359
76bf0e79,0.8285251
aada72d9,0.00051326916
a1ca4187,0.79785997
5a3d8224,0.010264262
328e68bd,0.129791
32f5ee95,0.10844713
ce73809a,0.99014497
9a3c8482,8.192971e-05
b37083ff,0.27225077
f01671c0,0.99421483
64e98469,1.1400247e-08
ebd806e6,0.94234765
0df5c436,0.0013831003
0bd98db1,6.056269e-05
9f5d3bfb,0.00041428686
7a6149bc,0.95513195
2b92dadd,0.506936
b7555b43,0.010626852
90230ea7,0.5405576
7dfdee78,0.7740417
5bbdfc71,0.990231
ac16f7f2,0.8083654
862b4f57,0.9041926
4283f28a,0.30644283
850a381c,0.07034232
f78fd217,0.8840408
9e37732e,3.2391981e-06
e8f6b3f0,0.66156614
d5a615f8,0.012645991
ee9b291e,0.6088929
affcd7bf,0.8163809
3b43490b,0.5220642
73efa120,7.0761316e-06
9b47d1bf,2.7357943e-05
d3c1e961,0.97366434
63aae86a,0.03589194
95429378,0.9362713
de13af0f,0.024995295
328b74f4,0.93733746
d89d6fbc,0.41823086
7346c439,0.9783766
0719d5e2,0.12820664
68a20f15,0.9831077
fee78b0c,0.104009695
c3fca286,0.0012656057
a873532e,0.9784526
93afeece,0.7762748
92a21542,8.2550825e-05
d65f8eb3,0.9726654
2e5462d9,5.846355e-07
2757a316,0.7129623
7ce75dda,0.9732317
02e48c95,0.99243873
70a639ef,0.74884844
76412298,0.8585541
f8dd4fcc,3.5995495e-09
e337d0b8,0.63318115
11a04625,0.06781716
3c866636,0.9791834
04bfcaec,0.9823583
42a86b3a,0.14882773
84fe7f94,0.37971935
04e6f331,0.6481241
92c90853,0.9153719
660a98a7,0.08804141
89670962,0.8713649
9d586019,0.6255083
5f49ea3b,0.0069382438
968e1414,0.9768673
389d7eaf,0.9468194
65ca9e76,0.95290536
a09cae27,0.30844516
00c5b3e0,0.60549116
7f9df2b0,0.969343
a2303efc,0.93979424
cb62e5cb,0.9811198
9ff1e0f0,0.00010411083
39fd995a,0.8437031
544d0681,0.98890626
cb0319fc,0.98739064
d86deb2b,0.9459987
cdee905a,0.9876036
2539742b,0.003914303
2ea3c9f1,0.77072453
9cadda28,0.049676757
8376a077,0.9558569
04e11240,0.05099517
c7d6f6f8,0.9928269
bba1a0f1,0.051358435
7f66bb44,2.6951454e-06
9d8f326c,0.9858284
