id,is_iceberg
d4bb8bac,0.9818635
28612c22,0.00020649315
d5c8ab27,0.04575494
b8cf5edb,0.39744124
3f6778c5,0.5431732
0ecf7d79,0.00062795903
4acfe35a,0.60076255
a5b4d551,0.00027825346
cacbe718,0.97184396
de1244d8,0.9683576
04f859f9,0.9742522
cedc73e3,0.22138171
6f17e58c,0.1943917
d45f1475,0.95590127
c35ccd42,2.6555028e-06
1799793b,0.92921495
bdf823e2,0.7937299
be0aa969,3.9874292e-05
65951e77,0.95851016
e8b76fb7,0.26912528
ac6ca227,0.92797446
a8104355,0.98738796
e76a4a04,0.00060376717
502a8388,0.9851297
c0c841d0,0.0009541766
ee49f0fb,0.97895664
dc6fa59d,0.9819625
3cef79cb,0.97601855
84673729,0.82376593
c5227b8a,0.0007624828
574a1da7,0.9900934
207b59dd,0.791653
309b5423,9.445817e-06
7cf1ff70,0.8800977
a8c38f58,0.013622944
f659df68,0.9441006
076a815e,0.99769527
6a9478ad,0.9351034
f8661e3b,0.98312324
ea9da7da,4.9626622e-05
ec4952c3,0.8769808
1c607692,0.6041384
4cf47a74,0.5183561
e0cd0236,0.8084323
06b6ac23,0.9099892
11d06927,0.8685287
996ea0b1,0.998882
e0ccd7bb,0.000900496
b2bc5d27,0.89403653
71a0d13b,0.9988048
95ed1e8c,5.3074825e-07
bffad1b6,0.8576975
ce151e35,0.9116281
020f5eaa,0.7973724
ed3f900a,0.0080161225
58835983,0.9982993
a783bdb3,0.47448704
76bf0e79,0.8545867
aada72d9,0.0009638375
a1ca4187,0.98180056
5a3d8224,0.00018892332
328e68bd,0.07455326
32f5ee95,0.589059
ce73809a,0.99876153
9a3c8482,0.00014874442
b37083ff,0.0074445563
f01671c0,0.9983693
64e98469,2.4963422e-06
ebd806e6,0.9577087
0df5c436,0.013082329
0bd98db1,0.00066504185
9f5d3bfb,3.950054e-06
7a6149bc,0.9894839
2b92dadd,0.7238523
b7555b43,0.00471957
90230ea7,0.47981754
7dfdee78,0.918134
5bbdfc71,0.99304044
ac16f7f2,0.718382
862b4f57,0.95434046
4283f28a,0.1744967
850a381c,0.07086655
f78fd217,0.9483695
9e37732e,2.2242726e-05
e8f6b3f0,0.7911139
d5a615f8,0.00038530602
ee9b291e,0.83049613
affcd7bf,0.8490461
3b43490b,0.27927795
73efa120,1.1776521e-05
9b47d1bf,0.00017175764
d3c1e961,0.9911033
63aae86a,0.09913901
95429378,0.97501254
de13af0f,0.09387933
328b74f4,0.95705926
d89d6fbc,0.19400242
7346c439,0.9970763
0719d5e2,0.34273008
68a20f15,0.9953271
fee78b0c,0.0031330227
c3fca286,0.011650968
a873532e,0.99217176
93afeece,0.83015496
92a21542,0.0002747361
d65f8eb3,0.98605263
2e5462d9,1.1202275e-06
2757a316,0.896823
7ce75dda,0.97472805
02e48c95,0.9972658
70a639ef,0.9566347
76412298,0.9514793
f8dd4fcc,7.991871e-07
e337d0b8,0.6702598
11a04625,0.0045411987
3c866636,0.96455586
04bfcaec,0.98699164
42a86b3a,0.016825609
84fe7f94,0.109439775
04e6f331,0.79140365
92c90853,0.9623708
660a98a7,0.14309633
89670962,0.89207137
9d586019,0.7195688
5f49ea3b,0.00087373273
968e1414,0.9530342
389d7eaf,0.96142113
65ca9e76,0.90664965
a09cae27,0.025828794
00c5b3e0,0.615651
7f9df2b0,0.9841986
a2303efc,0.9591056
cb62e5cb,0.9948591
9ff1e0f0,0.0006843601
39fd995a,0.8559173
544d0681,0.98557276
cb0319fc,0.98731905
d86deb2b,0.61025876
cdee905a,0.995074
2539742b,0.00010046231
2ea3c9f1,0.87375474
9cadda28,0.0026696178
8376a077,0.9776179
04e11240,0.018483793
c7d6f6f8,0.9985424
bba1a0f1,0.03592167
7f66bb44,4.1725693e-06
9d8f326c,0.9914425
