id,is_iceberg
d4bb8bac,0.99253017
28612c22,0.0012843913
d5c8ab27,0.0108375605
b8cf5edb,0.7675655
3f6778c5,0.69145846
0ecf7d79,0.02676265
4acfe35a,0.9795176
a5b4d551,1.6527625e-05
cacbe718,0.9964408
de1244d8,0.97648674
04f859f9,0.9735556
cedc73e3,0.18301131
6f17e58c,0.59248215
d45f1475,0.94358
c35ccd42,3.0161402e-05
1799793b,0.99108
bdf823e2,0.486444
be0aa969,9.4021016e-05
65951e77,0.98618037
e8b76fb7,0.7619514
ac6ca227,0.9010043
a8104355,0.9931074
e76a4a04,0.005081172
502a8388,0.99468464
c0c841d0,0.0021845044
ee49f0fb,0.99848855
dc6fa59d,0.9967224
3cef79cb,0.9914875
84673729,0.98967767
c5227b8a,0.00013508729
574a1da7,0.9997068
207b59dd,0.94753456
309b5423,0.0001232625
7cf1ff70,0.9984378
a8c38f58,0.020320239
f659df68,0.939836
076a815e,0.9999541
6a9478ad,0.7538426
f8661e3b,0.99831593
ea9da7da,0.0031425478
ec4952c3,0.9041919
1c607692,0.6067166
4cf47a74,0.8306387
e0cd0236,0.63230276
06b6ac23,0.97596097
11d06927,0.7862211
996ea0b1,0.9997471
e0ccd7bb,7.739952e-05
b2bc5d27,0.54008216
71a0d13b,0.9999733
95ed1e8c,1.6975537e-06
bffad1b6,0.77509713
ce151e35,0.95878273
020f5eaa,0.8667822
ed3f900a,0.18035056
58835983,0.99670875
a783bdb3,0.9699588
76bf0e79,0.757121
aada72d9,0.0084885815
a1ca4187,0.9945844
5a3d8224,0.00066340895
328e68bd,0.21783328
32f5ee95,0.46509
ce73809a,0.9997943
9a3c8482,0.0060166055
b37083ff,0.11831852
f01671c0,0.99973124
64e98469,3.3693854e-05
ebd806e6,0.96014905
0df5c436,0.0035156738
0bd98db1,2.399871e-05
9f5d3bfb,5.0853298e-05
7a6149bc,0.99575007
2b92dadd,0.9633062
b7555b43,0.032886602
90230ea7,0.1729604
7dfdee78,0.81648993
5bbdfc71,0.9997992
ac16f7f2,0.8588135
862b4f57,0.9181662
4283f28a,0.3868696
850a381c,0.42516708
f78fd217,0.9016161
9e37732e,7.595479e-05
e8f6b3f0,0.54981756
d5a615f8,0.0037904652
ee9b291e,0.9920407
affcd7bf,0.7078209
3b43490b,0.630723
73efa120,1.4027837e-05
9b47d1bf,0.0057338397
d3c1e961,0.9986395
63aae86a,0.0777882
95429378,0.9842234
de13af0f,0.39088297
328b74f4,0.9817007
d89d6fbc,0.58200026
7346c439,0.99888474
0719d5e2,0.83214307
68a20f15,0.99818194
fee78b0c,0.0072312434
c3fca286,0.006904995
a873532e,0.9998123
93afeece,0.48344356
92a21542,0.0027791075
d65f8eb3,0.99800485
2e5462d9,1.3509233e-06
2757a316,0.7557853
7ce75dda,0.99952376
02e48c95,0.9993789
70a639ef,0.75365615
76412298,0.9824753
f8dd4fcc,5.5386195e-06
e337d0b8,0.50157404
11a04625,0.02743265
3c866636,0.9980033
04bfcaec,0.99674916
42a86b3a,0.022421697
84fe7f94,0.26308304
04e6f331,0.4848587
92c90853,0.78924257
660a98a7,0.37412533
89670962,0.938557
9d586019,0.38638592
5f49ea3b,0.0013655318
968e1414,0.9981509
389d7eaf,0.9532479
65ca9e76,0.9694807
a09cae27,0.1520444
00c5b3e0,0.26250058
7f9df2b0,0.99610966
a2303efc,0.9808397
cb62e5cb,0.9993117
9ff1e0f0,0.0017603666
39fd995a,0.8966383
544d0681,0.99981195
cb0319fc,0.997806
d86deb2b,0.9889925
cdee905a,0.9998559
2539742b,5.1978033e-05
2ea3c9f1,0.5399938
9cadda28,0.058126505
8376a077,0.9922023
04e11240,0.03972185
c7d6f6f8,0.99996746
bba1a0f1,0.16051756
7f66bb44,9.0151436e-05
9d8f326c,0.99722975
