id,is_iceberg
d4bb8bac,0.9736613
28612c22,1.6361719e-06
d5c8ab27,0.0004268523
b8cf5edb,0.0961477
3f6778c5,0.27221957
0ecf7d79,0.00036251626
4acfe35a,0.7675474
a5b4d551,4.2234337e-06
cacbe718,0.9986848
de1244d8,0.9793792
04f859f9,0.97051233
cedc73e3,0.061164703
6f17e58c,0.07424755
d45f1475,0.9590365
c35ccd42,3.5384041e-06
1799793b,0.9865088
bdf823e2,0.44052055
be0aa969,3.5780072e-06
65951e77,0.9879522
e8b76fb7,0.8842986
ac6ca227,0.93995947
a8104355,0.97318923
e76a4a04,9.2976166e-05
502a8388,0.99573165
c0c841d0,9.673148e-05
ee49f0fb,0.9967625
dc6fa59d,0.995501
3cef79cb,0.96595997
84673729,0.988674
c5227b8a,1.0434448e-05
574a1da7,0.9995683
207b59dd,0.92044336
309b5423,2.3803638e-07
7cf1ff70,0.9867619
a8c38f58,0.0059718858
f659df68,0.9554743
076a815e,0.9997842
6a9478ad,0.90531033
f8661e3b,0.99841
ea9da7da,0.000103602375
ec4952c3,0.9334553
1c607692,0.1601598
4cf47a74,0.40350348
e0cd0236,0.8393969
06b6ac23,0.97794455
11d06927,0.8273057
996ea0b1,0.99977046
e0ccd7bb,2.3643172e-06
b2bc5d27,0.6358311
71a0d13b,0.99995005
95ed1e8c,8.7659366e-08
bffad1b6,0.84374106
ce151e35,0.91072845
020f5eaa,0.8645921
ed3f900a,0.023751928
58835983,0.9991574
a783bdb3,0.76872796
76bf0e79,0.93900156
aada72d9,7.658654e-05
a1ca4187,0.99789786
5a3d8224,0.00037296643
328e68bd,0.019967021
32f5ee95,0.5920276
ce73809a,0.9999169
9a3c8482,0.0001484201
b37083ff,0.027378565
f01671c0,0.99980587
64e98469,2.6759113e-07
ebd806e6,0.9791931
0df5c436,0.00024658782
0bd98db1,2.4617248e-05
9f5d3bfb,6.1119026e-05
7a6149bc,0.99296725
2b92dadd,0.96382785
b7555b43,0.004933384
90230ea7,0.13203613
7dfdee78,0.8791633
5bbdfc71,0.99974006
ac16f7f2,0.85521525
862b4f57,0.89522505
4283f28a,0.10157193
850a381c,0.025346596
f78fd217,0.9348887
9e37732e,6.011114e-06
e8f6b3f0,0.6001231
d5a615f8,0.00094414136
ee9b291e,0.94080335
affcd7bf,0.67492074
3b43490b,0.3520082
73efa120,1.673505e-06
9b47d1bf,3.483369e-05
d3c1e961,0.99934036
63aae86a,0.0028116086
95429378,0.9939971
de13af0f,0.017260572
328b74f4,0.9832513
d89d6fbc,0.25050366
7346c439,0.9995227
0719d5e2,0.2881749
68a20f15,0.9939985
fee78b0c,0.0049045444
c3fca286,0.00016242651
a873532e,0.9953052
93afeece,0.757016
92a21542,4.640965e-05
d65f8eb3,0.9972669
2e5462d9,1.0357046e-07
2757a316,0.9503058
7ce75dda,0.9964126
02e48c95,0.999699
70a639ef,0.83389026
76412298,0.9808533
f8dd4fcc,1.3570909e-08
e337d0b8,0.49156645
11a04625,0.010137309
3c866636,0.9962852
04bfcaec,0.9991123
42a86b3a,0.019309752
84fe7f94,0.15758245
04e6f331,0.6949941
92c90853,0.98084646
660a98a7,0.017681198
89670962,0.97383696
9d586019,0.3598707
5f49ea3b,0.000258491
968e1414,0.994091
389d7eaf,0.9627198
65ca9e76,0.9656501
a09cae27,0.0732673
00c5b3e0,0.10892137
7f9df2b0,0.9979876
a2303efc,0.99007857
cb62e5cb,0.9991997
9ff1e0f0,5.4958615e-05
39fd995a,0.7513872
544d0681,0.99952066
cb0319fc,0.9983564
d86deb2b,0.99649364
cdee905a,0.99974686
2539742b,0.0017143552
2ea3c9f1,0.6396044
9cadda28,0.004946289
8376a077,0.9950923
04e11240,0.0039126654
c7d6f6f8,0.99995136
bba1a0f1,0.047001783
7f66bb44,4.7250907e-07
9d8f326c,0.9987301
