id,is_iceberg
d4bb8bac,0.9468655
28612c22,1.38028145e-05
d5c8ab27,0.0041831695
b8cf5edb,0.14422731
3f6778c5,0.41586494
0ecf7d79,0.029126117
4acfe35a,0.9116114
a5b4d551,6.0508055e-06
cacbe718,0.98011065
de1244d8,0.9513852
04f859f9,0.8778234
cedc73e3,0.31099936
6f17e58c,0.27943262
d45f1475,0.8441997
c35ccd42,4.9935265e-06
1799793b,0.940904
bdf823e2,0.4693758
be0aa969,0.00072223076
65951e77,0.9350639
e8b76fb7,0.36518255
ac6ca227,0.81200576
a8104355,0.94036335
e76a4a04,0.40872154
502a8388,0.9661817
c0c841d0,0.0034467375
ee49f0fb,0.9486321
dc6fa59d,0.9851628
3cef79cb,0.886063
84673729,0.9147265
c5227b8a,0.00062968925
574a1da7,0.9869164
207b59dd,0.50469667
309b5423,3.2707634e-05
7cf1ff70,0.9586506
a8c38f58,0.0015488104
f659df68,0.59685993
076a815e,0.9954367
6a9478ad,0.686756
f8661e3b,0.9668422
ea9da7da,0.0004943704
ec4952c3,0.7910894
1c607692,0.33188224
4cf47a74,0.72189635
e0cd0236,0.52303964
06b6ac23,0.86723053
11d06927,0.5093288
996ea0b1,0.9984376
e0ccd7bb,1.1269844e-05
b2bc5d27,0.70476264
71a0d13b,0.9962406
95ed1e8c,2.2238492e-06
bffad1b6,0.6726734
ce151e35,0.8381363
020f5eaa,0.8684879
ed3f900a,0.16213705
58835983,0.9953892
a783bdb3,0.64727587
76bf0e79,0.76849234
aada72d9,0.00055636006
a1ca4187,0.9866195
5a3d8224,0.00092077587
328e68bd,0.026995001
32f5ee95,0.6787855
ce73809a,0.99770725
9a3c8482,0.0003944536
b37083ff,0.07396357
f01671c0,0.99113715
64e98469,0.000105273146
ebd806e6,0.916413
0df5c436,0.010557217
0bd98db1,0.0003664295
9f5d3bfb,2.9814597e-05
7a6149bc,0.9480945
2b92dadd,0.8594072
b7555b43,0.0019044408
90230ea7,0.3045638
7dfdee78,0.7340583
5bbdfc71,0.9875723
ac16f7f2,0.77039844
862b4f57,0.8893251
4283f28a,0.24562052
850a381c,0.31630147
f78fd217,0.78243387
9e37732e,6.099605e-05
e8f6b3f0,0.57880294
d5a615f8,0.0022616219
ee9b291e,0.9014038
affcd7bf,0.71853584
3b43490b,0.48818058
73efa120,0.00036542813
9b47d1bf,0.02623043
d3c1e961,0.9848844
63aae86a,0.006839714
95429378,0.93380654
de13af0f,0.028666912
328b74f4,0.94415665
d89d6fbc,0.33227852
7346c439,0.99590886
0719d5e2,0.32332858
68a20f15,0.9914486
fee78b0c,0.0041223397
c3fca286,0.000278362
a873532e,0.98949134
93afeece,0.5435521
92a21542,0.00032773454
d65f8eb3,0.9379937
2e5462d9,1.2796422e-06
2757a316,0.7350395
7ce75dda,0.9904102
02e48c95,0.9878358
70a639ef,0.7713321
76412298,0.86386484
f8dd4fcc,1.8556843e-06
e337d0b8,0.5731807
11a04625,0.01927266
3c866636,0.9619553
04bfcaec,0.981061
42a86b3a,0.02416069
84fe7f94,0.12645724
04e6f331,0.6631526
92c90853,0.8773214
660a98a7,0.12069251
89670962,0.7740676
9d586019,0.6245479
5f49ea3b,0.32056832
968e1414,0.981114
389d7eaf,0.9250969
65ca9e76,0.92654496
a09cae27,0.08672255
00c5b3e0,0.15959892
7f9df2b0,0.9601808
a2303efc,0.88671
cb62e5cb,0.97929597
9ff1e0f0,0.0011166539
39fd995a,0.7380385
544d0681,0.99379784
cb0319fc,0.9880287
d86deb2b,0.8575495
cdee905a,0.99344605
2539742b,0.00034022037
2ea3c9f1,0.7374986
9cadda28,0.014944179
8376a077,0.96270657
04e11240,0.004763286
c7d6f6f8,0.9978085
bba1a0f1,0.07042693
7f66bb44,0.0006205693
9d8f326c,0.98223925
