id,is_iceberg
d4bb8bac,0.9993767
28612c22,5.9805114e-07
d5c8ab27,0.0009616535
b8cf5edb,0.055171415
3f6778c5,0.3437456
0ecf7d79,0.012660628
4acfe35a,0.8570812
a5b4d551,1.1221279e-07
cacbe718,0.9981292
de1244d8,0.9976609
04f859f9,0.97047573
cedc73e3,0.14368819
6f17e58c,0.01423405
d45f1475,0.9954342
c35ccd42,7.743629e-09
1799793b,0.9953166
bdf823e2,0.8511652
be0aa969,2.71156e-07
65951e77,0.9943
e8b76fb7,0.94098336
ac6ca227,0.96706575
a8104355,0.9989311
e76a4a04,0.0014975243
502a8388,0.99484515
c0c841d0,5.4039033e-06
ee49f0fb,0.81523055
dc6fa59d,0.99870884
3cef79cb,0.996687
84673729,0.9785644
c5227b8a,1.7937104e-05
574a1da7,0.9841007
207b59dd,0.76909226
309b5423,1.27524595e-08
7cf1ff70,0.9781302
a8c38f58,0.009361173
f659df68,0.74882996
076a815e,0.99957234
6a9478ad,0.9757554
f8661e3b,0.984597
ea9da7da,3.698103e-05
ec4952c3,0.735583
1c607692,0.7251434
4cf47a74,0.7451536
e0cd0236,0.53509796
06b6ac23,0.9692189
11d06927,0.9506342
996ea0b1,0.99991596
e0ccd7bb,3.2803655e-07
b2bc5d27,0.8566515
71a0d13b,0.998755
95ed1e8c,1.1491649e-09
bffad1b6,0.57762265
ce151e35,0.9868391
020f5eaa,0.4833493
ed3f900a,0.015728477
58835983,0.99991035
a783bdb3,0.18106335
76bf0e79,0.9475197
aada72d9,6.034774e-07
a1ca4187,0.999729
5a3d8224,4.5019083e-06
328e68bd,0.006882232
32f5ee95,0.8811498
ce73809a,0.9999486
9a3c8482,1.1826751e-05
b37083ff,0.014690466
f01671c0,0.9915308
64e98469,2.9107778e-07
ebd806e6,0.98441595
0df5c436,0.0005511672
0bd98db1,9.626136e-05
9f5d3bfb,2.6015468e-07
7a6149bc,0.99821293
2b92dadd,0.3273661
b7555b43,0.00042333617
90230ea7,0.3624203
7dfdee78,0.95952433
5bbdfc71,0.9989907
ac16f7f2,0.8145701
862b4f57,0.996588
4283f28a,0.06784942
850a381c,0.20944294
f78fd217,0.9456629
9e37732e,2.1068402e-06
e8f6b3f0,0.8114752
d5a615f8,0.0001474963
ee9b291e,0.9664146
affcd7bf,0.9494647
3b43490b,0.91945267
73efa120,3.3395197e-06
9b47d1bf,2.1105012e-05
d3c1e961,0.9999155
63aae86a,0.0023579663
95429378,0.9820931
de13af0f,0.060297254
328b74f4,0.9983619
d89d6fbc,0.50949305
7346c439,0.9997526
0719d5e2,0.5795003
68a20f15,0.99972075
fee78b0c,0.00026539777
c3fca286,9.422556e-05
a873532e,0.99871886
93afeece,0.82279694
92a21542,1.3539078e-06
d65f8eb3,0.9896088
2e5462d9,2.3990623e-08
2757a316,0.9904855
7ce75dda,0.9974879
02e48c95,0.99984646
70a639ef,0.98172045
76412298,0.99666494
f8dd4fcc,9.53797e-09
e337d0b8,0.6536898
11a04625,0.020567104
3c866636,0.9963851
04bfcaec,0.99808705
42a86b3a,0.016894998
84fe7f94,0.0070385393
04e6f331,0.9223285
92c90853,0.90612596
660a98a7,0.011664401
89670962,0.94668275
9d586019,0.8745518
5f49ea3b,0.0004182846
968e1414,0.9961504
389d7eaf,0.877607
65ca9e76,0.91396254
a09cae27,0.03787207
00c5b3e0,0.2036453
7f9df2b0,0.99552876
a2303efc,0.9948698
cb62e5cb,0.9979068
9ff1e0f0,1.1430423e-06
39fd995a,0.74965984
544d0681,0.99926776
cb0319fc,0.99671245
d86deb2b,0.9515521
cdee905a,0.99953365
2539742b,0.19280799
2ea3c9f1,0.64912707
9cadda28,0.014436206
8376a077,0.99377775
04e11240,0.000934255
c7d6f6f8,0.99991035
bba1a0f1,0.011376254
7f66bb44,1.6350909e-07
9d8f326c,0.9971367
