id,is_iceberg
d4bb8bac,0.9888809
28612c22,0.001031067
d5c8ab27,0.004225691
b8cf5edb,0.88289815
3f6778c5,0.82721305
0ecf7d79,0.0005967012
4acfe35a,0.8727939
a5b4d551,7.194803e-05
cacbe718,0.99464756
de1244d8,0.9950616
04f859f9,0.96905756
cedc73e3,0.16708744
6f17e58c,0.30592966
d45f1475,0.99460703
c35ccd42,2.967871e-07
1799793b,0.9962244
bdf823e2,0.9685817
be0aa969,7.3241117e-06
65951e77,0.99390537
e8b76fb7,0.12812692
ac6ca227,0.99164057
a8104355,0.99477756
e76a4a04,0.0018883313
502a8388,0.9943152
c0c841d0,0.0017937628
ee49f0fb,0.76047343
dc6fa59d,0.99863344
3cef79cb,0.99395305
84673729,0.97229946
c5227b8a,2.5276255e-05
574a1da7,0.9129364
207b59dd,0.7723136
309b5423,1.3641468e-06
7cf1ff70,0.8836701
a8c38f58,0.003910399
f659df68,0.49156776
076a815e,0.9949557
6a9478ad,0.95025384
f8661e3b,0.9824572
ea9da7da,1.3161918e-05
ec4952c3,0.74434716
1c607692,0.78055525
4cf47a74,0.49469095
e0cd0236,0.14250045
06b6ac23,0.9280083
11d06927,0.90216935
996ea0b1,0.9988661
e0ccd7bb,4.679652e-05
b2bc5d27,0.75878644
71a0d13b,0.99496657
95ed1e8c,2.2873756e-09
bffad1b6,0.46785983
ce151e35,0.99553347
020f5eaa,0.5503235
ed3f900a,0.0307885
58835983,0.99841833
a783bdb3,0.56280416
76bf0e79,0.9476533
aada72d9,0.0004430539
a1ca4187,0.9976775
5a3d8224,0.00010156687
328e68bd,0.11157545
32f5ee95,0.83215356
ce73809a,0.9997209
9a3c8482,0.00028366584
b37083ff,0.01785353
f01671c0,0.97387516
64e98469,8.493456e-07
ebd806e6,0.98512787
0df5c436,0.0017084373
0bd98db1,0.00012833464
9f5d3bfb,2.883821e-06
7a6149bc,0.99344045
2b92dadd,0.38423535
b7555b43,0.008311541
90230ea7,0.29885864
7dfdee78,0.96658325
5bbdfc71,0.99678564
ac16f7f2,0.83022034
862b4f57,0.9922231
4283f28a,0.10931494
850a381c,0.058089357
f78fd217,0.8623809
9e37732e,1.906593e-06
e8f6b3f0,0.79141045
d5a615f8,0.00017989485
ee9b291e,0.99070287
affcd7bf,0.9157935
3b43490b,0.6558924
73efa120,1.2514737e-06
9b47d1bf,0.0016851631
d3c1e961,0.99916124
63aae86a,0.10095191
95429378,0.9896902
de13af0f,0.40402424
328b74f4,0.99346703
d89d6fbc,0.12609851
7346c439,0.9981462
0719d5e2,0.79984426
68a20f15,0.9988555
fee78b0c,0.00045550583
c3fca286,0.0007786464
a873532e,0.98930055
93afeece,0.28840452
92a21542,0.00014815203
d65f8eb3,0.9918671
2e5462d9,4.0932244e-07
2757a316,0.98935366
7ce75dda,0.99769044
02e48c95,0.99860007
70a639ef,0.9878076
76412298,0.9955249
f8dd4fcc,7.326085e-07
e337d0b8,0.79588884
11a04625,0.0065436126
3c866636,0.99520737
04bfcaec,0.99457574
42a86b3a,0.017339204
84fe7f94,0.038501736
04e6f331,0.85863745
92c90853,0.85965675
660a98a7,0.18490037
89670962,0.95447046
9d586019,0.81582224
5f49ea3b,3.0187326e-05
968e1414,0.99423087
389d7eaf,0.91800356
65ca9e76,0.8894613
a09cae27,0.0017802421
00c5b3e0,0.9317595
7f9df2b0,0.9939354
a2303efc,0.99445206
cb62e5cb,0.9983413
9ff1e0f0,0.0006438347
39fd995a,0.7834337
544d0681,0.9946749
cb0319fc,0.96436256
d86deb2b,0.5472775
cdee905a,0.997693
2539742b,3.203425e-05
2ea3c9f1,0.9664709
9cadda28,0.00038192727
8376a077,0.9939658
04e11240,0.026205115
c7d6f6f8,0.99923897
bba1a0f1,0.0012969936
7f66bb44,5.050535e-07
9d8f326c,0.99671614
