id,is_iceberg
d4bb8bac,0.98466164
28612c22,4.665446e-05
d5c8ab27,0.03331369
b8cf5edb,0.4228761
3f6778c5,0.0612131
0ecf7d79,0.0016707908
4acfe35a,0.89211243
a5b4d551,3.2841686e-05
cacbe718,0.99311745
de1244d8,0.8863479
04f859f9,0.89605933
cedc73e3,0.052081946
6f17e58c,0.11836627
d45f1475,0.72913057
c35ccd42,1.4891962e-06
1799793b,0.97397363
bdf823e2,0.1782819
be0aa969,1.12138505e-05
65951e77,0.9201069
e8b76fb7,0.40690267
ac6ca227,0.77504957
a8104355,0.99421835
e76a4a04,0.0005595074
502a8388,0.9927906
c0c841d0,0.00018851628
ee49f0fb,0.9774801
dc6fa59d,0.99264705
3cef79cb,0.97686005
84673729,0.75171095
c5227b8a,0.00083745096
574a1da7,0.99737406
207b59dd,0.72930515
309b5423,4.087446e-06
7cf1ff70,0.98986757
a8c38f58,0.012315146
f659df68,0.8369764
076a815e,0.9991204
6a9478ad,0.6294171
f8661e3b,0.9872749
ea9da7da,0.00034076202
ec4952c3,0.83510643
1c607692,0.1648455
4cf47a74,0.31463954
e0cd0236,0.33146912
06b6ac23,0.877906
11d06927,0.55909145
996ea0b1,0.99974686
e0ccd7bb,2.9524845e-06
b2bc5d27,0.4452553
71a0d13b,0.9998932
95ed1e8c,3.1180772e-07
bffad1b6,0.25873858
ce151e35,0.7476838
020f5eaa,0.4051799
ed3f900a,0.0037541671
58835983,0.99484384
a783bdb3,0.8000336
76bf0e79,0.5281546
aada72d9,0.0015908532
a1ca4187,0.9988681
5a3d8224,7.8672885e-05
328e68bd,0.049653865
32f5ee95,0.66562754
ce73809a,0.9997609
9a3c8482,0.0006057621
b37083ff,0.0027400819
f01671c0,0.99909925
64e98469,2.0249723e-05
ebd806e6,0.9387641
0df5c436,0.008567305
0bd98db1,2.2598397e-05
9f5d3bfb,1.5175153e-06
7a6149bc,0.99516255
2b92dadd,0.83233726
b7555b43,0.00022960061
90230ea7,0.02136936
7dfdee78,0.64303946
5bbdfc71,0.99902797
ac16f7f2,0.25878438
862b4f57,0.9129459
4283f28a,0.2374631
850a381c,0.08027392
f78fd217,0.77743804
9e37732e,4.3681584e-06
e8f6b3f0,0.27802655
d5a615f8,5.537755e-05
ee9b291e,0.9398931
affcd7bf,0.3922425
3b43490b,0.095371574
73efa120,3.2450258e-05
9b47d1bf,0.00012092561
d3c1e961,0.9968567
63aae86a,0.0033844926
95429378,0.90643185
de13af0f,0.17525023
328b74f4,0.92548007
d89d6fbc,0.084901564
7346c439,0.99824643
0719d5e2,0.46980494
68a20f15,0.99917847
fee78b0c,8.7503744e-05
c3fca286,0.00068146165
a873532e,0.9944313
93afeece,0.26617357
92a21542,0.0006826486
d65f8eb3,0.9955096
2e5462d9,3.0443446e-06
2757a316,0.69834405
7ce75dda,0.9988992
02e48c95,0.99824345
70a639ef,0.5580922
76412298,0.8925405
f8dd4fcc,1.087932e-06
e337d0b8,0.044114776
11a04625,0.00030926926
3c866636,0.99237096
04bfcaec,0.99052984
42a86b3a,0.0018910591
84fe7f94,0.015137616
04e6f331,0.2955579
92c90853,0.6639822
660a98a7,0.0041589467
89670962,0.8641112
9d586019,0.103053644
5f49ea3b,0.002221418
968e1414,0.98649395
389d7eaf,0.67186356
65ca9e76,0.8869267
a09cae27,0.016716942
00c5b3e0,0.022374073
7f9df2b0,0.9918161
a2303efc,0.95626247
cb62e5cb,0.99870944
9ff1e0f0,0.0060329963
39fd995a,0.321974
544d0681,0.99861
cb0319fc,0.995329
d86deb2b,0.9540445
cdee905a,0.9982401
2539742b,9.1388494e-05
2ea3c9f1,0.1623724
9cadda28,0.0028565626
8376a077,0.9803964
04e11240,0.0006446153
c7d6f6f8,0.99962115
bba1a0f1,0.014867713
7f66bb44,2.4381704e-06
9d8f326c,0.99412656
