id,is_iceberg
d4bb8bac,0.9944787
28612c22,4.8716025e-05
d5c8ab27,0.03541453
b8cf5edb,0.4231264
3f6778c5,0.64727134
0ecf7d79,0.0001928581
4acfe35a,0.9561559
a5b4d551,2.1940934e-06
cacbe718,0.9969324
de1244d8,0.9938006
04f859f9,0.9924359
cedc73e3,0.29759416
6f17e58c,0.1830857
d45f1475,0.9935735
c35ccd42,1.2122075e-07
1799793b,0.9890343
bdf823e2,0.8051385
be0aa969,3.470087e-05
65951e77,0.994333
e8b76fb7,0.85964346
ac6ca227,0.9818096
a8104355,0.9977584
e76a4a04,0.0008353844
502a8388,0.99778795
c0c841d0,0.00013873822
ee49f0fb,0.87882656
dc6fa59d,0.99145573
3cef79cb,0.99696225
84673729,0.96889985
c5227b8a,0.00021799727
574a1da7,0.99776053
207b59dd,0.96222097
309b5423,8.879073e-06
7cf1ff70,0.9937065
a8c38f58,0.0017584388
f659df68,0.9105429
076a815e,0.9994961
6a9478ad,0.97594154
f8661e3b,0.9971553
ea9da7da,6.393965e-05
ec4952c3,0.9817308
1c607692,0.6597083
4cf47a74,0.8234522
e0cd0236,0.7372589
06b6ac23,0.9896576
11d06927,0.9667439
996ea0b1,0.9996024
e0ccd7bb,3.4794957e-06
b2bc5d27,0.8485959
71a0d13b,0.99954057
95ed1e8c,4.451181e-08
bffad1b6,0.8997067
ce151e35,0.9805063
020f5eaa,0.46559286
ed3f900a,0.021729968
58835983,0.999089
a783bdb3,0.8367101
76bf0e79,0.9817162
aada72d9,0.007591666
a1ca4187,0.9972078
5a3d8224,8.379667e-05
328e68bd,0.08400544
32f5ee95,0.4248434
ce73809a,0.99962866
9a3c8482,3.3758788e-05
b37083ff,0.034651235
f01671c0,0.9982584
64e98469,2.239174e-06
ebd806e6,0.99233377
0df5c436,0.0010149509
0bd98db1,0.00039489137
9f5d3bfb,8.4753475e-07
7a6149bc,0.99782217
2b92dadd,0.94301695
b7555b43,0.00035763092
90230ea7,0.32143772
7dfdee78,0.9699448
5bbdfc71,0.9991947
ac16f7f2,0.9340904
862b4f57,0.96785074
4283f28a,0.4883138
850a381c,0.42740762
f78fd217,0.9872657
9e37732e,1.092289e-06
e8f6b3f0,0.8995929
d5a615f8,0.0013471055
ee9b291e,0.88993126
affcd7bf,0.97432005
3b43490b,0.7798574
73efa120,1.2286135e-05
9b47d1bf,0.00016612904
d3c1e961,0.9982821
63aae86a,0.048381306
95429378,0.9966794
de13af0f,0.16905619
328b74f4,0.9951721
d89d6fbc,0.6832223
7346c439,0.99777514
0719d5e2,0.7966058
68a20f15,0.99902976
fee78b0c,0.006835965
c3fca286,0.0035854212
a873532e,0.99742365
93afeece,0.9041962
92a21542,0.0003586224
d65f8eb3,0.995812
2e5462d9,8.009612e-08
2757a316,0.9890547
7ce75dda,0.99866223
02e48c95,0.9985116
70a639ef,0.97014016
76412298,0.99267876
f8dd4fcc,9.509945e-08
e337d0b8,0.5274611
11a04625,0.016997593
3c866636,0.99806803
04bfcaec,0.9984403
42a86b3a,0.013128238
84fe7f94,0.04588509
04e6f331,0.7847843
92c90853,0.9805384
660a98a7,0.057988975
89670962,0.97752476
9d586019,0.6161793
5f49ea3b,0.0033497643
968e1414,0.997152
389d7eaf,0.965471
65ca9e76,0.96192306
a09cae27,0.008574469
00c5b3e0,0.7338032
7f9df2b0,0.99593157
a2303efc,0.99474937
cb62e5cb,0.9992756
9ff1e0f0,0.000441922
39fd995a,0.88213724
544d0681,0.9990151
cb0319fc,0.99689317
d86deb2b,0.99483055
cdee905a,0.99878687
2539742b,0.0011355771
2ea3c9f1,0.877904
9cadda28,0.1000292
8376a077,0.9959273
04e11240,0.00758067
c7d6f6f8,0.99966574
bba1a0f1,0.016554544
7f66bb44,1.7947464e-07
9d8f326c,0.99658644
