id,is_iceberg
d4bb8bac,0.9963553
28612c22,7.7696575e-05
d5c8ab27,0.019975323
b8cf5edb,0.45632118
3f6778c5,0.80768156
0ecf7d79,0.00078008574
4acfe35a,0.97117513
a5b4d551,6.241086e-06
cacbe718,0.9934755
de1244d8,0.9857205
04f859f9,0.9791934
cedc73e3,0.3255962
6f17e58c,0.2362907
d45f1475,0.984365
c35ccd42,3.64176e-06
1799793b,0.99410015
bdf823e2,0.7356945
be0aa969,9.106143e-06
65951e77,0.9811705
e8b76fb7,0.5891022
ac6ca227,0.93671525
a8104355,0.99236155
e76a4a04,0.0002774254
502a8388,0.9948967
c0c841d0,0.0030403752
ee49f0fb,0.99305856
dc6fa59d,0.9972362
3cef79cb,0.991376
84673729,0.98054725
c5227b8a,0.0008020408
574a1da7,0.9949669
207b59dd,0.9591752
309b5423,3.5145163e-06
7cf1ff70,0.9992631
a8c38f58,0.029188573
f659df68,0.9110533
076a815e,0.99981254
6a9478ad,0.915941
f8661e3b,0.99211407
ea9da7da,0.00029055588
ec4952c3,0.90438145
1c607692,0.56446284
4cf47a74,0.6568063
e0cd0236,0.59294933
06b6ac23,0.9151474
11d06927,0.8863279
996ea0b1,0.999634
e0ccd7bb,5.1963263e-05
b2bc5d27,0.7025798
71a0d13b,0.99981385
95ed1e8c,3.6407422e-07
bffad1b6,0.8979482
ce151e35,0.9789707
020f5eaa,0.73315823
ed3f900a,0.01834283
58835983,0.99815756
a783bdb3,0.9759866
76bf0e79,0.82958454
aada72d9,0.020105144
a1ca4187,0.99894136
5a3d8224,0.0005187436
328e68bd,0.18930739
32f5ee95,0.7017256
ce73809a,0.9997968
9a3c8482,0.0028218597
b37083ff,0.011521468
f01671c0,0.9987446
64e98469,1.1374962e-06
ebd806e6,0.97557664
0df5c436,0.004915021
0bd98db1,0.00028542432
9f5d3bfb,1.0799579e-06
7a6149bc,0.9873553
2b92dadd,0.95201135
b7555b43,0.01478481
90230ea7,0.23715675
7dfdee78,0.9144752
5bbdfc71,0.99855345
ac16f7f2,0.8146948
862b4f57,0.9325468
4283f28a,0.112810686
850a381c,0.3729995
f78fd217,0.89950544
9e37732e,2.1809297e-05
e8f6b3f0,0.68678147
d5a615f8,0.00056519674
ee9b291e,0.9675916
affcd7bf,0.91551435
3b43490b,0.82490426
73efa120,0.00012121572
9b47d1bf,2.5789644e-05
d3c1e961,0.99904007
63aae86a,0.026389213
95429378,0.98448527
de13af0f,0.6620126
328b74f4,0.9916025
d89d6fbc,0.8110744
7346c439,0.9994399
0719d5e2,0.83444834
68a20f15,0.99764806
fee78b0c,0.0010269582
c3fca286,0.002327241
a873532e,0.99930286
93afeece,0.6968318
92a21542,0.0027698446
d65f8eb3,0.99249905
2e5462d9,2.1284898e-06
2757a316,0.9448525
7ce75dda,0.9991867
02e48c95,0.99897623
70a639ef,0.9599327
76412298,0.97647506
f8dd4fcc,2.7237857e-07
e337d0b8,0.765669
11a04625,0.000978097
3c866636,0.99308854
04bfcaec,0.9959979
42a86b3a,0.009396819
84fe7f94,0.08868339
04e6f331,0.70878756
92c90853,0.92344445
660a98a7,0.1557624
89670962,0.9172147
9d586019,0.5173952
5f49ea3b,0.0014994971
968e1414,0.9970151
389d7eaf,0.9450957
65ca9e76,0.937089
a09cae27,0.026061235
00c5b3e0,0.5573281
7f9df2b0,0.9962829
a2303efc,0.98895264
cb62e5cb,0.9985103
9ff1e0f0,0.00909504
39fd995a,0.96947575
544d0681,0.99917114
cb0319fc,0.9979686
d86deb2b,0.9667072
cdee905a,0.9995085
2539742b,0.0005799911
2ea3c9f1,0.81646746
9cadda28,0.101744615
8376a077,0.9933901
04e11240,0.011833522
c7d6f6f8,0.99984634
bba1a0f1,0.032893505
7f66bb44,8.437335e-06
9d8f326c,0.99768424
