id,is_iceberg
d4bb8bac,0.99800044
28612c22,0.0006037848
d5c8ab27,0.44403142
b8cf5edb,0.70197767
3f6778c5,0.43415153
0ecf7d79,0.019421915
4acfe35a,0.99870026
a5b4d551,0.00026027006
cacbe718,0.9970843
de1244d8,0.9970908
04f859f9,0.9840509
cedc73e3,0.20842828
6f17e58c,0.12777354
d45f1475,0.99300474
c35ccd42,1.7619791e-06
1799793b,0.99745005
bdf823e2,0.65307736
be0aa969,0.00018538917
65951e77,0.99437547
e8b76fb7,0.41981217
ac6ca227,0.9682138
a8104355,0.99867576
e76a4a04,0.046268042
502a8388,0.99670225
c0c841d0,0.00740756
ee49f0fb,0.99302447
dc6fa59d,0.9994814
3cef79cb,0.997235
84673729,0.9792782
c5227b8a,0.034583606
574a1da7,0.9973066
207b59dd,0.9895265
309b5423,5.361512e-05
7cf1ff70,0.9997266
a8c38f58,0.024650354
f659df68,0.90252537
076a815e,0.9999428
6a9478ad,0.897857
f8661e3b,0.98891467
ea9da7da,0.0018865365
ec4952c3,0.8556434
1c607692,0.3585312
4cf47a74,0.7681332
e0cd0236,0.3620221
06b6ac23,0.9782536
11d06927,0.8922348
996ea0b1,0.99995553
e0ccd7bb,0.0002485868
b2bc5d27,0.81304
71a0d13b,0.9999032
95ed1e8c,2.7079268e-06
bffad1b6,0.72540176
ce151e35,0.94174683
020f5eaa,0.75211227
ed3f900a,0.0021669846
58835983,0.9993142
a783bdb3,0.87600803
76bf0e79,0.90167695
aada72d9,0.0564996
a1ca4187,0.9997745
5a3d8224,0.00011248395
328e68bd,0.04671449
32f5ee95,0.9780577
ce73809a,0.99997544
9a3c8482,0.0007278541
b37083ff,0.022743173
f01671c0,0.9987716
64e98469,3.044068e-05
ebd806e6,0.9881605
0df5c436,0.34718683
0bd98db1,0.0019969067
9f5d3bfb,6.6342e-07
7a6149bc,0.9969298
2b92dadd,0.8970042
b7555b43,0.007553634
90230ea7,0.22745459
7dfdee78,0.8735671
5bbdfc71,0.9995246
ac16f7f2,0.91444796
862b4f57,0.99097943
4283f28a,0.6798342
850a381c,0.44579014
f78fd217,0.9162126
9e37732e,1.22336505e-05
e8f6b3f0,0.63099223
d5a615f8,0.0019111254
ee9b291e,0.9555179
affcd7bf,0.7881219
3b43490b,0.8464604
73efa120,0.00014921135
9b47d1bf,0.010080399
d3c1e961,0.9998274
63aae86a,0.04289975
95429378,0.9948249
de13af0f,0.089974605
328b74f4,0.9924825
d89d6fbc,0.5397803
7346c439,0.9999201
0719d5e2,0.91700673
68a20f15,0.99985504
fee78b0c,0.0044376818
c3fca286,0.006336483
a873532e,0.99973196
93afeece,0.4449699
92a21542,0.0013819792
d65f8eb3,0.99734336
2e5462d9,3.3225537e-05
2757a316,0.9196722
7ce75dda,0.99988425
02e48c95,0.99979335
70a639ef,0.93152636
76412298,0.9891822
f8dd4fcc,2.2261218e-06
e337d0b8,0.51959544
11a04625,0.0025686447
3c866636,0.99837697
04bfcaec,0.9981034
42a86b3a,0.049737897
84fe7f94,0.070086494
04e6f331,0.8768838
92c90853,0.879581
660a98a7,0.021647656
89670962,0.9456379
9d586019,0.73000485
5f49ea3b,0.054254424
968e1414,0.9982811
389d7eaf,0.9643262
65ca9e76,0.94540566
a09cae27,0.00462488
00c5b3e0,0.42984697
7f9df2b0,0.99870634
a2303efc,0.9970907
cb62e5cb,0.99930525
9ff1e0f0,0.045524523
39fd995a,0.94337845
544d0681,0.99963343
cb0319fc,0.99955803
d86deb2b,0.97749025
cdee905a,0.99985063
2539742b,0.0048064264
2ea3c9f1,0.67773455
9cadda28,0.6505374
8376a077,0.9970487
04e11240,0.01340743
c7d6f6f8,0.99994135
bba1a0f1,0.069705464
7f66bb44,9.860844e-06
9d8f326c,0.99863476
