id,is_iceberg
d4bb8bac,0.933561
28612c22,2.7408662e-06
d5c8ab27,0.0010931637
b8cf5edb,0.12276956
3f6778c5,0.33274978
0ecf7d79,0.00018051633
4acfe35a,0.9042824
a5b4d551,1.0696269e-06
cacbe718,0.99221134
de1244d8,0.9779181
04f859f9,0.96852857
cedc73e3,0.10124225
6f17e58c,0.05188235
d45f1475,0.9736528
c35ccd42,2.6537819e-09
1799793b,0.99181515
bdf823e2,0.3195306
be0aa969,2.1855685e-06
65951e77,0.97746027
e8b76fb7,0.29880023
ac6ca227,0.9282969
a8104355,0.99100304
e76a4a04,0.00014284506
502a8388,0.9875465
c0c841d0,1.0546688e-05
ee49f0fb,0.8867725
dc6fa59d,0.9951438
3cef79cb,0.9893316
84673729,0.9009184
c5227b8a,3.9961287e-06
574a1da7,0.9768049
207b59dd,0.6971955
309b5423,1.560661e-07
7cf1ff70,0.9255021
a8c38f58,0.000101426034
f659df68,0.4829231
076a815e,0.998725
6a9478ad,0.8621568
f8661e3b,0.9904107
ea9da7da,3.077615e-07
ec4952c3,0.48015624
1c607692,0.30947533
4cf47a74,0.3959809
e0cd0236,0.28205884
06b6ac23,0.9448744
11d06927,0.67998105
996ea0b1,0.9996051
e0ccd7bb,1.1152919e-06
b2bc5d27,0.53068143
71a0d13b,0.9994885
95ed1e8c,3.1232712e-09
bffad1b6,0.56551915
ce151e35,0.9338974
020f5eaa,0.24683209
ed3f900a,0.0033545068
58835983,0.9964743
a783bdb3,0.35278624
76bf0e79,0.82623744
aada72d9,0.00045857206
a1ca4187,0.99326855
5a3d8224,1.3083451e-05
328e68bd,0.02239845
32f5ee95,0.7763153
ce73809a,0.99979955
9a3c8482,2.4763322e-06
b37083ff,0.00018898817
f01671c0,0.9978435
64e98469,3.802384e-08
ebd806e6,0.9711493
0df5c436,0.0008757129
0bd98db1,8.499334e-06
9f5d3bfb,5.539151e-08
7a6149bc,0.99309534
2b92dadd,0.24758764
b7555b43,0.00016006798
90230ea7,0.08362037
7dfdee78,0.8116507
5bbdfc71,0.9987639
ac16f7f2,0.73064506
862b4f57,0.9357494
4283f28a,0.042363476
850a381c,0.044527948
f78fd217,0.90871817
9e37732e,7.917234e-08
e8f6b3f0,0.5422859
d5a615f8,1.1117558e-05
ee9b291e,0.92314446
affcd7bf,0.8163908
3b43490b,0.33794138
73efa120,4.003186e-07
9b47d1bf,2.0926644e-05
d3c1e961,0.9987179
63aae86a,0.004455916
95429378,0.983703
de13af0f,0.4856767
328b74f4,0.9678776
d89d6fbc,0.019053577
7346c439,0.99736756
0719d5e2,0.5462037
68a20f15,0.99771947
fee78b0c,8.0920705e-05
c3fca286,9.7245604e-05
a873532e,0.9877159
93afeece,0.56746805
92a21542,2.1003378e-05
d65f8eb3,0.9942729
2e5462d9,7.715312e-08
2757a316,0.92074436
7ce75dda,0.9970715
02e48c95,0.9984774
70a639ef,0.88494205
76412298,0.9857846
f8dd4fcc,4.79882e-09
e337d0b8,0.34872276
11a04625,0.00031005486
3c866636,0.99408144
04bfcaec,0.99432737
42a86b3a,0.001314491
84fe7f94,0.0052997554
04e6f331,0.5085155
92c90853,0.65942377
660a98a7,0.033803634
89670962,0.9093827
9d586019,0.4169973
5f49ea3b,3.163208e-05
968e1414,0.99553657
389d7eaf,0.9024092
65ca9e76,0.8441654
a09cae27,0.0005000298
00c5b3e0,0.16589227
7f9df2b0,0.99523646
a2303efc,0.9854702
cb62e5cb,0.9982498
9ff1e0f0,7.058076e-05
39fd995a,0.46480864
544d0681,0.99762386
cb0319fc,0.991901
d86deb2b,0.9429761
cdee905a,0.9990294
2539742b,0.00030649485
2ea3c9f1,0.764479
9cadda28,0.00035739935
8376a077,0.9883073
04e11240,0.00031029264
c7d6f6f8,0.9997502
bba1a0f1,0.00085651746
7f66bb44,4.7733963e-09
9d8f326c,0.995669
