id,is_iceberg
d4bb8bac,0.99921834
28612c22,0.00022729528
d5c8ab27,0.029663235
b8cf5edb,0.23407188
3f6778c5,0.2666784
0ecf7d79,0.00020356414
4acfe35a,0.9672692
a5b4d551,9.266734e-06
cacbe718,0.99883944
de1244d8,0.9977944
04f859f9,0.9962787
cedc73e3,0.19821453
6f17e58c,0.026350206
d45f1475,0.99113315
c35ccd42,5.7762534e-08
1799793b,0.99617416
bdf823e2,0.81747913
be0aa969,1.1415408e-05
65951e77,0.9960077
e8b76fb7,0.9672916
ac6ca227,0.97695833
a8104355,0.9986331
e76a4a04,0.00015804407
502a8388,0.99845743
c0c841d0,0.0004397075
ee49f0fb,0.9851383
dc6fa59d,0.9980367
3cef79cb,0.9985588
84673729,0.99568427
c5227b8a,0.00018453489
574a1da7,0.9992667
207b59dd,0.9560742
309b5423,1.0591894e-05
7cf1ff70,0.99865437
a8c38f58,0.00016786948
f659df68,0.96669453
076a815e,0.9999517
6a9478ad,0.9464443
f8661e3b,0.9993893
ea9da7da,9.649742e-06
ec4952c3,0.9557268
1c607692,0.54506606
4cf47a74,0.7074702
e0cd0236,0.8116594
06b6ac23,0.9858124
11d06927,0.9089887
996ea0b1,0.99996316
e0ccd7bb,1.2053122e-05
b2bc5d27,0.75835794
71a0d13b,0.99995637
95ed1e8c,1.7548373e-07
bffad1b6,0.64752614
ce151e35,0.9868854
020f5eaa,0.7699455
ed3f900a,0.0098188585
58835983,0.99970275
a783bdb3,0.79340994
76bf0e79,0.9519207
aada72d9,0.0017175653
a1ca4187,0.9994479
5a3d8224,2.5917627e-06
328e68bd,0.0035334458
32f5ee95,0.93551433
ce73809a,0.99992764
9a3c8482,2.300199e-05
b37083ff,0.01211372
f01671c0,0.99990606
64e98469,2.006279e-05
ebd806e6,0.98868436
0df5c436,0.0034328275
0bd98db1,0.0002645507
9f5d3bfb,7.444734e-08
7a6149bc,0.99963725
2b92dadd,0.8691835
b7555b43,0.000226128
90230ea7,0.4057674
7dfdee78,0.89707416
5bbdfc71,0.9997832
ac16f7f2,0.949733
862b4f57,0.99243987
4283f28a,0.054700844
850a381c,0.15999901
f78fd217,0.97440505
9e37732e,3.8873727e-06
e8f6b3f0,0.4914607
d5a615f8,0.00010062405
ee9b291e,0.97882736
affcd7bf,0.9557313
3b43490b,0.54457295
73efa120,0.00021564202
9b47d1bf,0.0005908577
d3c1e961,0.9997447
63aae86a,0.0063135508
95429378,0.9989365
de13af0f,0.28073776
328b74f4,0.99737835
d89d6fbc,0.113171816
7346c439,0.9998323
0719d5e2,0.30100298
68a20f15,0.9997712
fee78b0c,0.003518548
c3fca286,0.0003579688
a873532e,0.9996854
93afeece,0.8762557
92a21542,0.00028297785
d65f8eb3,0.9978904
2e5462d9,3.2288876e-06
2757a316,0.96493787
7ce75dda,0.99912757
02e48c95,0.99973255
70a639ef,0.9459591
76412298,0.9950315
f8dd4fcc,4.4878772e-07
e337d0b8,0.36436102
11a04625,0.015101388
3c866636,0.9989477
04bfcaec,0.9989147
42a86b3a,0.0018511235
84fe7f94,0.020048585
04e6f331,0.8328836
92c90853,0.9676005
660a98a7,0.014082835
89670962,0.97785395
9d586019,0.6885708
5f49ea3b,0.0005811512
968e1414,0.99855524
389d7eaf,0.95210177
65ca9e76,0.9699874
a09cae27,0.007932656
00c5b3e0,0.49017838
7f9df2b0,0.99940693
a2303efc,0.9955408
cb62e5cb,0.9998902
9ff1e0f0,0.00064337836
39fd995a,0.82395154
544d0681,0.9996973
cb0319fc,0.9991116
d86deb2b,0.99800855
cdee905a,0.99986756
2539742b,0.10986556
2ea3c9f1,0.75980866
9cadda28,0.039086852
8376a077,0.9966061
04e11240,0.00030660388
c7d6f6f8,0.99994254
bba1a0f1,0.025742201
7f66bb44,7.807567e-08
9d8f326c,0.9989599
