id,is_iceberg
d4bb8bac,0.99921966
28612c22,1.0767103e-06
d5c8ab27,0.006661597
b8cf5edb,0.028146928
3f6778c5,0.1635621
0ecf7d79,1.5426494e-05
4acfe35a,0.9718612
a5b4d551,2.3835689e-07
cacbe718,0.9993923
de1244d8,0.9943704
04f859f9,0.99282056
cedc73e3,0.016500615
6f17e58c,0.03234505
d45f1475,0.99584854
c35ccd42,1.0900206e-08
1799793b,0.9981165
bdf823e2,0.8305343
be0aa969,2.5409745e-06
65951e77,0.9925569
e8b76fb7,0.13603048
ac6ca227,0.9950423
a8104355,0.99881065
e76a4a04,0.00023652654
502a8388,0.99899346
c0c841d0,4.1893657e-07
ee49f0fb,0.99456453
dc6fa59d,0.999102
3cef79cb,0.9978528
84673729,0.9317759
c5227b8a,2.9879693e-05
574a1da7,0.9994629
207b59dd,0.7623218
309b5423,1.8544607e-07
7cf1ff70,0.9989083
a8c38f58,4.329434e-05
f659df68,0.76816374
076a815e,0.99990976
6a9478ad,0.98055744
f8661e3b,0.999671
ea9da7da,4.18399e-06
ec4952c3,0.9121318
1c607692,0.65031445
4cf47a74,0.24117008
e0cd0236,0.8761784
06b6ac23,0.982496
11d06927,0.94285095
996ea0b1,0.9997843
e0ccd7bb,3.456706e-08
b2bc5d27,0.25291064
71a0d13b,0.9999038
95ed1e8c,5.2412705e-09
bffad1b6,0.8893552
ce151e35,0.98939604
020f5eaa,0.81316245
ed3f900a,0.008258298
58835983,0.9996433
a783bdb3,0.5823281
76bf0e79,0.94181204
aada72d9,5.1726997e-06
a1ca4187,0.99856216
5a3d8224,5.353945e-06
328e68bd,0.0014891061
32f5ee95,0.2697708
ce73809a,0.9998908
9a3c8482,1.0173921e-07
b37083ff,0.003938195
f01671c0,0.9995772
64e98469,1.3203729e-07
ebd806e6,0.99635446
0df5c436,0.0004958842
0bd98db1,0.00049734244
9f5d3bfb,1.7918213e-08
7a6149bc,0.99870634
2b92dadd,0.94676965
b7555b43,5.978858e-05
90230ea7,0.020442327
7dfdee78,0.9741519
5bbdfc71,0.9997757
ac16f7f2,0.9826568
862b4f57,0.9881725
4283f28a,0.22224073
850a381c,0.012361376
f78fd217,0.9866479
9e37732e,9.972084e-07
e8f6b3f0,0.21763803
d5a615f8,2.2067004e-05
ee9b291e,0.98571485
affcd7bf,0.86208266
3b43490b,0.028729536
73efa120,1.3329975e-06
9b47d1bf,2.8907412e-05
d3c1e961,0.9997008
63aae86a,0.0005383321
95429378,0.9986486
de13af0f,0.0014729825
328b74f4,0.9975992
d89d6fbc,0.41952634
7346c439,0.9997204
0719d5e2,0.112281926
68a20f15,0.99949586
fee78b0c,0.00021872098
c3fca286,9.544795e-05
a873532e,0.9992893
93afeece,0.44130376
92a21542,2.5624768e-06
d65f8eb3,0.9988638
2e5462d9,2.3657142e-08
2757a316,0.97237813
7ce75dda,0.99910283
02e48c95,0.9997943
70a639ef,0.97198683
76412298,0.9963398
f8dd4fcc,1.267103e-10
e337d0b8,0.31184345
11a04625,0.0018485949
3c866636,0.9989442
04bfcaec,0.99929845
42a86b3a,0.0086420495
84fe7f94,8.603469e-05
04e6f331,0.6682229
92c90853,0.97319084
660a98a7,0.00063969387
89670962,0.9891994
9d586019,0.4110632
5f49ea3b,0.0005158296
968e1414,0.99975854
389d7eaf,0.9937855
65ca9e76,0.9897788
a09cae27,0.0016321767
00c5b3e0,0.6561262
7f9df2b0,0.9991935
a2303efc,0.99889565
cb62e5cb,0.9996799
9ff1e0f0,3.020152e-06
39fd995a,0.9865643
544d0681,0.9997905
cb0319fc,0.99939084
d86deb2b,0.9923839
cdee905a,0.9997143
2539742b,0.0022139319
2ea3c9f1,0.8503724
9cadda28,0.0018874067
8376a077,0.9988803
04e11240,0.0005066729
c7d6f6f8,0.9999051
bba1a0f1,0.00018333581
7f66bb44,1.5247476e-08
9d8f326c,0.99960333
