id,is_iceberg
d4bb8bac,0.98627704
28612c22,1.0849587e-05
d5c8ab27,0.007285821
b8cf5edb,0.31585476
3f6778c5,0.34063837
0ecf7d79,9.039563e-06
4acfe35a,0.79287124
a5b4d551,5.788192e-06
cacbe718,0.99639696
de1244d8,0.9384637
04f859f9,0.9313837
cedc73e3,0.2537177
6f17e58c,0.12744386
d45f1475,0.9219899
c35ccd42,7.918268e-10
1799793b,0.9580146
bdf823e2,0.16030984
be0aa969,1.332274e-07
65951e77,0.91245735
e8b76fb7,0.2585511
ac6ca227,0.9048403
a8104355,0.9983525
e76a4a04,0.0048644203
502a8388,0.98365444
c0c841d0,4.2005854e-06
ee49f0fb,0.9341529
dc6fa59d,0.8898923
3cef79cb,0.99559116
84673729,0.7473411
c5227b8a,0.0038324255
574a1da7,0.9744411
207b59dd,0.5872957
309b5423,7.916033e-10
7cf1ff70,0.9960878
a8c38f58,0.0001319423
f659df68,0.4688559
076a815e,0.9965984
6a9478ad,0.72849375
f8661e3b,0.9399488
ea9da7da,2.0348307e-06
ec4952c3,0.823982
1c607692,0.4224808
4cf47a74,0.14709054
e0cd0236,0.42463592
06b6ac23,0.9620761
11d06927,0.48787728
996ea0b1,0.99993193
e0ccd7bb,8.6330394e-05
b2bc5d27,0.36035097
71a0d13b,0.9971419
95ed1e8c,4.6267218e-08
bffad1b6,0.53265506
ce151e35,0.9267304
020f5eaa,0.38937247
ed3f900a,0.0075199283
58835983,0.9998851
a783bdb3,0.20773527
76bf0e79,0.69212216
aada72d9,0.0005573996
a1ca4187,0.9991215
5a3d8224,5.5660087e-07
328e68bd,0.029394595
32f5ee95,0.3538416
ce73809a,0.99957436
9a3c8482,6.019789e-07
b37083ff,0.002664586
f01671c0,0.9866938
64e98469,3.5044154e-09
ebd806e6,0.9466776
0df5c436,0.047619574
0bd98db1,0.00026983602
9f5d3bfb,5.557244e-09
7a6149bc,0.9985002
2b92dadd,0.38933575
b7555b43,0.0020744877
90230ea7,0.11827671
7dfdee78,0.8572286
5bbdfc71,0.99940264
ac16f7f2,0.69718874
862b4f57,0.9877216
4283f28a,0.11322243
850a381c,0.08594885
f78fd217,0.78162086
9e37732e,3.236057e-09
e8f6b3f0,0.39641553
d5a615f8,6.171608e-05
ee9b291e,0.5787617
affcd7bf,0.56774473
3b43490b,0.14202227
73efa120,9.1755084e-07
9b47d1bf,0.0011422032
d3c1e961,0.99469274
63aae86a,0.0031754696
95429378,0.9183958
de13af0f,0.0626218
328b74f4,0.95512927
d89d6fbc,0.135925
7346c439,0.96877295
0719d5e2,0.3128453
68a20f15,0.9993693
fee78b0c,9.828086e-05
c3fca286,0.00020525334
a873532e,0.98715276
93afeece,0.4588617
92a21542,0.00016656873
d65f8eb3,0.9758041
2e5462d9,8.752783e-09
2757a316,0.9015234
7ce75dda,0.9901682
02e48c95,0.9975309
70a639ef,0.8038282
76412298,0.937095
f8dd4fcc,9.7615395e-11
e337d0b8,0.42055368
11a04625,0.02955143
3c866636,0.99143326
04bfcaec,0.99286324
42a86b3a,0.0012507834
84fe7f94,0.013999649
04e6f331,0.42672575
92c90853,0.7531623
660a98a7,0.016277118
89670962,0.98102164
9d586019,0.42079842
5f49ea3b,6.711752e-05
968e1414,0.97449636
389d7eaf,0.73431736
65ca9e76,0.86417687
a09cae27,0.03118507
00c5b3e0,0.102947146
7f9df2b0,0.97305954
a2303efc,0.97835827
cb62e5cb,0.9938167
9ff1e0f0,0.00023709598
39fd995a,0.68823457
544d0681,0.9986754
cb0319fc,0.9971506
d86deb2b,0.64601475
cdee905a,0.99804795
2539742b,0.0005539633
2ea3c9f1,0.45360166
9cadda28,0.09616881
8376a077,0.957857
04e11240,0.008458535
c7d6f6f8,0.9999932
bba1a0f1,0.004181055
7f66bb44,3.595689e-11
9d8f326c,0.9725568
