id,is_iceberg
d4bb8bac,0.992837
28612c22,6.412473e-05
d5c8ab27,0.0024796687
b8cf5edb,0.35469472
3f6778c5,0.26455548
0ecf7d79,0.008638463
4acfe35a,0.7451247
a5b4d551,1.25781135e-05
cacbe718,0.99846435
de1244d8,0.97833633
04f859f9,0.9356125
cedc73e3,0.23155499
6f17e58c,0.042580746
d45f1475,0.93165547
c35ccd42,3.5733922e-08
1799793b,0.9598361
bdf823e2,0.5746769
be0aa969,5.022916e-07
65951e77,0.9756882
e8b76fb7,0.6106126
ac6ca227,0.9358724
a8104355,0.99972934
e76a4a04,0.3363083
502a8388,0.9962286
c0c841d0,0.00017920302
ee49f0fb,0.99417996
dc6fa59d,0.98345345
3cef79cb,0.9935603
84673729,0.95119166
c5227b8a,0.00035160434
574a1da7,0.9991007
207b59dd,0.20861742
309b5423,1.6636148e-08
7cf1ff70,0.99368143
a8c38f58,0.00018353626
f659df68,0.916214
076a815e,0.9999112
6a9478ad,0.84440243
f8661e3b,0.99559635
ea9da7da,1.5463156e-05
ec4952c3,0.8846346
1c607692,0.6505213
4cf47a74,0.5757161
e0cd0236,0.75465345
06b6ac23,0.9838463
11d06927,0.6910271
996ea0b1,0.9999939
e0ccd7bb,0.00064538285
b2bc5d27,0.55588543
71a0d13b,0.99995327
95ed1e8c,2.7272557e-07
bffad1b6,0.804101
ce151e35,0.89627165
020f5eaa,0.86432433
ed3f900a,0.022542862
58835983,0.9999937
a783bdb3,0.08216689
76bf0e79,0.87962544
aada72d9,8.029723e-05
a1ca4187,0.9969112
5a3d8224,0.00019918998
328e68bd,0.08287839
32f5ee95,0.10896204
ce73809a,0.99977547
9a3c8482,2.0614556e-05
b37083ff,0.0034452428
f01671c0,0.99976665
64e98469,2.9181594e-08
ebd806e6,0.9830458
0df5c436,0.026001133
0bd98db1,9.740788e-06
9f5d3bfb,7.3839385e-07
7a6149bc,0.9988613
2b92dadd,0.8131393
b7555b43,0.0016492341
90230ea7,0.33919382
7dfdee78,0.89099556
5bbdfc71,0.999959
ac16f7f2,0.6506168
862b4f57,0.98165715
4283f28a,0.28208578
850a381c,0.04612001
f78fd217,0.94093555
9e37732e,1.6985042e-07
e8f6b3f0,0.58179694
d5a615f8,0.0003969177
ee9b291e,0.80588156
affcd7bf,0.72584087
3b43490b,0.47985762
73efa120,1.8370198e-06
9b47d1bf,0.040399436
d3c1e961,0.99381554
63aae86a,0.018728869
95429378,0.9695462
de13af0f,0.35720932
328b74f4,0.97542655
d89d6fbc,0.25947246
7346c439,0.998874
0719d5e2,0.25240025
68a20f15,0.9999002
fee78b0c,0.002319024
c3fca286,0.00037315526
a873532e,0.99931383
93afeece,0.8900143
92a21542,7.530341e-05
d65f8eb3,0.9925972
2e5462d9,1.9927162e-08
2757a316,0.9543283
7ce75dda,0.99658716
02e48c95,0.99911743
70a639ef,0.847783
76412298,0.94235164
f8dd4fcc,5.3953276e-08
e337d0b8,0.36574912
11a04625,0.008890086
3c866636,0.9951357
04bfcaec,0.9976284
42a86b3a,0.011462105
84fe7f94,0.022433948
04e6f331,0.562919
92c90853,0.9222826
660a98a7,0.03182725
89670962,0.9294878
9d586019,0.4743342
5f49ea3b,5.5838365e-05
968e1414,0.994325
389d7eaf,0.91902256
65ca9e76,0.94881475
a09cae27,0.055220004
00c5b3e0,0.23165049
7f9df2b0,0.99235934
a2303efc,0.9514637
cb62e5cb,0.9995505
9ff1e0f0,7.591475e-05
39fd995a,0.7247987
544d0681,0.9997676
cb0319fc,0.99552625
d86deb2b,0.9681852
cdee905a,0.99988544
2539742b,8.8179434e-07
2ea3c9f1,0.73833025
9cadda28,0.0011163991
8376a077,0.9814966
04e11240,0.010992432
c7d6f6f8,0.999998
bba1a0f1,0.0032829691
7f66bb44,6.552548e-08
9d8f326c,0.9948841
