id,is_iceberg
d4bb8bac,0.9875896
28612c22,0.0003422639
d5c8ab27,0.0019545876
b8cf5edb,0.16063409
3f6778c5,0.5792493
0ecf7d79,0.00017638132
4acfe35a,0.87640494
a5b4d551,0.0006403972
cacbe718,0.99797946
de1244d8,0.98912454
04f859f9,0.9471103
cedc73e3,0.555662
6f17e58c,0.052583653
d45f1475,0.84522814
c35ccd42,1.6929718e-06
1799793b,0.9892201
bdf823e2,0.5578456
be0aa969,1.4495112e-05
65951e77,0.9677913
e8b76fb7,0.74368
ac6ca227,0.8656728
a8104355,0.9992204
e76a4a04,0.03928122
502a8388,0.98223984
c0c841d0,0.00019369277
ee49f0fb,0.9911118
dc6fa59d,0.9719257
3cef79cb,0.99370664
84673729,0.7795569
c5227b8a,0.008237014
574a1da7,0.99769765
207b59dd,0.29792976
309b5423,3.2156444e-07
7cf1ff70,0.99810696
a8c38f58,0.0006639323
f659df68,0.78453386
076a815e,0.99989665
6a9478ad,0.7750941
f8661e3b,0.99380386
ea9da7da,4.4363278e-05
ec4952c3,0.94023824
1c607692,0.5032369
4cf47a74,0.59257436
e0cd0236,0.6581083
06b6ac23,0.9754008
11d06927,0.585626
996ea0b1,0.99997926
e0ccd7bb,0.0018916486
b2bc5d27,0.5418408
71a0d13b,0.9999106
95ed1e8c,1.1680052e-05
bffad1b6,0.7479861
ce151e35,0.8658419
020f5eaa,0.6742133
ed3f900a,0.17080815
58835983,0.9999198
a783bdb3,0.17116763
76bf0e79,0.83800274
aada72d9,0.0008160601
a1ca4187,0.9930005
5a3d8224,0.0004994832
328e68bd,0.07379962
32f5ee95,0.1426259
ce73809a,0.9998647
9a3c8482,2.799017e-05
b37083ff,0.014867168
f01671c0,0.9998696
64e98469,4.195719e-07
ebd806e6,0.97619593
0df5c436,0.012878342
0bd98db1,0.00014701973
9f5d3bfb,1.682089e-05
7a6149bc,0.99844056
2b92dadd,0.68249995
b7555b43,0.004138077
90230ea7,0.13080934
7dfdee78,0.8482197
5bbdfc71,0.99979025
ac16f7f2,0.84490687
862b4f57,0.99029833
4283f28a,0.10507852
850a381c,0.041639626
f78fd217,0.89174443
9e37732e,7.446628e-07
e8f6b3f0,0.32954204
d5a615f8,0.004873387
ee9b291e,0.5910383
affcd7bf,0.74138653
3b43490b,0.22217318
73efa120,8.072449e-05
9b47d1bf,0.003353965
d3c1e961,0.99797827
63aae86a,0.037956297
95429378,0.95092094
de13af0f,0.13211954
328b74f4,0.97272635
d89d6fbc,0.024570279
7346c439,0.9984597
0719d5e2,0.4224802
68a20f15,0.99975723
fee78b0c,0.002578935
c3fca286,0.00017376585
a873532e,0.9991068
93afeece,0.53692245
92a21542,0.00030909388
d65f8eb3,0.99478805
2e5462d9,8.384751e-07
2757a316,0.7718814
7ce75dda,0.99490464
02e48c95,0.9993229
70a639ef,0.85205203
76412298,0.94076526
f8dd4fcc,4.048705e-08
e337d0b8,0.47465554
11a04625,0.03785393
3c866636,0.996445
04bfcaec,0.99858934
42a86b3a,0.016085712
84fe7f94,0.16811869
04e6f331,0.37977347
92c90853,0.855278
660a98a7,0.06445078
89670962,0.9831807
9d586019,0.4752399
5f49ea3b,0.009970688
968e1414,0.9962543
389d7eaf,0.94624496
65ca9e76,0.9249569
a09cae27,0.09933719
00c5b3e0,0.43277878
7f9df2b0,0.99552923
a2303efc,0.9648215
cb62e5cb,0.999342
9ff1e0f0,0.00039029904
39fd995a,0.56993586
544d0681,0.9997571
cb0319fc,0.99895656
d86deb2b,0.62189126
cdee905a,0.999798
2539742b,0.0006388452
2ea3c9f1,0.48833057
9cadda28,0.0443113
8376a077,0.98339164
04e11240,0.016738737
c7d6f6f8,0.9999938
bba1a0f1,0.008039288
7f66bb44,2.868089e-07
9d8f326c,0.9972217
