id,is_iceberg
d4bb8bac,0.9946116
28612c22,2.8634378e-07
d5c8ab27,0.0005155905
b8cf5edb,0.027583223
3f6778c5,0.029055888
0ecf7d79,1.1458122e-06
4acfe35a,0.5972829
a5b4d551,1.0598633e-07
cacbe718,0.99696094
de1244d8,0.9863858
04f859f9,0.9822744
cedc73e3,0.041708916
6f17e58c,0.04047862
d45f1475,0.9250711
c35ccd42,4.5572723e-10
1799793b,0.9872039
bdf823e2,0.2361764
be0aa969,7.263201e-11
65951e77,0.96477014
e8b76fb7,0.035849508
ac6ca227,0.8477664
a8104355,0.9998171
e76a4a04,0.00024380401
502a8388,0.9943824
c0c841d0,2.499317e-07
ee49f0fb,0.98874795
dc6fa59d,0.8968957
3cef79cb,0.9985128
84673729,0.8210652
c5227b8a,7.056879e-07
574a1da7,0.9952638
207b59dd,0.30764666
309b5423,2.438753e-12
7cf1ff70,0.9636819
a8c38f58,5.9658487e-06
f659df68,0.9151469
076a815e,0.9997311
6a9478ad,0.85257256
f8661e3b,0.99088985
ea9da7da,4.808855e-08
ec4952c3,0.8815082
1c607692,0.34648997
4cf47a74,0.4197609
e0cd0236,0.50868875
06b6ac23,0.97804046
11d06927,0.41940594
996ea0b1,0.999964
e0ccd7bb,3.6611839e-06
b2bc5d27,0.6476241
71a0d13b,0.99980193
95ed1e8c,4.470898e-11
bffad1b6,0.5979227
ce151e35,0.84956396
020f5eaa,0.61619496
ed3f900a,0.002172787
58835983,0.9999391
a783bdb3,0.1064114
76bf0e79,0.87350106
aada72d9,2.0005244e-05
a1ca4187,0.9934696
5a3d8224,6.060017e-07
328e68bd,0.004990977
32f5ee95,0.19531877
ce73809a,0.9999058
9a3c8482,1.0012183e-06
b37083ff,9.3044815e-05
f01671c0,0.9995734
64e98469,1.1588804e-13
ebd806e6,0.9827556
0df5c436,0.0012317084
0bd98db1,1.3691886e-08
9f5d3bfb,1.118288e-08
7a6149bc,0.9985241
2b92dadd,0.42305216
b7555b43,0.0001321512
90230ea7,0.02925157
7dfdee78,0.8899862
5bbdfc71,0.9998809
ac16f7f2,0.63964725
862b4f57,0.9817695
4283f28a,0.12482496
850a381c,0.024644954
f78fd217,0.8957079
9e37732e,2.034366e-11
e8f6b3f0,0.6553671
d5a615f8,4.162264e-06
ee9b291e,0.53389674
affcd7bf,0.55017763
3b43490b,0.112731054
73efa120,4.0850578e-10
9b47d1bf,1.5776859e-05
d3c1e961,0.9971316
63aae86a,0.0009438957
95429378,0.9666953
de13af0f,0.005156347
328b74f4,0.96559995
d89d6fbc,0.07645258
7346c439,0.9968225
0719d5e2,0.28575262
68a20f15,0.99961215
fee78b0c,1.058424e-05
c3fca286,1.0711218e-05
a873532e,0.99845433
93afeece,0.40940052
92a21542,4.915383e-06
d65f8eb3,0.9937059
2e5462d9,1.167483e-11
2757a316,0.749629
7ce75dda,0.99785405
02e48c95,0.99967635
70a639ef,0.8302754
76412298,0.9316924
f8dd4fcc,7.161357e-13
e337d0b8,0.12533051
11a04625,0.0006991202
3c866636,0.99270916
04bfcaec,0.9994272
42a86b3a,0.0030438735
84fe7f94,0.015609028
04e6f331,0.5239075
92c90853,0.9542084
660a98a7,0.016844401
89670962,0.9867836
9d586019,0.24849212
5f49ea3b,1.8139085e-07
968e1414,0.9928215
389d7eaf,0.8171808
65ca9e76,0.9436648
a09cae27,0.013639132
00c5b3e0,0.025979977
7f9df2b0,0.99528486
a2303efc,0.9878785
cb62e5cb,0.99847573
9ff1e0f0,1.0155634e-05
39fd995a,0.46318775
544d0681,0.99722385
cb0319fc,0.98622173
d86deb2b,0.77555704
cdee905a,0.99894065
2539742b,4.560981e-08
2ea3c9f1,0.45182875
9cadda28,8.371169e-05
8376a077,0.9566882
04e11240,0.00032666992
c7d6f6f8,0.99997365
bba1a0f1,0.0014704703
7f66bb44,4.57745e-13
9d8f326c,0.9903162
