id,is_iceberg
d4bb8bac,0.97677
28612c22,5.7938087e-07
d5c8ab27,0.00015895841
b8cf5edb,0.05927261
3f6778c5,0.16458803
0ecf7d79,1.8374894e-06
4acfe35a,0.98218244
a5b4d551,4.2740436e-07
cacbe718,0.9979564
de1244d8,0.9817171
04f859f9,0.89091057
cedc73e3,0.078781106
6f17e58c,0.02150087
d45f1475,0.85869503
c35ccd42,1.3768925e-09
1799793b,0.93831414
bdf823e2,0.16133755
be0aa969,2.1122393e-09
65951e77,0.83202875
e8b76fb7,0.033106815
ac6ca227,0.81081235
a8104355,0.99618894
e76a4a04,0.0002603202
502a8388,0.99323565
c0c841d0,2.5437987e-07
ee49f0fb,0.9164771
dc6fa59d,0.975475
3cef79cb,0.98306906
84673729,0.5732948
c5227b8a,2.2039538e-05
574a1da7,0.9980438
207b59dd,0.06199506
309b5423,5.1193685e-09
7cf1ff70,0.99819094
a8c38f58,1.6885273e-05
f659df68,0.28600502
076a815e,0.99998283
6a9478ad,0.8545638
f8661e3b,0.99297005
ea9da7da,6.3591403e-07
ec4952c3,0.84685016
1c607692,0.5471018
4cf47a74,0.42208904
e0cd0236,0.33319646
06b6ac23,0.959783
11d06927,0.37403798
996ea0b1,0.99986625
e0ccd7bb,8.033179e-06
b2bc5d27,0.43192825
71a0d13b,0.9998204
95ed1e8c,9.815726e-10
bffad1b6,0.43098122
ce151e35,0.77617276
020f5eaa,0.33447412
ed3f900a,0.0028161523
58835983,0.9998085
a783bdb3,0.018165061
76bf0e79,0.78238857
aada72d9,1.6418787e-06
a1ca4187,0.96907693
5a3d8224,5.5476414e-07
328e68bd,0.0031412754
32f5ee95,0.13981926
ce73809a,0.99985313
9a3c8482,9.1167486e-08
b37083ff,0.00022460517
f01671c0,0.99725646
64e98469,2.5973467e-08
ebd806e6,0.9877555
0df5c436,0.0050115017
0bd98db1,1.7270808e-07
9f5d3bfb,2.8349325e-09
7a6149bc,0.99402654
2b92dadd,0.37264723
b7555b43,5.7689373e-05
90230ea7,0.04377552
7dfdee78,0.80394435
5bbdfc71,0.99991727
ac16f7f2,0.44637853
862b4f57,0.9549476
4283f28a,0.31960618
850a381c,0.018718457
f78fd217,0.8964485
9e37732e,1.8419402e-10
e8f6b3f0,0.39418328
d5a615f8,2.66066e-05
ee9b291e,0.6932736
affcd7bf,0.37553182
3b43490b,0.109151565
73efa120,1.02064575e-07
9b47d1bf,4.6778605e-06
d3c1e961,0.9857954
63aae86a,0.0007941797
95429378,0.93902403
de13af0f,0.0010585797
328b74f4,0.9253189
d89d6fbc,0.014875524
7346c439,0.9993368
0719d5e2,0.13476375
68a20f15,0.9976821
fee78b0c,7.977549e-05
c3fca286,4.530247e-06
a873532e,0.9993711
93afeece,0.42978996
92a21542,7.603769e-07
d65f8eb3,0.99237305
2e5462d9,4.6394955e-10
2757a316,0.93498856
7ce75dda,0.99933237
02e48c95,0.9989452
70a639ef,0.7803004
76412298,0.94350874
f8dd4fcc,1.010876e-10
e337d0b8,0.117758095
11a04625,0.0018899039
3c866636,0.99757344
04bfcaec,0.9987149
42a86b3a,0.002190658
84fe7f94,0.0027380914
04e6f331,0.39921436
92c90853,0.72124785
660a98a7,0.0008097648
89670962,0.98146236
9d586019,0.37795416
5f49ea3b,1.5933354e-05
968e1414,0.9961726
389d7eaf,0.94896716
65ca9e76,0.9656655
a09cae27,0.013804269
00c5b3e0,0.00669704
7f9df2b0,0.97166485
a2303efc,0.9848125
cb62e5cb,0.99978775
9ff1e0f0,1.7636081e-06
39fd995a,0.70806575
544d0681,0.99994767
cb0319fc,0.99730706
d86deb2b,0.7894985
cdee905a,0.9998307
2539742b,5.433289e-07
2ea3c9f1,0.3642036
9cadda28,2.7614437e-06
8376a077,0.981794
04e11240,0.00022093873
c7d6f6f8,0.9999889
bba1a0f1,0.00039014613
7f66bb44,3.9783823e-10
9d8f326c,0.99761057
