id,is_iceberg
d4bb8bac,0.7240019
28612c22,2.9475012e-05
d5c8ab27,2.0370953e-05
b8cf5edb,0.2828076
3f6778c5,0.2565804
0ecf7d79,0.0018976189
4acfe35a,0.61888295
a5b4d551,1.991253e-05
cacbe718,0.9960407
de1244d8,0.94076544
04f859f9,0.85639036
cedc73e3,0.23468308
6f17e58c,0.03482986
d45f1475,0.8427097
c35ccd42,5.1831552e-08
1799793b,0.93878466
bdf823e2,0.6735405
be0aa969,9.288779e-08
65951e77,0.93432736
e8b76fb7,0.92794544
ac6ca227,0.85235435
a8104355,0.999263
e76a4a04,0.0063473703
502a8388,0.9824808
c0c841d0,3.8488135e-05
ee49f0fb,0.82842314
dc6fa59d,0.9879139
3cef79cb,0.98379713
84673729,0.8207741
c5227b8a,8.997477e-05
574a1da7,0.996709
207b59dd,0.11345586
309b5423,9.342363e-09
7cf1ff70,0.9316657
a8c38f58,0.00063568633
f659df68,0.5456115
076a815e,0.9991654
6a9478ad,0.7791662
f8661e3b,0.9909046
ea9da7da,5.146061e-06
ec4952c3,0.951592
1c607692,0.41784966
4cf47a74,0.7259498
e0cd0236,0.36530867
06b6ac23,0.97700137
11d06927,0.31140932
996ea0b1,0.99990165
e0ccd7bb,3.4952798e-06
b2bc5d27,0.4468594
71a0d13b,0.9978362
95ed1e8c,2.3156802e-07
bffad1b6,0.5843318
ce151e35,0.81242365
020f5eaa,0.710792
ed3f900a,0.016973453
58835983,0.99969256
a783bdb3,0.025999188
76bf0e79,0.85452336
aada72d9,1.6191736e-05
a1ca4187,0.9937097
5a3d8224,2.027316e-05
328e68bd,0.13730578
32f5ee95,0.19979931
ce73809a,0.9995577
9a3c8482,3.0415642e-05
b37083ff,0.00036089867
f01671c0,0.99940515
64e98469,2.5140884e-07
ebd806e6,0.950804
0df5c436,8.811825e-06
0bd98db1,9.861895e-07
9f5d3bfb,6.445031e-08
7a6149bc,0.99938345
2b92dadd,0.1293167
b7555b43,0.0009338572
90230ea7,0.11222857
7dfdee78,0.7244455
5bbdfc71,0.99989176
ac16f7f2,0.7380938
862b4f57,0.98954695
4283f28a,0.10379435
850a381c,0.040145665
f78fd217,0.8685919
9e37732e,3.901181e-07
e8f6b3f0,0.43706104
d5a615f8,1.2555975e-05
ee9b291e,0.760744
affcd7bf,0.6015386
3b43490b,0.4220883
73efa120,3.488929e-06
9b47d1bf,0.000525657
d3c1e961,0.99119747
63aae86a,0.0031813537
95429378,0.9531729
de13af0f,0.48078522
328b74f4,0.96958447
d89d6fbc,0.03213374
7346c439,0.99905556
0719d5e2,0.15318981
68a20f15,0.99802125
fee78b0c,0.00035188854
c3fca286,1.2040773e-05
a873532e,0.9961467
93afeece,0.5312933
92a21542,2.2726794e-05
d65f8eb3,0.98691493
2e5462d9,2.0951698e-09
2757a316,0.9452101
7ce75dda,0.9853838
02e48c95,0.99909675
70a639ef,0.75663066
76412298,0.92034733
f8dd4fcc,1.1102375e-08
e337d0b8,0.27379435
11a04625,0.008907687
3c866636,0.99403435
04bfcaec,0.9968399
42a86b3a,0.02812825
84fe7f94,0.020767143
04e6f331,0.45952064
92c90853,0.93518734
660a98a7,0.027940337
89670962,0.9899907
9d586019,0.36355832
5f49ea3b,0.00010351351
968e1414,0.99264014
389d7eaf,0.8813425
65ca9e76,0.9203831
a09cae27,0.06685825
00c5b3e0,0.09726782
7f9df2b0,0.98127216
a2303efc,0.9659879
cb62e5cb,0.9970892
9ff1e0f0,5.0372532e-06
39fd995a,0.49764243
544d0681,0.99981767
cb0319fc,0.97424424
d86deb2b,0.98028964
cdee905a,0.9978929
2539742b,1.6295211e-06
2ea3c9f1,0.47171724
9cadda28,0.00016546223
8376a077,0.9689688
04e11240,0.009644423
c7d6f6f8,0.9999976
bba1a0f1,0.00745199
7f66bb44,2.087947e-07
9d8f326c,0.99405426
