id,is_iceberg
d4bb8bac,0.9657024
28612c22,2.396715e-05
d5c8ab27,0.00091972627
b8cf5edb,0.37536898
3f6778c5,0.2585587
0ecf7d79,0.012370279
4acfe35a,0.9451756
a5b4d551,8.662356e-06
cacbe718,0.99732375
de1244d8,0.96484363
04f859f9,0.9570711
cedc73e3,0.33283147
6f17e58c,0.15689434
d45f1475,0.8685304
c35ccd42,3.568452e-07
1799793b,0.98549193
bdf823e2,0.5409311
be0aa969,3.3073738e-07
65951e77,0.9735519
e8b76fb7,0.9023152
ac6ca227,0.8560531
a8104355,0.9997944
e76a4a04,0.011759868
502a8388,0.9914623
c0c841d0,0.00011943321
ee49f0fb,0.98420715
dc6fa59d,0.98455215
3cef79cb,0.99760795
84673729,0.85374796
c5227b8a,0.00012251992
574a1da7,0.9986518
207b59dd,0.40594655
309b5423,6.213146e-08
7cf1ff70,0.9989347
a8c38f58,0.00046920343
f659df68,0.71124566
076a815e,0.9998894
6a9478ad,0.80771804
f8661e3b,0.9901992
ea9da7da,0.00015338781
ec4952c3,0.9002212
1c607692,0.677655
4cf47a74,0.642641
e0cd0236,0.8258959
06b6ac23,0.9687564
11d06927,0.48407224
996ea0b1,0.9999882
e0ccd7bb,0.00045771847
b2bc5d27,0.42703643
71a0d13b,0.99992967
95ed1e8c,3.9130484e-08
bffad1b6,0.5476536
ce151e35,0.87970066
020f5eaa,0.836846
ed3f900a,0.021635283
58835983,0.999907
a783bdb3,0.5688644
76bf0e79,0.8002396
aada72d9,0.00016897886
a1ca4187,0.99969566
5a3d8224,8.0420454e-05
328e68bd,0.19805521
32f5ee95,0.2401241
ce73809a,0.9999782
9a3c8482,8.2305036e-05
b37083ff,0.004196037
f01671c0,0.99960226
64e98469,4.467619e-07
ebd806e6,0.9595453
0df5c436,0.009463808
0bd98db1,2.1473971e-07
9f5d3bfb,8.944215e-07
7a6149bc,0.99973184
2b92dadd,0.78396434
b7555b43,0.0019253782
90230ea7,0.22244063
7dfdee78,0.8007965
5bbdfc71,0.9999838
ac16f7f2,0.8983347
862b4f57,0.972517
4283f28a,0.17083871
850a381c,0.160173
f78fd217,0.90836585
9e37732e,1.2525611e-07
e8f6b3f0,0.45063198
d5a615f8,0.00019718143
ee9b291e,0.85761756
affcd7bf,0.679124
3b43490b,0.46784538
73efa120,1.0629228e-06
9b47d1bf,0.00038283167
d3c1e961,0.9966822
63aae86a,0.012314842
95429378,0.9679258
de13af0f,0.19917695
328b74f4,0.97618663
d89d6fbc,0.36978477
7346c439,0.99884295
0719d5e2,0.4644896
68a20f15,0.9992471
fee78b0c,0.00024424423
c3fca286,0.00024068441
a873532e,0.9992124
93afeece,0.55727005
92a21542,0.00019530191
d65f8eb3,0.99056846
2e5462d9,2.3904967e-09
2757a316,0.9194219
7ce75dda,0.99786854
02e48c95,0.99966514
70a639ef,0.83495927
76412298,0.9280647
f8dd4fcc,6.638287e-09
e337d0b8,0.16049735
11a04625,0.01353036
3c866636,0.997471
04bfcaec,0.99883085
42a86b3a,0.02704347
84fe7f94,0.050744515
04e6f331,0.37686276
92c90853,0.84263283
660a98a7,0.09272217
89670962,0.9828096
9d586019,0.5451522
5f49ea3b,0.0003203749
968e1414,0.9965076
389d7eaf,0.8545928
65ca9e76,0.921088
a09cae27,0.057223625
00c5b3e0,0.1455129
7f9df2b0,0.99148273
a2303efc,0.981153
cb62e5cb,0.9995179
9ff1e0f0,6.285239e-05
39fd995a,0.8375424
544d0681,0.99993944
cb0319fc,0.9992543
d86deb2b,0.97656566
cdee905a,0.9999739
2539742b,9.229165e-07
2ea3c9f1,0.6913806
9cadda28,0.002218506
8376a077,0.9781601
04e11240,0.010692486
c7d6f6f8,0.99999964
bba1a0f1,0.012696984
7f66bb44,2.1422404e-07
9d8f326c,0.99653095
