id,is_iceberg
d4bb8bac,0.9930621
28612c22,7.567652e-05
d5c8ab27,0.0022122737
b8cf5edb,0.7207136
3f6778c5,0.569007
0ecf7d79,0.00075273967
4acfe35a,0.74889106
a5b4d551,1.0874538e-06
cacbe718,0.9923233
de1244d8,0.98316425
04f859f9,0.96402323
cedc73e3,0.15233517
6f17e58c,0.09489505
d45f1475,0.9760685
c35ccd42,1.0800151e-07
1799793b,0.9738182
bdf823e2,0.79065037
be0aa969,4.6073583e-06
65951e77,0.97202605
e8b76fb7,0.5843239
ac6ca227,0.9673322
a8104355,0.9955688
e76a4a04,0.0037270784
502a8388,0.98752683
c0c841d0,0.00057623046
ee49f0fb,0.93452835
dc6fa59d,0.9913333
3cef79cb,0.99134856
84673729,0.941965
c5227b8a,4.108122e-05
574a1da7,0.97626525
207b59dd,0.83508706
309b5423,1.9893464e-07
7cf1ff70,0.93864423
a8c38f58,0.0011603555
f659df68,0.4776028
076a815e,0.9978987
6a9478ad,0.91478366
f8661e3b,0.97738886
ea9da7da,5.374074e-05
ec4952c3,0.8027851
1c607692,0.19830765
4cf47a74,0.29949164
e0cd0236,0.36758062
06b6ac23,0.937216
11d06927,0.79850984
996ea0b1,0.99933654
e0ccd7bb,1.4092881e-06
b2bc5d27,0.5931263
71a0d13b,0.99581933
95ed1e8c,2.327628e-09
bffad1b6,0.65891397
ce151e35,0.96905273
020f5eaa,0.58009094
ed3f900a,0.006486503
58835983,0.9987564
a783bdb3,0.794718
76bf0e79,0.85130423
aada72d9,0.00015795745
a1ca4187,0.9950374
5a3d8224,4.6803434e-05
328e68bd,0.005864963
32f5ee95,0.7521078
ce73809a,0.9994172
9a3c8482,2.0557249e-05
b37083ff,0.01594776
f01671c0,0.9932591
64e98469,3.5689038e-08
ebd806e6,0.97772115
0df5c436,0.00096934504
0bd98db1,5.4254365e-06
9f5d3bfb,1.0042181e-06
7a6149bc,0.9935289
2b92dadd,0.6529585
b7555b43,0.00039743434
90230ea7,0.110070266
7dfdee78,0.93751544
5bbdfc71,0.9935958
ac16f7f2,0.57548535
862b4f57,0.9839245
4283f28a,0.14222652
850a381c,0.015885081
f78fd217,0.87405926
9e37732e,4.741979e-06
e8f6b3f0,0.5099289
d5a615f8,0.0001799652
ee9b291e,0.96426135
affcd7bf,0.82271004
3b43490b,0.54193753
73efa120,6.314632e-07
9b47d1bf,0.00043465802
d3c1e961,0.99833316
63aae86a,0.0072756745
95429378,0.9855767
de13af0f,0.04993902
328b74f4,0.9801824
d89d6fbc,0.06215652
7346c439,0.99796414
0719d5e2,0.43255427
68a20f15,0.99803215
fee78b0c,0.00033661214
c3fca286,0.0002462648
a873532e,0.9984124
93afeece,0.5363715
92a21542,7.615837e-05
d65f8eb3,0.98464197
2e5462d9,9.3884715e-08
2757a316,0.9725151
7ce75dda,0.9947817
02e48c95,0.9972187
70a639ef,0.9534403
76412298,0.9802698
f8dd4fcc,4.5954994e-08
e337d0b8,0.42644292
11a04625,0.0010855555
3c866636,0.98436373
04bfcaec,0.9891305
42a86b3a,0.0028518408
84fe7f94,0.019607916
04e6f331,0.68972623
92c90853,0.82155734
660a98a7,0.009737005
89670962,0.9192695
9d586019,0.56249505
5f49ea3b,3.7023725e-05
968e1414,0.9888793
389d7eaf,0.93595636
65ca9e76,0.8394976
a09cae27,0.008582499
00c5b3e0,0.2223676
7f9df2b0,0.99258244
a2303efc,0.9797673
cb62e5cb,0.99823135
9ff1e0f0,0.00011149127
39fd995a,0.53245765
544d0681,0.9893623
cb0319fc,0.9854402
d86deb2b,0.92692375
cdee905a,0.99276733
2539742b,4.6048585e-06
2ea3c9f1,0.6989751
9cadda28,0.00044383676
8376a077,0.9885606
04e11240,0.0014507247
c7d6f6f8,0.99836653
bba1a0f1,0.00093119673
7f66bb44,5.59128e-07
9d8f326c,0.9881102
