id,is_iceberg
d4bb8bac,0.69669825
28612c22,1.1639227e-06
d5c8ab27,7.236508e-05
b8cf5edb,0.08283269
3f6778c5,0.2537075
0ecf7d79,2.0246267e-05
4acfe35a,0.6682928
a5b4d551,7.208521e-06
cacbe718,0.9874321
de1244d8,0.87577254
04f859f9,0.7058457
cedc73e3,0.19715221
6f17e58c,0.19039464
d45f1475,0.6125265
c35ccd42,9.767215e-08
1799793b,0.9345442
bdf823e2,0.28475615
be0aa969,6.081066e-06
65951e77,0.8394137
e8b76fb7,0.313357
ac6ca227,0.6445768
a8104355,0.91965014
e76a4a04,0.0010730313
502a8388,0.9347412
c0c841d0,6.631925e-05
ee49f0fb,0.858685
dc6fa59d,0.94956994
3cef79cb,0.7576423
84673729,0.49688822
c5227b8a,4.367606e-05
574a1da7,0.9895465
207b59dd,0.33357048
309b5423,1.9194822e-08
7cf1ff70,0.93186504
a8c38f58,1.723777e-05
f659df68,0.37923163
076a815e,0.9961689
6a9478ad,0.47292045
f8661e3b,0.9673274
ea9da7da,2.5238436e-05
ec4952c3,0.78117144
1c607692,0.19277447
4cf47a74,0.27386662
e0cd0236,0.16597447
06b6ac23,0.86743087
11d06927,0.30437687
996ea0b1,0.9993594
e0ccd7bb,8.913536e-06
b2bc5d27,0.3703078
71a0d13b,0.99798894
95ed1e8c,5.878754e-08
bffad1b6,0.29854035
ce151e35,0.68464214
020f5eaa,0.5004043
ed3f900a,0.019622244
58835983,0.99653167
a783bdb3,0.6120634
76bf0e79,0.5644073
aada72d9,0.00014346192
a1ca4187,0.93170863
5a3d8224,8.221726e-05
328e68bd,0.016620964
32f5ee95,0.16038446
ce73809a,0.9991749
9a3c8482,5.8400797e-06
b37083ff,0.0021497859
f01671c0,0.9917714
64e98469,4.840857e-10
ebd806e6,0.86849517
0df5c436,6.50575e-05
0bd98db1,1.004382e-05
9f5d3bfb,7.356709e-07
7a6149bc,0.90392166
2b92dadd,0.48649105
b7555b43,8.1609e-05
90230ea7,0.15242226
7dfdee78,0.46367645
5bbdfc71,0.99590474
ac16f7f2,0.49215403
862b4f57,0.737525
4283f28a,0.24359837
850a381c,0.010478362
f78fd217,0.5890625
9e37732e,4.4192595e-07
e8f6b3f0,0.37085283
d5a615f8,0.00020928799
ee9b291e,0.6423996
affcd7bf,0.4722783
3b43490b,0.17355609
73efa120,4.3690778e-07
9b47d1bf,6.340478e-05
d3c1e961,0.98665226
63aae86a,0.0011423973
95429378,0.8113296
de13af0f,0.015694292
328b74f4,0.7736109
d89d6fbc,0.06895852
7346c439,0.9960924
0719d5e2,0.2592685
68a20f15,0.9898661
fee78b0c,0.00020677844
c3fca286,7.271663e-05
a873532e,0.9901815
93afeece,0.35889378
92a21542,8.6387125e-05
d65f8eb3,0.9506195
2e5462d9,2.3427942e-09
2757a316,0.47935155
7ce75dda,0.9905133
02e48c95,0.992994
70a639ef,0.5259629
76412298,0.7353069
f8dd4fcc,5.909064e-11
e337d0b8,0.10779852
11a04625,6.841583e-05
3c866636,0.9797967
04bfcaec,0.9857287
42a86b3a,0.0023619405
84fe7f94,0.21825653
04e6f331,0.32886675
92c90853,0.6742132
660a98a7,0.033006106
89670962,0.72318405
9d586019,0.34051412
5f49ea3b,0.0038375878
968e1414,0.9700323
389d7eaf,0.6531559
65ca9e76,0.79229105
a09cae27,0.026267147
00c5b3e0,0.02725142
7f9df2b0,0.9577205
a2303efc,0.9249981
cb62e5cb,0.9846377
9ff1e0f0,7.07829e-05
39fd995a,0.46279114
544d0681,0.99466264
cb0319fc,0.99411184
d86deb2b,0.8713207
cdee905a,0.9955676
2539742b,5.045662e-06
2ea3c9f1,0.35786694
9cadda28,0.014406432
8376a077,0.95008874
04e11240,0.0013943659
c7d6f6f8,0.9981529
bba1a0f1,0.02608056
7f66bb44,9.747563e-08
9d8f326c,0.9903971
