id,is_iceberg
d4bb8bac,0.74482405
28612c22,0.00024995336
d5c8ab27,0.037099246
b8cf5edb,0.12269328
3f6778c5,0.37950063
0ecf7d79,0.02011491
4acfe35a,0.76635855
a5b4d551,0.0014595474
cacbe718,0.98467296
de1244d8,0.9057181
04f859f9,0.90733796
cedc73e3,0.22120951
6f17e58c,0.110665664
d45f1475,0.80707455
c35ccd42,1.7167522e-05
1799793b,0.98449576
bdf823e2,0.53717643
be0aa969,0.00090599665
65951e77,0.9558249
e8b76fb7,0.31221798
ac6ca227,0.8455913
a8104355,0.9546559
e76a4a04,0.11707021
502a8388,0.97466123
c0c841d0,0.007818936
ee49f0fb,0.9340503
dc6fa59d,0.96362764
3cef79cb,0.88693255
84673729,0.7793079
c5227b8a,0.009561012
574a1da7,0.9862217
207b59dd,0.5865782
309b5423,9.900939e-06
7cf1ff70,0.9268964
a8c38f58,0.011651418
f659df68,0.5202283
076a815e,0.99652964
6a9478ad,0.70729005
f8661e3b,0.97971207
ea9da7da,0.0011396003
ec4952c3,0.8544207
1c607692,0.3669253
4cf47a74,0.3140069
e0cd0236,0.29224324
06b6ac23,0.8952497
11d06927,0.49040747
996ea0b1,0.99861133
e0ccd7bb,0.00015404579
b2bc5d27,0.5140775
71a0d13b,0.99915373
95ed1e8c,1.1050667e-05
bffad1b6,0.6488508
ce151e35,0.8213176
020f5eaa,0.58603173
ed3f900a,0.096979715
58835983,0.98867583
a783bdb3,0.52783656
76bf0e79,0.7326533
aada72d9,0.0022703586
a1ca4187,0.9270399
5a3d8224,0.0010247164
328e68bd,0.06385959
32f5ee95,0.29871497
ce73809a,0.9990723
9a3c8482,0.0014118569
b37083ff,0.030331403
f01671c0,0.98997796
64e98469,6.191584e-06
ebd806e6,0.9400884
0df5c436,0.012875996
0bd98db1,0.0025711944
9f5d3bfb,3.8190195e-05
7a6149bc,0.9653588
2b92dadd,0.54897696
b7555b43,0.011438595
90230ea7,0.20165548
7dfdee78,0.77969706
5bbdfc71,0.9914648
ac16f7f2,0.6731678
862b4f57,0.83934504
4283f28a,0.2839184
850a381c,0.051925983
f78fd217,0.83839816
9e37732e,3.805851e-05
e8f6b3f0,0.3240019
d5a615f8,0.00522663
ee9b291e,0.67303216
affcd7bf,0.519778
3b43490b,0.3078148
73efa120,0.00013539563
9b47d1bf,0.007108752
d3c1e961,0.9845636
63aae86a,0.025227359
95429378,0.9200988
de13af0f,0.02922673
328b74f4,0.89129424
d89d6fbc,0.13477713
7346c439,0.9940824
0719d5e2,0.29674855
68a20f15,0.98388344
fee78b0c,0.008091602
c3fca286,0.00043473265
a873532e,0.98660964
93afeece,0.4164818
92a21542,0.00034603334
d65f8eb3,0.98738235
2e5462d9,1.6424378e-06
2757a316,0.6015987
7ce75dda,0.9852288
02e48c95,0.99367553
70a639ef,0.80049753
76412298,0.9143071
f8dd4fcc,1.8387007e-06
e337d0b8,0.36539295
11a04625,0.006831641
3c866636,0.98155
04bfcaec,0.9805248
42a86b3a,0.021022918
84fe7f94,0.1150325
04e6f331,0.52088064
92c90853,0.5970641
660a98a7,0.037642803
89670962,0.8586038
9d586019,0.53218347
5f49ea3b,0.09664554
968e1414,0.9699508
389d7eaf,0.8456068
65ca9e76,0.7130356
a09cae27,0.038983062
00c5b3e0,0.28447217
7f9df2b0,0.98658085
a2303efc,0.9264265
cb62e5cb,0.9872089
9ff1e0f0,0.000749918
39fd995a,0.33537167
544d0681,0.9932429
cb0319fc,0.9908538
d86deb2b,0.65551835
cdee905a,0.9968556
2539742b,0.065074414
2ea3c9f1,0.55784976
9cadda28,0.45595068
8376a077,0.9661659
04e11240,0.032144796
c7d6f6f8,0.99894434
bba1a0f1,0.016861616
7f66bb44,7.535124e-05
9d8f326c,0.98833615
