id,is_iceberg
d4bb8bac,0.84282774
28612c22,2.9972787e-05
d5c8ab27,0.0028995713
b8cf5edb,0.31930417
3f6778c5,0.52961093
0ecf7d79,5.6197637e-06
4acfe35a,0.6906876
a5b4d551,1.4409961e-05
cacbe718,0.985485
de1244d8,0.967963
04f859f9,0.97156626
cedc73e3,0.3397728
6f17e58c,0.27020946
d45f1475,0.96454585
c35ccd42,7.0683967e-07
1799793b,0.9670752
bdf823e2,0.7225497
be0aa969,1.125906e-06
65951e77,0.9781969
e8b76fb7,0.22305937
ac6ca227,0.93692374
a8104355,0.9871723
e76a4a04,0.0009710115
502a8388,0.9858074
c0c841d0,0.00013550062
ee49f0fb,0.9151818
dc6fa59d,0.9580947
3cef79cb,0.9724851
84673729,0.85913354
c5227b8a,7.8421435e-05
574a1da7,0.9867563
207b59dd,0.69331485
309b5423,9.586178e-08
7cf1ff70,0.7112583
a8c38f58,0.00343954
f659df68,0.77736473
076a815e,0.9972977
6a9478ad,0.9473023
f8661e3b,0.98413575
ea9da7da,1.5983775e-05
ec4952c3,0.7843623
1c607692,0.67152417
4cf47a74,0.5998376
e0cd0236,0.82692677
06b6ac23,0.9684456
11d06927,0.91397023
996ea0b1,0.9988242
e0ccd7bb,6.393514e-05
b2bc5d27,0.88874066
71a0d13b,0.99809116
95ed1e8c,1.1140732e-07
bffad1b6,0.16243277
ce151e35,0.96531916
020f5eaa,0.46164414
ed3f900a,0.02694444
58835983,0.9923453
a783bdb3,0.611679
76bf0e79,0.9093607
aada72d9,0.0011197159
a1ca4187,0.90129447
5a3d8224,4.370752e-05
328e68bd,0.111880235
32f5ee95,0.38683444
ce73809a,0.9975534
9a3c8482,0.000115391296
b37083ff,0.009089396
f01671c0,0.99422306
64e98469,4.2136e-09
ebd806e6,0.9795411
0df5c436,0.00604193
0bd98db1,2.0395213e-05
9f5d3bfb,1.1771093e-06
7a6149bc,0.98372674
2b92dadd,0.4653514
b7555b43,0.006502702
90230ea7,0.77680254
7dfdee78,0.9382983
5bbdfc71,0.9967513
ac16f7f2,0.7624246
862b4f57,0.9493827
4283f28a,0.14059123
850a381c,0.0254229
f78fd217,0.9543801
9e37732e,1.0354473e-05
e8f6b3f0,0.87111825
d5a615f8,8.848279e-05
ee9b291e,0.90073353
affcd7bf,0.9246275
3b43490b,0.5173603
73efa120,4.6110893e-07
9b47d1bf,7.7004916e-05
d3c1e961,0.9933856
63aae86a,0.17436302
95429378,0.9890031
de13af0f,0.15060908
328b74f4,0.9679846
d89d6fbc,0.035309676
7346c439,0.97194034
0719d5e2,0.37258637
68a20f15,0.99425817
fee78b0c,0.00043592387
c3fca286,0.0010498667
a873532e,0.9877244
93afeece,0.8387554
92a21542,0.00052702986
d65f8eb3,0.9872635
2e5462d9,2.695333e-07
2757a316,0.92131436
7ce75dda,0.99183816
02e48c95,0.9968168
70a639ef,0.940647
76412298,0.97248423
f8dd4fcc,1.1458533e-09
e337d0b8,0.8067727
11a04625,0.0059794174
3c866636,0.9883038
04bfcaec,0.99059075
42a86b3a,0.036224842
84fe7f94,0.27413532
04e6f331,0.8766183
92c90853,0.82918775
660a98a7,0.14680305
89670962,0.95352507
9d586019,0.64836323
5f49ea3b,0.00015188451
968e1414,0.9028609
389d7eaf,0.7920221
65ca9e76,0.84409815
a09cae27,0.004225739
00c5b3e0,0.5158063
7f9df2b0,0.9910487
a2303efc,0.9852036
cb62e5cb,0.9967638
9ff1e0f0,0.0007525485
39fd995a,0.5650412
544d0681,0.9873461
cb0319fc,0.96044046
d86deb2b,0.8906369
cdee905a,0.9828561
2539742b,0.00018952323
2ea3c9f1,0.8959763
9cadda28,0.02288974
8376a077,0.9871913
04e11240,0.01444304
c7d6f6f8,0.99657357
bba1a0f1,0.0061338725
7f66bb44,4.42616e-07
9d8f326c,0.9900177
