id,is_iceberg
d4bb8bac,1
28612c22,0
d5c8ab27,0
b8cf5edb,0
3f6778c5,0
0ecf7d79,0
4acfe35a,1
a5b4d551,0
cacbe718,1
de1244d8,1
04f859f9,1
cedc73e3,0
6f17e58c,0
d45f1475,1
c35ccd42,0
1799793b,1
bdf823e2,0
be0aa969,0
65951e77,1
e8b76fb7,1
ac6ca227,1
a8104355,1
e76a4a04,0
502a8388,1
c0c841d0,0
ee49f0fb,1
dc6fa59d,1
3cef79cb,1
84673729,1
c5227b8a,0
574a1da7,1
207b59dd,1
309b5423,0
7cf1ff70,1
a8c38f58,0
f659df68,1
076a815e,1
6a9478ad,1
f8661e3b,1
ea9da7da,0
ec4952c3,1
1c607692,0
4cf47a74,0
e0cd0236,1
06b6ac23,1
11d06927,1
996ea0b1,1
e0ccd7bb,0
b2bc5d27,0
71a0d13b,1
95ed1e8c,0
bffad1b6,1
ce151e35,1
020f5eaa,1
ed3f900a,0
58835983,1
a783bdb3,1
76bf0e79,1
aada72d9,0
a1ca4187,1
5a3d8224,0
328e68bd,0
32f5ee95,1
ce73809a,1
9a3c8482,0
b37083ff,0
f01671c0,1
64e98469,0
ebd806e6,1
0df5c436,0
0bd98db1,0
9f5d3bfb,0
7a6149bc,1
2b92dadd,1
b7555b43,0
90230ea7,0
7dfdee78,1
5bbdfc71,1
ac16f7f2,1
862b4f57,1
4283f28a,0
850a381c,0
f78fd217,1
9e37732e,0
e8f6b3f0,0
d5a615f8,0
ee9b291e,1
affcd7bf,1
3b43490b,0
73efa120,0
9b47d1bf,0
d3c1e961,1
63aae86a,0
95429378,1
de13af0f,0
328b74f4,1
d89d6fbc,0
7346c439,1
0719d5e2,0
68a20f15,1
fee78b0c,0
c3fca286,0
a873532e,1
93afeece,0
92a21542,0
d65f8eb3,1
2e5462d9,0
2757a316,1
7ce75dda,1
02e48c95,1
70a639ef,1
76412298,1
f8dd4fcc,0
e337d0b8,0
11a04625,0
3c866636,1
04bfcaec,1
42a86b3a,0
84fe7f94,0
04e6f331,0
92c90853,1
660a98a7,0
89670962,1
9d586019,0
5f49ea3b,0
968e1414,1
389d7eaf,1
65ca9e76,1
a09cae27,0
00c5b3e0,0
7f9df2b0,1
a2303efc,1
cb62e5cb,1
9ff1e0f0,0
39fd995a,1
544d0681,1
cb0319fc,1
d86deb2b,1
cdee905a,1
2539742b,0
2ea3c9f1,0
9cadda28,0
8376a077,1
04e11240,0
c7d6f6f8,1
bba1a0f1,0
7f66bb44,0
9d8f326c,1
