id,is_iceberg
d4bb8bac,1.000000
28612c22,0.000000
d5c8ab27,0.000000
b8cf5edb,0.000000
3f6778c5,0.000000
0ecf7d79,0.000000
4acfe35a,1.000000
a5b4d551,0.000000
cacbe718,1.000000
de1244d8,1.000000
04f859f9,1.000000
cedc73e3,0.000000
6f17e58c,0.000000
d45f1475,1.000000
c35ccd42,0.000000
1799793b,1.000000
bdf823e2,1.000000
be0aa969,0.000000
65951e77,1.000000
e8b76fb7,1.000000
ac6ca227,1.000000
a8104355,1.000000
e76a4a04,0.000000
502a8388,1.000000
c0c841d0,0.000000
ee49f0fb,1.000000
dc6fa59d,1.000000
3cef79cb,1.000000
84673729,1.000000
c5227b8a,0.000000
574a1da7,1.000000
207b59dd,1.000000
309b5423,0.000000
7cf1ff70,1.000000
a8c38f58,0.000000
f659df68,1.000000
076a815e,1.000000
6a9478ad,1.000000
f8661e3b,1.000000
ea9da7da,0.000000
ec4952c3,1.000000
1c607692,0.000000
4cf47a74,1.000000
e0cd0236,1.000000
06b6ac23,1.000000
11d06927,1.000000
996ea0b1,1.000000
e0ccd7bb,0.000000
b2bc5d27,1.000000
71a0d13b,1.000000
95ed1e8c,0.000000
bffad1b6,1.000000
ce151e35,1.000000
020f5eaa,1.000000
ed3f900a,0.000000
58835983,1.000000
a783bdb3,1.000000
76bf0e79,1.000000
aada72d9,0.000000
a1ca4187,1.000000
5a3d8224,0.000000
328e68bd,0.000000
32f5ee95,1.000000
ce73809a,1.000000
9a3c8482,0.000000
b37083ff,0.000000
f01671c0,1.000000
64e98469,0.000000
ebd806e6,1.000000
0df5c436,0.000000
0bd98db1,0.000000
9f5d3bfb,0.000000
7a6149bc,1.000000
2b92dadd,1.000000
b7555b43,0.000000
90230ea7,0.000000
7dfdee78,1.000000
5bbdfc71,1.000000
ac16f7f2,1.000000
862b4f57,1.000000
4283f28a,0.000000
850a381c,0.000000
f78fd217,1.000000
9e37732e,0.000000
e8f6b3f0,1.000000
d5a615f8,0.000000
ee9b291e,1.000000
affcd7bf,1.000000
3b43490b,0.000000
73efa120,0.000000
9b47d1bf,0.000000
d3c1e961,1.000000
63aae86a,0.000000
95429378,1.000000
de13af0f,0.000000
328b74f4,1.000000
d89d6fbc,0.000000
7346c439,1.000000
0719d5e2,0.000000
68a20f15,1.000000
fee78b0c,0.000000
c3fca286,0.000000
a873532e,1.000000
93afeece,1.000000
92a21542,0.000000
d65f8eb3,1.000000
2e5462d9,0.000000
2757a316,1.000000
7ce75dda,1.000000
02e48c95,1.000000
70a639ef,1.000000
76412298,1.000000
f8dd4fcc,0.000000
e337d0b8,0.000000
11a04625,0.000000
3c866636,1.000000
04bfcaec,1.000000
42a86b3a,0.000000
84fe7f94,0.000000
04e6f331,1.000000
92c90853,1.000000
660a98a7,0.000000
89670962,1.000000
9d586019,1.000000
5f49ea3b,0.000000
968e1414,1.000000
389d7eaf,1.000000
65ca9e76,1.000000
a09cae27,0.000000
00c5b3e0,0.000000
7f9df2b0,1.000000
a2303efc,1.000000
cb62e5cb,1.000000
9ff1e0f0,0.000000
39fd995a,1.000000
544d0681,1.000000
cb0319fc,1.000000
d86deb2b,1.000000
cdee905a,1.000000
2539742b,0.000000
2ea3c9f1,1.000000
9cadda28,0.000000
8376a077,1.000000
04e11240,0.000000
c7d6f6f8,1.000000
bba1a0f1,0.000000
7f66bb44,0.000000
9d8f326c,1.000000
