id,is_iceberg
d4bb8bac,0.943822
28612c22,0.000000
d5c8ab27,0.007022
b8cf5edb,0.271148
3f6778c5,0.382773
0ecf7d79,0.005413
4acfe35a,0.792466
a5b4d551,0.000000
cacbe718,0.999567
de1244d8,0.994466
04f859f9,0.943716
cedc73e3,0.199766
6f17e58c,0.123180
d45f1475,0.910147
c35ccd42,0.000000
1799793b,0.997439
bdf823e2,0.539738
be0aa969,0.000000
65951e77,0.992406
e8b76fb7,0.611117
ac6ca227,0.887895
a8104355,0.999478
e76a4a04,0.020348
502a8388,0.997444
c0c841d0,0.000000
ee49f0fb,0.951382
dc6fa59d,0.992753
3cef79cb,0.983164
84673729,0.863554
c5227b8a,0.000000
574a1da7,0.999672
207b59dd,0.564893
309b5423,0.000000
7cf1ff70,0.962015
a8c38f58,0.009516
f659df68,0.741563
076a815e,0.999974
6a9478ad,0.805527
f8661e3b,0.996728
ea9da7da,0.000000
ec4952c3,0.862367
1c607692,0.472327
4cf47a74,0.511620
e0cd0236,0.557817
06b6ac23,0.963435
11d06927,0.642733
996ea0b1,0.999963
e0ccd7bb,0.000000
b2bc5d27,0.598141
71a0d13b,0.999976
95ed1e8c,0.000000
bffad1b6,0.660785
ce151e35,0.887384
020f5eaa,0.677908
ed3f900a,0.053668
58835983,0.997945
a783bdb3,0.512768
76bf0e79,0.790844
aada72d9,0.000000
a1ca4187,0.953793
5a3d8224,0.000001
328e68bd,0.083954
32f5ee95,0.438157
ce73809a,0.999976
9a3c8482,0.000000
b37083ff,0.020995
f01671c0,0.999881
64e98469,0.000000
ebd806e6,0.990037
0df5c436,0.005488
0bd98db1,0.000000
9f5d3bfb,0.000000
7a6149bc,0.997090
2b92dadd,0.674896
b7555b43,0.000004
90230ea7,0.216418
7dfdee78,0.790948
5bbdfc71,0.999919
ac16f7f2,0.732026
862b4f57,0.968562
4283f28a,0.236886
850a381c,0.111764
f78fd217,0.850900
9e37732e,0.000000
e8f6b3f0,0.511002
d5a615f8,0.000003
ee9b291e,0.797806
affcd7bf,0.731587
3b43490b,0.394577
73efa120,0.000000
9b47d1bf,0.001228
d3c1e961,0.999821
63aae86a,0.004348
95429378,0.977625
de13af0f,0.128375
328b74f4,0.960958
d89d6fbc,0.338089
7346c439,0.999865
0719d5e2,0.402601
68a20f15,0.999878
fee78b0c,0.000019
c3fca286,0.000001
a873532e,0.998689
93afeece,0.570190
92a21542,0.000000
d65f8eb3,0.999275
2e5462d9,0.000000
2757a316,0.850481
7ce75dda,0.999776
02e48c95,0.999902
70a639ef,0.823917
76412298,0.935857
f8dd4fcc,0.000000
e337d0b8,0.430701
11a04625,0.015527
3c866636,0.999529
04bfcaec,0.999664
42a86b3a,0.015000
84fe7f94,0.064880
04e6f331,0.595518
92c90853,0.852776
660a98a7,0.058201
89670962,0.931568
9d586019,0.508579
5f49ea3b,0.004366
968e1414,0.998043
389d7eaf,0.921002
65ca9e76,0.917216
a09cae27,0.067295
00c5b3e0,0.235727
7f9df2b0,0.999231
a2303efc,0.995722
cb62e5cb,0.999850
9ff1e0f0,0.000001
39fd995a,0.723190
544d0681,0.999881
cb0319fc,0.992996
d86deb2b,0.887739
cdee905a,0.999917
2539742b,0.009284
2ea3c9f1,0.610557
9cadda28,0.052674
8376a077,0.998512
04e11240,0.000025
c7d6f6f8,0.999984
bba1a0f1,0.011213
7f66bb44,0.000000
9d8f326c,0.999504
