id,is_iceberg
d4bb8bac,0.967398
28612c22,0.000059
d5c8ab27,0.001301
b8cf5edb,0.271148
3f6778c5,0.382773
0ecf7d79,0.002744
4acfe35a,0.792466
a5b4d551,0.000062
cacbe718,0.996852
de1244d8,0.978785
04f859f9,0.945373
cedc73e3,0.199766
6f17e58c,0.099014
d45f1475,0.928510
c35ccd42,0.000001
1799793b,0.977136
bdf823e2,0.539738
be0aa969,0.000001
65951e77,0.967766
e8b76fb7,0.611117
ac6ca227,0.907791
a8104355,0.999062
e76a4a04,0.006548
502a8388,0.988164
c0c841d0,0.000319
ee49f0fb,0.976134
dc6fa59d,0.982707
3cef79cb,0.989429
84673729,0.878302
c5227b8a,0.001157
574a1da7,0.995993
207b59dd,0.564893
309b5423,0.000000
7cf1ff70,0.975456
a8c38f58,0.004936
f659df68,0.741563
076a815e,0.999728
6a9478ad,0.805527
f8661e3b,0.986478
ea9da7da,0.000098
ec4952c3,0.908732
1c607692,0.472327
4cf47a74,0.511620
e0cd0236,0.557817
06b6ac23,0.968364
11d06927,0.642733
996ea0b1,0.999928
e0ccd7bb,0.000064
b2bc5d27,0.598141
71a0d13b,0.999672
95ed1e8c,0.000001
bffad1b6,0.660785
ce151e35,0.915982
020f5eaa,0.677908
ed3f900a,0.030413
58835983,0.999433
a783bdb3,0.512768
76bf0e79,0.790844
aada72d9,0.000179
a1ca4187,0.979877
5a3d8224,0.000291
328e68bd,0.055677
32f5ee95,0.438157
ce73809a,0.999619
9a3c8482,0.000068
b37083ff,0.004497
f01671c0,0.998996
64e98469,0.000001
ebd806e6,0.968217
0df5c436,0.006278
0bd98db1,0.000021
9f5d3bfb,0.000015
7a6149bc,0.996676
2b92dadd,0.674896
b7555b43,0.002142
90230ea7,0.216418
7dfdee78,0.790948
5bbdfc71,0.999813
ac16f7f2,0.732026
862b4f57,0.988501
4283f28a,0.236886
850a381c,0.076453
f78fd217,0.878673
9e37732e,0.000000
e8f6b3f0,0.511002
d5a615f8,0.001004
ee9b291e,0.797806
affcd7bf,0.731587
3b43490b,0.394577
73efa120,0.000026
9b47d1bf,0.001057
d3c1e961,0.994952
63aae86a,0.008951
95429378,0.968093
de13af0f,0.072549
328b74f4,0.968919
d89d6fbc,0.338089
7346c439,0.996288
0719d5e2,0.402601
68a20f15,0.999350
fee78b0c,0.001827
c3fca286,0.000228
a873532e,0.997667
93afeece,0.570190
92a21542,0.000170
d65f8eb3,0.992542
2e5462d9,0.000000
2757a316,0.882742
7ce75dda,0.995881
02e48c95,0.999416
70a639ef,0.823917
76412298,0.949732
f8dd4fcc,0.000000
e337d0b8,0.430701
11a04625,0.007779
3c866636,0.995901
04bfcaec,0.997933
42a86b3a,0.016924
84fe7f94,0.055290
04e6f331,0.595518
92c90853,0.874362
660a98a7,0.035741
89670962,0.968808
9d586019,0.508579
5f49ea3b,0.001131
968e1414,0.992657
389d7eaf,0.936401
65ca9e76,0.948163
a09cae27,0.035103
00c5b3e0,0.235727
7f9df2b0,0.990304
a2303efc,0.979813
cb62e5cb,0.998016
9ff1e0f0,0.000067
39fd995a,0.723190
544d0681,0.999762
cb0319fc,0.991957
d86deb2b,0.915243
cdee905a,0.998997
2539742b,0.000021
2ea3c9f1,0.610557
9cadda28,0.001067
8376a077,0.984526
04e11240,0.007292
c7d6f6f8,0.999984
bba1a0f1,0.009063
7f66bb44,0.000001
9d8f326c,0.995356
