id,is_iceberg
d4bb8bac,0.99326503
28612c22,1.5701617e-07
d5c8ab27,3.655881e-05
b8cf5edb,0.076234266
3f6778c5,0.06090617
0ecf7d79,6.362046e-05
4acfe35a,0.88085234
a5b4d551,4.8912455e-07
cacbe718,0.99705255
de1244d8,0.96374536
04f859f9,0.97176546
cedc73e3,0.012089485
6f17e58c,0.0119469445
d45f1475,0.9395741
c35ccd42,2.0065839e-08
1799793b,0.9885938
bdf823e2,0.39049774
be0aa969,1.3636966e-06
65951e77,0.9826539
e8b76fb7,0.7894166
ac6ca227,0.940304
a8104355,0.98444426
e76a4a04,0.00020762894
502a8388,0.99188155
c0c841d0,1.1699478e-06
ee49f0fb,0.9803617
dc6fa59d,0.99521846
3cef79cb,0.9813906
84673729,0.80322385
c5227b8a,5.2853396e-05
574a1da7,0.9988034
207b59dd,0.48470673
309b5423,2.2815277e-07
7cf1ff70,0.9826163
a8c38f58,7.0336595e-05
f659df68,0.45158345
076a815e,0.99932766
6a9478ad,0.938706
f8661e3b,0.99418527
ea9da7da,1.982828e-05
ec4952c3,0.8444918
1c607692,0.037355896
4cf47a74,0.17048575
e0cd0236,0.7127131
06b6ac23,0.8930186
11d06927,0.85037994
996ea0b1,0.9996381
e0ccd7bb,3.780586e-09
b2bc5d27,0.72042906
71a0d13b,0.9996749
95ed1e8c,1.3479124e-08
bffad1b6,0.5772601
ce151e35,0.9250764
020f5eaa,0.33560526
ed3f900a,0.0015681105
58835983,0.9992803
a783bdb3,0.70630074
76bf0e79,0.8553842
aada72d9,3.37928e-05
a1ca4187,0.9924926
5a3d8224,7.353949e-06
328e68bd,0.0030339328
32f5ee95,0.14954469
ce73809a,0.99961
9a3c8482,8.216263e-06
b37083ff,0.0011841175
f01671c0,0.9985494
64e98469,7.584215e-07
ebd806e6,0.9408771
0df5c436,2.044255e-05
0bd98db1,0.00033785895
9f5d3bfb,2.518744e-07
7a6149bc,0.99411994
2b92dadd,0.7989537
b7555b43,1.9420866e-05
90230ea7,0.004145537
7dfdee78,0.9376166
5bbdfc71,0.99824786
ac16f7f2,0.26926047
862b4f57,0.9466931
4283f28a,0.060243726
850a381c,0.019357925
f78fd217,0.9427977
9e37732e,2.533046e-06
e8f6b3f0,0.78636724
d5a615f8,0.00020117807
ee9b291e,0.8509001
affcd7bf,0.59340376
3b43490b,0.29718703
73efa120,1.3597146e-05
9b47d1bf,4.7337508e-06
d3c1e961,0.9980951
63aae86a,2.8256647e-05
95429378,0.9842412
de13af0f,0.09838907
328b74f4,0.9821369
d89d6fbc,0.40179807
7346c439,0.9993765
0719d5e2,0.019653907
68a20f15,0.9976661
fee78b0c,0.00058098865
c3fca286,1.3692072e-05
a873532e,0.9948388
93afeece,0.8026153
92a21542,2.5776613e-05
d65f8eb3,0.9961403
2e5462d9,5.9749304e-08
2757a316,0.9115259
7ce75dda,0.99703
02e48c95,0.9987213
70a639ef,0.8560189
76412298,0.9784288
f8dd4fcc,5.290828e-09
e337d0b8,0.3291344
11a04625,0.00033716118
3c866636,0.9942899
04bfcaec,0.9961079
42a86b3a,0.011222846
84fe7f94,0.09123046
04e6f331,0.6330288
92c90853,0.83991206
660a98a7,0.001050522
89670962,0.94469434
9d586019,0.36010125
5f49ea3b,0.00022493949
968e1414,0.9886968
389d7eaf,0.9535673
65ca9e76,0.72234744
a09cae27,0.0006651417
00c5b3e0,0.010705468
7f9df2b0,0.99518377
a2303efc,0.9745768
cb62e5cb,0.99897075
9ff1e0f0,1.3133507e-05
39fd995a,0.9004433
544d0681,0.999164
cb0319fc,0.9959915
d86deb2b,0.96137893
cdee905a,0.99905854
2539742b,0.014639471
2ea3c9f1,0.32586583
9cadda28,0.02178993
8376a077,0.98882526
04e11240,3.073061e-05
c7d6f6f8,0.999757
bba1a0f1,0.00622024
7f66bb44,5.6403806e-08
9d8f326c,0.9977701
