id,is_iceberg
d4bb8bac,0.9897441
28612c22,3.7911588e-05
d5c8ab27,0.012301642
b8cf5edb,0.61831254
3f6778c5,0.269651
0ecf7d79,0.044578027
4acfe35a,0.7165011
a5b4d551,1.8499066e-05
cacbe718,0.9816079
de1244d8,0.9284247
04f859f9,0.91631335
cedc73e3,0.040967174
6f17e58c,0.19167097
d45f1475,0.8034602
c35ccd42,2.8958204e-06
1799793b,0.9272602
bdf823e2,0.2122318
be0aa969,0.00015147666
65951e77,0.94156057
e8b76fb7,0.500535
ac6ca227,0.7898333
a8104355,0.9784596
e76a4a04,0.32306954
502a8388,0.9832023
c0c841d0,0.0028258883
ee49f0fb,0.96666557
dc6fa59d,0.9875278
3cef79cb,0.9616387
84673729,0.8467627
c5227b8a,0.0019726944
574a1da7,0.99177635
207b59dd,0.9080054
309b5423,9.485292e-06
7cf1ff70,0.9860523
a8c38f58,0.09442407
f659df68,0.7741142
076a815e,0.9985359
6a9478ad,0.68188334
f8661e3b,0.9837338
ea9da7da,0.0030634445
ec4952c3,0.8921906
1c607692,0.16225883
4cf47a74,0.14409946
e0cd0236,0.3302921
06b6ac23,0.8743687
11d06927,0.5013916
996ea0b1,0.9995432
e0ccd7bb,1.2537411e-06
b2bc5d27,0.4745391
71a0d13b,0.9993899
95ed1e8c,7.4268706e-07
bffad1b6,0.59707826
ce151e35,0.68466055
020f5eaa,0.29416862
ed3f900a,0.0029570803
58835983,0.9989008
a783bdb3,0.89066756
76bf0e79,0.70474905
aada72d9,0.002388577
a1ca4187,0.99921036
5a3d8224,7.350655e-05
328e68bd,0.01905724
32f5ee95,0.9344512
ce73809a,0.9993338
9a3c8482,0.00088881224
b37083ff,0.00077303825
f01671c0,0.9981001
64e98469,0.00077525916
ebd806e6,0.9429688
0df5c436,0.00416539
0bd98db1,0.0050626323
9f5d3bfb,8.265803e-08
7a6149bc,0.9817646
2b92dadd,0.76977265
b7555b43,0.00010332899
90230ea7,0.07843607
7dfdee78,0.72412884
5bbdfc71,0.9981223
ac16f7f2,0.33896527
862b4f57,0.8280857
4283f28a,0.13788648
850a381c,0.039712522
f78fd217,0.8588209
9e37732e,0.0023509257
e8f6b3f0,0.42241722
d5a615f8,7.851834e-05
ee9b291e,0.9176493
affcd7bf,0.31473944
3b43490b,0.27165052
73efa120,3.9335082e-05
9b47d1bf,0.0089286
d3c1e961,0.9924521
63aae86a,0.0027621433
95429378,0.94540405
de13af0f,0.18419936
328b74f4,0.8767468
d89d6fbc,0.17214745
7346c439,0.9975714
0719d5e2,0.4648655
68a20f15,0.9972481
fee78b0c,7.762185e-05
c3fca286,0.00017910171
a873532e,0.9983072
93afeece,0.48758572
92a21542,0.00059149635
d65f8eb3,0.9846823
2e5462d9,8.0008e-06
2757a316,0.735923
7ce75dda,0.9978108
02e48c95,0.99623054
70a639ef,0.6247625
76412298,0.8999701
f8dd4fcc,1.4288038e-06
e337d0b8,0.13454984
11a04625,2.2835486e-05
3c866636,0.9862087
04bfcaec,0.99112505
42a86b3a,0.0026499624
84fe7f94,0.039161764
04e6f331,0.3745283
92c90853,0.8096158
660a98a7,0.00966691
89670962,0.90339357
9d586019,0.35711277
5f49ea3b,0.010453019
968e1414,0.985357
389d7eaf,0.7659264
65ca9e76,0.91061467
a09cae27,0.0026781198
00c5b3e0,0.033542663
7f9df2b0,0.9850116
a2303efc,0.95060176
cb62e5cb,0.9965113
9ff1e0f0,0.0010266633
39fd995a,0.61079496
544d0681,0.99803287
cb0319fc,0.99566865
d86deb2b,0.9551371
cdee905a,0.99858236
2539742b,0.0011963949
2ea3c9f1,0.5264762
9cadda28,0.015898228
8376a077,0.9741053
04e11240,0.0018478939
c7d6f6f8,0.9997272
bba1a0f1,0.009517998
7f66bb44,8.364147e-05
9d8f326c,0.9910625
