id,is_iceberg
d4bb8bac,0.96730465
28612c22,0.0004233969
d5c8ab27,0.055348657
b8cf5edb,0.6062232
3f6778c5,0.7120756
0ecf7d79,0.0016918756
4acfe35a,0.9103465
a5b4d551,0.002317522
cacbe718,0.95634305
de1244d8,0.93873715
04f859f9,0.79891324
cedc73e3,0.3961893
6f17e58c,0.12456972
d45f1475,0.83743805
c35ccd42,0.0006994412
1799793b,0.94328624
bdf823e2,0.5747611
be0aa969,0.005384846
65951e77,0.89691955
e8b76fb7,0.26580825
ac6ca227,0.7909755
a8104355,0.9036014
e76a4a04,0.00061142276
502a8388,0.9403115
c0c841d0,0.011906246
ee49f0fb,0.5557661
dc6fa59d,0.97615224
3cef79cb,0.78565484
84673729,0.76585406
c5227b8a,0.0019800675
574a1da7,0.9643171
207b59dd,0.90112543
309b5423,0.00018934911
7cf1ff70,0.97493434
a8c38f58,0.6586929
f659df68,0.0726092
076a815e,0.9902171
6a9478ad,0.62066835
f8661e3b,0.9483899
ea9da7da,0.004990647
ec4952c3,0.78843516
1c607692,0.1644954
4cf47a74,0.41441366
e0cd0236,0.35004446
06b6ac23,0.87313676
11d06927,0.49750918
996ea0b1,0.99403113
e0ccd7bb,0.00022808461
b2bc5d27,0.4802795
71a0d13b,0.9950368
95ed1e8c,7.4530355e-05
bffad1b6,0.7599152
ce151e35,0.8406704
020f5eaa,0.7484091
ed3f900a,0.12106603
58835983,0.98257107
a783bdb3,0.31747878
76bf0e79,0.7512323
aada72d9,0.013583473
a1ca4187,0.9828212
5a3d8224,0.019284181
328e68bd,0.3680388
32f5ee95,0.9162414
ce73809a,0.9959863
9a3c8482,0.0014958112
b37083ff,0.080004506
f01671c0,0.9760879
64e98469,3.127612e-06
ebd806e6,0.9204039
0df5c436,0.006351651
0bd98db1,0.0026380448
9f5d3bfb,0.0013922653
7a6149bc,0.91257447
2b92dadd,0.713548
b7555b43,0.030492391
90230ea7,0.051881727
7dfdee78,0.7796785
5bbdfc71,0.98757565
ac16f7f2,0.73371154
862b4f57,0.8722939
4283f28a,0.028972233
850a381c,0.05961416
f78fd217,0.7298228
9e37732e,0.00044362253
e8f6b3f0,0.24828792
d5a615f8,0.008014029
ee9b291e,0.90959835
affcd7bf,0.5872334
3b43490b,0.48646516
73efa120,0.0017251275
9b47d1bf,0.00010841501
d3c1e961,0.9844158
63aae86a,0.0063595134
95429378,0.8841481
de13af0f,0.5265367
328b74f4,0.87867683
d89d6fbc,0.25058714
7346c439,0.9909478
0719d5e2,0.62511796
68a20f15,0.97771263
fee78b0c,0.024766814
c3fca286,0.00059350725
a873532e,0.9754192
93afeece,0.4878735
92a21542,0.0002690153
d65f8eb3,0.9363108
2e5462d9,0.00027790456
2757a316,0.6964863
7ce75dda,0.98571223
02e48c95,0.9855716
70a639ef,0.7704924
76412298,0.8906219
f8dd4fcc,1.2515549e-06
e337d0b8,0.18687388
11a04625,0.01937184
3c866636,0.9756541
04bfcaec,0.97446626
42a86b3a,0.036876276
84fe7f94,0.006673633
04e6f331,0.5998275
92c90853,0.617344
660a98a7,0.011251317
89670962,0.8142587
9d586019,0.5006984
5f49ea3b,0.03753341
968e1414,0.9800418
389d7eaf,0.9211266
65ca9e76,0.9003205
a09cae27,0.030733353
00c5b3e0,0.43797204
7f9df2b0,0.9380668
a2303efc,0.9328748
cb62e5cb,0.9620076
9ff1e0f0,0.0038539243
39fd995a,0.7970186
544d0681,0.98584056
cb0319fc,0.9923665
d86deb2b,0.5835517
cdee905a,0.9930224
2539742b,0.003251754
2ea3c9f1,0.62622815
9cadda28,0.001435001
8376a077,0.9509224
04e11240,0.052409742
c7d6f6f8,0.991437
bba1a0f1,0.00025018796
7f66bb44,0.00011523198
9d8f326c,0.9857287
