id,is_iceberg
d4bb8bac,0.9772789
28612c22,0.0003202989
d5c8ab27,0.0065440373
b8cf5edb,0.4625827
3f6778c5,0.64350265
0ecf7d79,0.0019773536
4acfe35a,0.90085185
a5b4d551,0.00087815034
cacbe718,0.99066204
de1244d8,0.9696255
04f859f9,0.950256
cedc73e3,0.25861457
6f17e58c,0.101519614
d45f1475,0.96353024
c35ccd42,1.7108097e-05
1799793b,0.9884347
bdf823e2,0.8885299
be0aa969,9.2218645e-05
65951e77,0.9685023
e8b76fb7,0.64313364
ac6ca227,0.93602854
a8104355,0.9944781
e76a4a04,0.0010498166
502a8388,0.9866139
c0c841d0,0.0016415679
ee49f0fb,0.9049055
dc6fa59d,0.9941256
3cef79cb,0.9890955
84673729,0.770776
c5227b8a,0.0014067902
574a1da7,0.9901513
207b59dd,0.70925367
309b5423,8.23176e-05
7cf1ff70,0.9423147
a8c38f58,0.09177147
f659df68,0.26133692
076a815e,0.9938298
6a9478ad,0.9028577
f8661e3b,0.9818273
ea9da7da,0.0006322309
ec4952c3,0.74390566
1c607692,0.33690095
4cf47a74,0.4862987
e0cd0236,0.37144795
06b6ac23,0.97914207
11d06927,0.69118
996ea0b1,0.9987576
e0ccd7bb,2.438409e-05
b2bc5d27,0.49593413
71a0d13b,0.99804366
95ed1e8c,8.940677e-06
bffad1b6,0.8680357
ce151e35,0.918384
020f5eaa,0.39449948
ed3f900a,0.031413462
58835983,0.99879223
a783bdb3,0.5630383
76bf0e79,0.9158446
aada72d9,0.0008474526
a1ca4187,0.99735487
5a3d8224,0.00034508112
328e68bd,0.21502702
32f5ee95,0.6638143
ce73809a,0.99956375
9a3c8482,0.0022286559
b37083ff,0.00586528
f01671c0,0.99409145
64e98469,6.714915e-05
ebd806e6,0.97030187
0df5c436,0.00087371387
0bd98db1,0.00044317072
9f5d3bfb,3.647252e-05
7a6149bc,0.9942707
2b92dadd,0.33305648
b7555b43,0.01167616
90230ea7,0.21015842
7dfdee78,0.8964697
5bbdfc71,0.99730396
ac16f7f2,0.89753133
862b4f57,0.9867393
4283f28a,0.08541996
850a381c,0.119347595
f78fd217,0.8931815
9e37732e,6.349851e-05
e8f6b3f0,0.5178408
d5a615f8,0.00016236644
ee9b291e,0.8853227
affcd7bf,0.9214503
3b43490b,0.8665962
73efa120,7.066164e-05
9b47d1bf,0.00021295027
d3c1e961,0.9977012
63aae86a,0.05210335
95429378,0.97845876
de13af0f,0.6501307
328b74f4,0.97766155
d89d6fbc,0.36420354
7346c439,0.9973828
0719d5e2,0.401675
68a20f15,0.9968449
fee78b0c,0.0032846401
c3fca286,0.0011588892
a873532e,0.95895267
93afeece,0.6190258
92a21542,0.003192272
d65f8eb3,0.9850407
2e5462d9,2.3818837e-05
2757a316,0.94891
7ce75dda,0.98877233
02e48c95,0.9991085
70a639ef,0.9063012
76412298,0.975541
f8dd4fcc,3.4791e-05
e337d0b8,0.52070487
11a04625,0.0056267586
3c866636,0.99089855
04bfcaec,0.99557555
42a86b3a,0.12289572
84fe7f94,0.0045863106
04e6f331,0.7168792
92c90853,0.8823466
660a98a7,0.046996944
89670962,0.97167915
9d586019,0.62147087
5f49ea3b,0.0018770358
968e1414,0.9856117
389d7eaf,0.95347834
65ca9e76,0.8603399
a09cae27,0.006231891
00c5b3e0,0.6658672
7f9df2b0,0.989292
a2303efc,0.99252605
cb62e5cb,0.9920284
9ff1e0f0,0.0016596974
39fd995a,0.8087476
544d0681,0.9940521
cb0319fc,0.9939137
d86deb2b,0.95199114
cdee905a,0.997051
2539742b,0.00022381227
2ea3c9f1,0.8305347
9cadda28,0.0022314684
8376a077,0.99147207
04e11240,0.045876514
c7d6f6f8,0.9991448
bba1a0f1,0.00043022598
7f66bb44,5.153482e-05
9d8f326c,0.9931444
