id,is_iceberg
d4bb8bac,0.98951554
28612c22,0.00023652588
d5c8ab27,0.0036320195
b8cf5edb,0.52154326
3f6778c5,0.38790935
0ecf7d79,0.0057089413
4acfe35a,0.97239935
a5b4d551,0.0003163075
cacbe718,0.99629885
de1244d8,0.976132
04f859f9,0.9786889
cedc73e3,0.11523776
6f17e58c,0.05644556
d45f1475,0.98136663
c35ccd42,2.4238523e-06
1799793b,0.99684167
bdf823e2,0.9489161
be0aa969,8.379364e-05
65951e77,0.9882428
e8b76fb7,0.35018092
ac6ca227,0.9648889
a8104355,0.9950217
e76a4a04,0.01417102
502a8388,0.9969246
c0c841d0,0.0004259745
ee49f0fb,0.900072
dc6fa59d,0.99684346
3cef79cb,0.983715
84673729,0.9237678
c5227b8a,0.00071281445
574a1da7,0.9943733
207b59dd,0.988468
309b5423,8.886663e-06
7cf1ff70,0.9955396
a8c38f58,0.010762989
f659df68,0.4177413
076a815e,0.9982931
6a9478ad,0.90732825
f8661e3b,0.98933405
ea9da7da,0.000246641
ec4952c3,0.900418
1c607692,0.35688806
4cf47a74,0.45851544
e0cd0236,0.2817353
06b6ac23,0.96871555
11d06927,0.80394953
996ea0b1,0.9994542
e0ccd7bb,4.487711e-06
b2bc5d27,0.7731493
71a0d13b,0.9996792
95ed1e8c,3.428188e-07
bffad1b6,0.8766315
ce151e35,0.9805504
020f5eaa,0.8148781
ed3f900a,0.055788457
58835983,0.9996681
a783bdb3,0.7496884
76bf0e79,0.7404865
aada72d9,0.00025901152
a1ca4187,0.9991973
5a3d8224,8.10275e-05
328e68bd,0.29193255
32f5ee95,0.9497373
ce73809a,0.9998319
9a3c8482,0.000623989
b37083ff,0.010403974
f01671c0,0.9980679
64e98469,8.340135e-05
ebd806e6,0.98747176
0df5c436,0.007541693
0bd98db1,4.4718927e-05
9f5d3bfb,3.9729383e-07
7a6149bc,0.9929342
2b92dadd,0.8540157
b7555b43,0.00042350954
90230ea7,0.12512505
7dfdee78,0.9029883
5bbdfc71,0.9991078
ac16f7f2,0.9230611
862b4f57,0.985135
4283f28a,0.35420647
850a381c,0.02540721
f78fd217,0.83555615
9e37732e,4.9426697e-05
e8f6b3f0,0.47476718
d5a615f8,1.0963552e-05
ee9b291e,0.9804304
affcd7bf,0.7894745
3b43490b,0.71873313
73efa120,6.178242e-06
9b47d1bf,0.001147005
d3c1e961,0.99827814
63aae86a,0.0033524826
95429378,0.9901541
de13af0f,0.65905356
328b74f4,0.9844142
d89d6fbc,0.21938586
7346c439,0.9993337
0719d5e2,0.77392423
68a20f15,0.9977022
fee78b0c,8.6157765e-05
c3fca286,0.0001000332
a873532e,0.99757487
93afeece,0.26629153
92a21542,0.00033933122
d65f8eb3,0.9903352
2e5462d9,9.144889e-07
2757a316,0.9642886
7ce75dda,0.9992248
02e48c95,0.99831855
70a639ef,0.9654776
76412298,0.98008746
f8dd4fcc,1.5550659e-06
e337d0b8,0.2751205
11a04625,0.00010158226
3c866636,0.9947994
04bfcaec,0.99609584
42a86b3a,0.00030743837
84fe7f94,0.0049909833
04e6f331,0.7779298
92c90853,0.9238428
660a98a7,0.0046903226
89670962,0.97616243
9d586019,0.58342797
5f49ea3b,0.0012532031
968e1414,0.9980894
389d7eaf,0.97017515
65ca9e76,0.8803236
a09cae27,0.0043734536
00c5b3e0,0.4203003
7f9df2b0,0.99613297
a2303efc,0.99091524
cb62e5cb,0.99739575
9ff1e0f0,0.0030350087
39fd995a,0.8937575
544d0681,0.9981667
cb0319fc,0.9990232
d86deb2b,0.92258114
cdee905a,0.99913836
2539742b,0.0007153159
2ea3c9f1,0.810893
9cadda28,0.002947544
8376a077,0.99672997
04e11240,0.0025815007
c7d6f6f8,0.9998267
bba1a0f1,0.00017672508
7f66bb44,8.978503e-06
9d8f326c,0.99756026
