id,is_iceberg
d4bb8bac,0.97995156
28612c22,0.0004167173
d5c8ab27,0.00034351397
b8cf5edb,0.453796
3f6778c5,0.7169821
0ecf7d79,0.038488507
4acfe35a,0.9400512
a5b4d551,0.00018716014
cacbe718,0.9975696
de1244d8,0.98796296
04f859f9,0.9752848
cedc73e3,0.36768427
6f17e58c,0.10584362
d45f1475,0.9747192
c35ccd42,7.839358e-06
1799793b,0.99205387
bdf823e2,0.7085842
be0aa969,0.0021593536
65951e77,0.99187016
e8b76fb7,0.3318608
ac6ca227,0.93814486
a8104355,0.99263644
e76a4a04,0.0052965665
502a8388,0.99595946
c0c841d0,0.0034343025
ee49f0fb,0.8242315
dc6fa59d,0.9918943
3cef79cb,0.98967147
84673729,0.9642975
c5227b8a,0.00087690575
574a1da7,0.99847966
207b59dd,0.86250275
309b5423,0.00039854387
7cf1ff70,0.99368143
a8c38f58,0.022856833
f659df68,0.5066352
076a815e,0.99980944
6a9478ad,0.894241
f8661e3b,0.9891621
ea9da7da,0.0057451455
ec4952c3,0.8880337
1c607692,0.62600684
4cf47a74,0.7765996
e0cd0236,0.102623515
06b6ac23,0.97394353
11d06927,0.7626334
996ea0b1,0.99947673
e0ccd7bb,1.4371782e-05
b2bc5d27,0.814397
71a0d13b,0.9999198
95ed1e8c,5.7487982e-06
bffad1b6,0.9244866
ce151e35,0.9429422
020f5eaa,0.83921903
ed3f900a,0.18683937
58835983,0.9956606
a783bdb3,0.39395025
76bf0e79,0.9261181
aada72d9,0.00017094758
a1ca4187,0.99550384
5a3d8224,0.0005153566
328e68bd,0.20058912
32f5ee95,0.9342357
ce73809a,0.99961984
9a3c8482,0.0010321111
b37083ff,0.034030244
f01671c0,0.9992582
64e98469,0.0015008942
ebd806e6,0.9767318
0df5c436,0.00095921487
0bd98db1,0.00026676638
9f5d3bfb,3.0396852e-05
7a6149bc,0.9946918
2b92dadd,0.56391776
b7555b43,0.0036633168
90230ea7,0.44457123
7dfdee78,0.8937293
5bbdfc71,0.9990727
ac16f7f2,0.96523327
862b4f57,0.9776728
4283f28a,0.1619183
850a381c,0.07756241
f78fd217,0.9138682
9e37732e,0.0014722225
e8f6b3f0,0.5354215
d5a615f8,0.00018310451
ee9b291e,0.8860948
affcd7bf,0.8969257
3b43490b,0.87534046
73efa120,0.00063937024
9b47d1bf,0.0012741666
d3c1e961,0.9972109
63aae86a,0.0092943115
95429378,0.9878137
de13af0f,0.62191623
328b74f4,0.9888848
d89d6fbc,0.16894391
7346c439,0.99733967
0719d5e2,0.75529873
68a20f15,0.99364215
fee78b0c,0.0011407455
c3fca286,2.1169577e-05
a873532e,0.9983694
93afeece,0.38878086
92a21542,0.000104702216
d65f8eb3,0.99468404
2e5462d9,7.282822e-05
2757a316,0.9044333
7ce75dda,0.9983083
02e48c95,0.9990439
70a639ef,0.9306331
76412298,0.98222476
f8dd4fcc,0.0001349126
e337d0b8,0.7300747
11a04625,0.0010312924
3c866636,0.9963374
04bfcaec,0.99807835
42a86b3a,0.018828116
84fe7f94,0.02771468
04e6f331,0.76502836
92c90853,0.9331778
660a98a7,0.028330851
89670962,0.953758
9d586019,0.566777
5f49ea3b,0.027256843
968e1414,0.9955266
389d7eaf,0.9676917
65ca9e76,0.94734484
a09cae27,0.018145751
00c5b3e0,0.6875883
7f9df2b0,0.99539065
a2303efc,0.984625
cb62e5cb,0.99892324
9ff1e0f0,0.0006399988
39fd995a,0.7499292
544d0681,0.99884605
cb0319fc,0.9917488
d86deb2b,0.98024505
cdee905a,0.9996722
2539742b,0.0010648359
2ea3c9f1,0.83937305
9cadda28,0.058504395
8376a077,0.9912781
04e11240,0.037739158
c7d6f6f8,0.999843
bba1a0f1,0.001740445
7f66bb44,0.00046224124
9d8f326c,0.99548906
