id,is_iceberg
d4bb8bac,0.40371233
28612c22,1.7387277e-08
d5c8ab27,5.6025425e-07
b8cf5edb,0.03066554
3f6778c5,0.0779313
0ecf7d79,1.2080822e-05
4acfe35a,0.26970276
a5b4d551,4.7246282e-09
cacbe718,0.9959656
de1244d8,0.9818064
04f859f9,0.95781946
cedc73e3,0.024345702
6f17e58c,0.018639041
d45f1475,0.95396864
c35ccd42,1.02525675e-10
1799793b,0.96305627
bdf823e2,0.32921427
be0aa969,1.4716633e-10
65951e77,0.97021997
e8b76fb7,0.6058186
ac6ca227,0.8681526
a8104355,0.99797446
e76a4a04,0.0001382272
502a8388,0.98467964
c0c841d0,8.157235e-08
ee49f0fb,0.9572619
dc6fa59d,0.9687132
3cef79cb,0.9870657
84673729,0.90646327
c5227b8a,6.7519906e-08
574a1da7,0.99546486
207b59dd,0.099468894
309b5423,3.8183506e-12
7cf1ff70,0.8025496
a8c38f58,1.5629132e-06
f659df68,0.54691947
076a815e,0.9993544
6a9478ad,0.85341483
f8661e3b,0.98301667
ea9da7da,7.790281e-07
ec4952c3,0.69921225
1c607692,0.39680108
4cf47a74,0.14824177
e0cd0236,0.164417
06b6ac23,0.9692625
11d06927,0.718459
996ea0b1,0.9998361
e0ccd7bb,9.636462e-08
b2bc5d27,0.86852777
71a0d13b,0.99931276
95ed1e8c,2.1972965e-11
bffad1b6,0.21429196
ce151e35,0.8716044
020f5eaa,0.46101466
ed3f900a,0.01679037
58835983,0.99941444
a783bdb3,0.05256224
76bf0e79,0.87159747
aada72d9,7.2282326e-08
a1ca4187,0.94804806
5a3d8224,1.8407956e-06
328e68bd,0.008730772
32f5ee95,0.0088480245
ce73809a,0.9997092
9a3c8482,1.09560936e-07
b37083ff,2.5441643e-05
f01671c0,0.99927396
64e98469,5.520693e-12
ebd806e6,0.94855964
0df5c436,4.953746e-07
0bd98db1,1.2767584e-10
9f5d3bfb,9.3651105e-09
7a6149bc,0.9844372
2b92dadd,0.16086216
b7555b43,5.871062e-07
90230ea7,0.18837403
7dfdee78,0.8469905
5bbdfc71,0.9999031
ac16f7f2,0.21953075
862b4f57,0.97104263
4283f28a,0.015033943
850a381c,0.0011973947
f78fd217,0.9149716
9e37732e,1.5493018e-09
e8f6b3f0,0.80439276
d5a615f8,5.965683e-06
ee9b291e,0.41483432
affcd7bf,0.7925713
3b43490b,0.3106239
73efa120,1.8612983e-09
9b47d1bf,6.094448e-05
d3c1e961,0.9951199
63aae86a,4.4253207e-05
95429378,0.9641481
de13af0f,0.0064387736
328b74f4,0.9703451
d89d6fbc,0.14461087
7346c439,0.994038
0719d5e2,0.04833633
68a20f15,0.9879893
fee78b0c,2.9420478e-05
c3fca286,2.832797e-07
a873532e,0.99574995
93afeece,0.77586806
92a21542,7.395489e-07
d65f8eb3,0.9868851
2e5462d9,2.4328478e-12
2757a316,0.94368136
7ce75dda,0.9945432
02e48c95,0.99964523
70a639ef,0.86854553
76412298,0.90819347
f8dd4fcc,3.495223e-13
e337d0b8,0.55444574
11a04625,0.00021145548
3c866636,0.9892203
04bfcaec,0.9981072
42a86b3a,0.00088330376
84fe7f94,0.06717172
04e6f331,0.633294
92c90853,0.8613061
660a98a7,0.008774911
89670962,0.9715252
9d586019,0.7143006
5f49ea3b,5.2640354e-07
968e1414,0.99107516
389d7eaf,0.8540964
65ca9e76,0.90041083
a09cae27,0.003348749
00c5b3e0,0.013863674
7f9df2b0,0.9918367
a2303efc,0.97700036
cb62e5cb,0.9990127
9ff1e0f0,8.443813e-08
39fd995a,0.24589202
544d0681,0.9991033
cb0319fc,0.8711944
d86deb2b,0.9289966
cdee905a,0.997209
2539742b,7.3958284e-10
2ea3c9f1,0.27991796
9cadda28,3.1951694e-07
8376a077,0.9828212
04e11240,0.00011931835
c7d6f6f8,0.99999464
bba1a0f1,0.00077973044
7f66bb44,2.055566e-10
9d8f326c,0.9943269
