id,is_iceberg
d4bb8bac,0.9961817
28612c22,2.3368477e-06
d5c8ab27,0.00207283
b8cf5edb,0.1148899
3f6778c5,0.14750181
0ecf7d79,3.4560667e-08
4acfe35a,0.17950661
a5b4d551,1.0642484e-06
cacbe718,0.9992055
de1244d8,0.9723694
04f859f9,0.96473277
cedc73e3,0.21329433
6f17e58c,0.0655127
d45f1475,0.9682837
c35ccd42,5.6738925e-09
1799793b,0.92283773
bdf823e2,0.35349336
be0aa969,6.709252e-09
65951e77,0.95814615
e8b76fb7,0.8846825
ac6ca227,0.9401904
a8104355,0.99949384
e76a4a04,0.0010900124
502a8388,0.9956117
c0c841d0,1.94147e-07
ee49f0fb,0.9958241
dc6fa59d,0.96608
3cef79cb,0.99822015
84673729,0.93110573
c5227b8a,1.3808911e-05
574a1da7,0.998019
207b59dd,0.16369909
309b5423,1.7960933e-10
7cf1ff70,0.97222286
a8c38f58,0.00013289106
f659df68,0.8427132
076a815e,0.99992764
6a9478ad,0.9223507
f8661e3b,0.9788977
ea9da7da,1.44233e-06
ec4952c3,0.8669118
1c607692,0.48998386
4cf47a74,0.47707537
e0cd0236,0.6923132
06b6ac23,0.99024385
11d06927,0.89726543
996ea0b1,0.99997795
e0ccd7bb,1.7252225e-05
b2bc5d27,0.89756197
71a0d13b,0.9999254
95ed1e8c,1.7546492e-08
bffad1b6,0.104808174
ce151e35,0.9078973
020f5eaa,0.7648745
ed3f900a,0.02941554
58835983,0.9998895
a783bdb3,0.13247038
76bf0e79,0.9424028
aada72d9,3.5255332e-06
a1ca4187,0.97595084
5a3d8224,2.5373424e-06
328e68bd,0.024242649
32f5ee95,0.04962869
ce73809a,0.9998692
9a3c8482,1.1514777e-06
b37083ff,0.00014786723
f01671c0,0.9995777
64e98469,1.5278756e-10
ebd806e6,0.9574017
0df5c436,0.0010201853
0bd98db1,5.998568e-07
9f5d3bfb,1.5265956e-08
7a6149bc,0.99876535
2b92dadd,0.44224697
b7555b43,0.00010373108
90230ea7,0.097774506
7dfdee78,0.95150673
5bbdfc71,0.9999286
ac16f7f2,0.26838312
862b4f57,0.9927227
4283f28a,0.028584527
850a381c,0.0063166963
f78fd217,0.94188154
9e37732e,1.3993038e-09
e8f6b3f0,0.8307811
d5a615f8,2.0083904e-05
ee9b291e,0.7906312
affcd7bf,0.8678093
3b43490b,0.06920689
73efa120,1.2475857e-08
9b47d1bf,7.618446e-05
d3c1e961,0.99787605
63aae86a,0.00041351354
95429378,0.9926674
de13af0f,0.016175091
328b74f4,0.98520494
d89d6fbc,0.21508598
7346c439,0.99726653
0719d5e2,0.6258517
68a20f15,0.9936207
fee78b0c,0.00013105055
c3fca286,8.015464e-06
a873532e,0.99826366
93afeece,0.736901
92a21542,6.86187e-05
d65f8eb3,0.9953695
2e5462d9,6.3463695e-08
2757a316,0.97806495
7ce75dda,0.99326503
02e48c95,0.99994135
70a639ef,0.91257566
76412298,0.8904968
f8dd4fcc,3.7576076e-10
e337d0b8,0.49837098
11a04625,0.0007307094
3c866636,0.9961188
04bfcaec,0.9973431
42a86b3a,0.005073341
84fe7f94,0.017456293
04e6f331,0.83840746
92c90853,0.82623947
660a98a7,0.021088114
89670962,0.97838724
9d586019,0.76602995
5f49ea3b,6.013288e-07
968e1414,0.9815445
389d7eaf,0.8804519
65ca9e76,0.97180545
a09cae27,0.015084858
00c5b3e0,0.34967792
7f9df2b0,0.9942768
a2303efc,0.9842248
cb62e5cb,0.9991708
9ff1e0f0,1.999996e-05
39fd995a,0.40944582
544d0681,0.9993585
cb0319fc,0.9687846
d86deb2b,0.8903159
cdee905a,0.99828476
2539742b,4.9314362e-08
2ea3c9f1,0.64852756
9cadda28,0.00031328236
8376a077,0.99006724
04e11240,0.00059148873
c7d6f6f8,0.99998367
bba1a0f1,0.0016661151
7f66bb44,2.2064783e-10
9d8f326c,0.9972705
