id,is_iceberg
d4bb8bac,0.99641454
28612c22,8.464734e-05
d5c8ab27,0.0009885239
b8cf5edb,0.12791952
3f6778c5,0.3626808
0ecf7d79,0.00012153818
4acfe35a,0.86454827
a5b4d551,0.00048135553
cacbe718,0.99419034
de1244d8,0.9830657
04f859f9,0.91932
cedc73e3,0.0831134
6f17e58c,0.121370636
d45f1475,0.8756398
c35ccd42,5.1550074e-07
1799793b,0.9859387
bdf823e2,0.3889011
be0aa969,7.979936e-06
65951e77,0.94830316
e8b76fb7,0.46103087
ac6ca227,0.8260281
a8104355,0.9975922
e76a4a04,0.017064039
502a8388,0.988299
c0c841d0,0.00017880465
ee49f0fb,0.9758209
dc6fa59d,0.9911877
3cef79cb,0.9789297
84673729,0.9364153
c5227b8a,0.0019417724
574a1da7,0.995076
207b59dd,0.7955996
309b5423,7.2718393e-07
7cf1ff70,0.9989498
a8c38f58,0.0052913534
f659df68,0.7058064
076a815e,0.99986315
6a9478ad,0.81154484
f8661e3b,0.9623208
ea9da7da,4.370146e-06
ec4952c3,0.8489211
1c607692,0.40997058
4cf47a74,0.23434144
e0cd0236,0.37299627
06b6ac23,0.92723244
11d06927,0.5048684
996ea0b1,0.99998665
e0ccd7bb,0.00014375523
b2bc5d27,0.56176925
71a0d13b,0.9997713
95ed1e8c,5.359358e-07
bffad1b6,0.7887414
ce151e35,0.90386313
020f5eaa,0.74850714
ed3f900a,0.090763025
58835983,0.9999846
a783bdb3,0.15342186
76bf0e79,0.73697037
aada72d9,0.00011384381
a1ca4187,0.9996699
5a3d8224,0.00034145842
328e68bd,0.07803923
32f5ee95,0.15286142
ce73809a,0.9999242
9a3c8482,3.281176e-05
b37083ff,0.023442447
f01671c0,0.99758816
64e98469,1.5668919e-06
ebd806e6,0.9292827
0df5c436,0.005700024
0bd98db1,0.00014646788
9f5d3bfb,1.4968328e-05
7a6149bc,0.99461186
2b92dadd,0.72760147
b7555b43,0.0041800523
90230ea7,0.31605136
7dfdee78,0.7639886
5bbdfc71,0.99961334
ac16f7f2,0.79308885
862b4f57,0.9820893
4283f28a,0.30532253
850a381c,0.048032865
f78fd217,0.6866218
9e37732e,1.3627185e-07
e8f6b3f0,0.36600417
d5a615f8,0.0015570853
ee9b291e,0.88380027
affcd7bf,0.6727175
3b43490b,0.45194378
73efa120,2.0612884e-05
9b47d1bf,0.0088874865
d3c1e961,0.9969999
63aae86a,0.0053902348
95429378,0.9096101
de13af0f,0.1334947
328b74f4,0.96337646
d89d6fbc,0.45667937
7346c439,0.99966896
0719d5e2,0.20668188
68a20f15,0.9998248
fee78b0c,0.0038541353
c3fca286,7.685797e-05
a873532e,0.99625236
93afeece,0.42509428
92a21542,4.1747557e-05
d65f8eb3,0.99484104
2e5462d9,2.3854471e-07
2757a316,0.8729505
7ce75dda,0.9982645
02e48c95,0.9992822
70a639ef,0.6948933
76412298,0.8644478
f8dd4fcc,3.063819e-07
e337d0b8,0.4575542
11a04625,0.054663703
3c866636,0.99624133
04bfcaec,0.9972926
42a86b3a,0.06345718
84fe7f94,0.022365255
04e6f331,0.51328737
92c90853,0.92278
660a98a7,0.03254567
89670962,0.96525884
9d586019,0.4943356
5f49ea3b,0.0002300305
968e1414,0.994311
389d7eaf,0.9639419
65ca9e76,0.9262681
a09cae27,0.1211575
00c5b3e0,0.24980198
7f9df2b0,0.98934424
a2303efc,0.9874326
cb62e5cb,0.99144685
9ff1e0f0,9.9262084e-05
39fd995a,0.59462273
544d0681,0.99960846
cb0319fc,0.99964654
d86deb2b,0.64690685
cdee905a,0.99988115
2539742b,0.00013573185
2ea3c9f1,0.60108066
9cadda28,0.0012645074
8376a077,0.97641754
04e11240,0.025522664
c7d6f6f8,0.99999464
bba1a0f1,0.0019852503
7f66bb44,5.340154e-07
9d8f326c,0.9932011
