id,is_iceberg
d4bb8bac,0.99999154
28612c22,7.785735e-07
d5c8ab27,0.0002041576
b8cf5edb,0.11014913
3f6778c5,0.6294866
0ecf7d79,0.0010368708
4acfe35a,0.7076719
a5b4d551,4.045861e-07
cacbe718,0.9995127
de1244d8,0.9806471
04f859f9,0.9951291
cedc73e3,0.20993063
6f17e58c,0.030172057
d45f1475,0.8429994
c35ccd42,6.171699e-09
1799793b,0.9802064
bdf823e2,0.2572728
be0aa969,3.1885143e-08
65951e77,0.96385366
e8b76fb7,0.9268271
ac6ca227,0.8935192
a8104355,0.9999999
e76a4a04,0.00089825044
502a8388,0.99929535
c0c841d0,5.0372196e-06
ee49f0fb,0.99994874
dc6fa59d,0.9852417
3cef79cb,0.9999994
84673729,0.99218726
c5227b8a,2.6004704e-05
574a1da7,0.9999672
207b59dd,0.10532109
309b5423,4.423353e-08
7cf1ff70,0.9825503
a8c38f58,0.0036295971
f659df68,0.9943614
076a815e,0.99999964
6a9478ad,0.9272202
f8661e3b,0.9919516
ea9da7da,2.4271392e-06
ec4952c3,0.8871095
1c607692,0.83449334
4cf47a74,0.48918456
e0cd0236,0.9285802
06b6ac23,0.9845636
11d06927,0.83788115
996ea0b1,1.0
e0ccd7bb,3.373376e-06
b2bc5d27,0.7343902
71a0d13b,0.9999988
95ed1e8c,3.1186353e-08
bffad1b6,0.77357256
ce151e35,0.77288973
020f5eaa,0.75444245
ed3f900a,0.012626109
58835983,0.9999615
a783bdb3,0.7749973
76bf0e79,0.72064304
aada72d9,3.3362317e-06
a1ca4187,0.98771334
5a3d8224,1.6934606e-05
328e68bd,0.008248415
32f5ee95,0.5480102
ce73809a,0.99999905
9a3c8482,8.017145e-05
b37083ff,0.05797847
f01671c0,0.99999714
64e98469,1.7945782e-06
ebd806e6,0.98651487
0df5c436,0.00020593533
0bd98db1,2.8674995e-05
9f5d3bfb,4.6070807e-07
7a6149bc,0.99999833
2b92dadd,0.8412653
b7555b43,0.0004849094
90230ea7,0.10445713
7dfdee78,0.7255688
5bbdfc71,0.9999982
ac16f7f2,0.66502047
862b4f57,0.9996636
4283f28a,0.060008015
850a381c,0.05222399
f78fd217,0.96523976
9e37732e,1.7924971e-07
e8f6b3f0,0.28462827
d5a615f8,0.00045074912
ee9b291e,0.86725223
affcd7bf,0.722016
3b43490b,0.18555303
73efa120,1.3114881e-06
9b47d1bf,0.000105135005
d3c1e961,0.9998349
63aae86a,0.0053143324
95429378,0.9937401
de13af0f,0.0056958226
328b74f4,0.99592435
d89d6fbc,0.23925836
7346c439,0.9983083
0719d5e2,0.116799496
68a20f15,0.9999987
fee78b0c,0.003743937
c3fca286,4.509613e-05
a873532e,0.9999484
93afeece,0.808187
92a21542,2.3744382e-05
d65f8eb3,0.9996978
2e5462d9,2.832794e-07
2757a316,0.9040717
7ce75dda,0.9981645
02e48c95,0.9999734
70a639ef,0.8818744
76412298,0.8551878
f8dd4fcc,1.0577166e-07
e337d0b8,0.7134576
11a04625,0.0024144033
3c866636,0.9972396
04bfcaec,0.9996315
42a86b3a,0.031706553
84fe7f94,0.10945877
04e6f331,0.41678423
92c90853,0.97400033
660a98a7,0.030382587
89670962,0.9910932
9d586019,0.40413976
5f49ea3b,3.0487368e-05
968e1414,0.9946898
389d7eaf,0.9669676
65ca9e76,0.99355
a09cae27,0.025357341
00c5b3e0,0.090881035
7f9df2b0,0.9984818
a2303efc,0.98174334
cb62e5cb,0.9999738
9ff1e0f0,1.03336e-06
39fd995a,0.7784478
544d0681,0.99986255
cb0319fc,0.9990951
d86deb2b,0.999483
cdee905a,0.99999535
2539742b,2.8621309e-05
2ea3c9f1,0.25978652
9cadda28,9.150011e-05
8376a077,0.9792196
04e11240,0.00035959366
c7d6f6f8,1.0
bba1a0f1,0.076025106
7f66bb44,6.848293e-06
9d8f326c,0.9955141
