id,is_iceberg
d4bb8bac,0.9780556
28612c22,0.00018901595
d5c8ab27,0.017126966
b8cf5edb,0.11812138
3f6778c5,0.28583595
0ecf7d79,0.000706519
4acfe35a,0.94561595
a5b4d551,9.654799e-05
cacbe718,0.9980077
de1244d8,0.93178844
04f859f9,0.9736337
cedc73e3,0.41269594
6f17e58c,0.41152468
d45f1475,0.8654717
c35ccd42,5.0519176e-08
1799793b,0.97389436
bdf823e2,0.2533753
be0aa969,8.587162e-08
65951e77,0.9833308
e8b76fb7,0.92661595
ac6ca227,0.78711593
a8104355,0.99994147
e76a4a04,0.009014374
502a8388,0.9943585
c0c841d0,8.171741e-05
ee49f0fb,0.99964845
dc6fa59d,0.9414655
3cef79cb,0.9990508
84673729,0.8458284
c5227b8a,0.0009382246
574a1da7,0.99986005
207b59dd,0.7262352
309b5423,1.2512191e-07
7cf1ff70,0.99434245
a8c38f58,8.7043365e-05
f659df68,0.98113155
076a815e,0.99998593
6a9478ad,0.7997365
f8661e3b,0.9928173
ea9da7da,7.66977e-06
ec4952c3,0.9388993
1c607692,0.76193494
4cf47a74,0.78108126
e0cd0236,0.832452
06b6ac23,0.9716347
11d06927,0.59552604
996ea0b1,0.9999651
e0ccd7bb,0.0005135038
b2bc5d27,0.6273473
71a0d13b,0.9999896
95ed1e8c,3.2667884e-07
bffad1b6,0.9215386
ce151e35,0.81203175
020f5eaa,0.8688115
ed3f900a,0.036558304
58835983,0.9986731
a783bdb3,0.93438786
76bf0e79,0.82142586
aada72d9,0.00090860267
a1ca4187,0.75273347
5a3d8224,6.6623325e-05
328e68bd,0.038282577
32f5ee95,0.058881216
ce73809a,0.9996555
9a3c8482,3.0685773e-05
b37083ff,0.008749332
f01671c0,0.99989307
64e98469,1.10859794e-07
ebd806e6,0.98010224
0df5c436,0.04114577
0bd98db1,4.3976347e-06
9f5d3bfb,5.519956e-07
7a6149bc,0.9999244
2b92dadd,0.97315526
b7555b43,0.004188924
90230ea7,0.21039256
7dfdee78,0.7884411
5bbdfc71,0.9999529
ac16f7f2,0.7588567
862b4f57,0.98356354
4283f28a,0.51790947
850a381c,0.37605238
f78fd217,0.94592005
9e37732e,2.2266701e-10
e8f6b3f0,0.49284598
d5a615f8,0.0038994502
ee9b291e,0.8425643
affcd7bf,0.77564895
3b43490b,0.23798247
73efa120,4.3463828e-07
9b47d1bf,0.0025395101
d3c1e961,0.99046516
63aae86a,0.006868063
95429378,0.9698126
de13af0f,0.010195634
328b74f4,0.99376845
d89d6fbc,0.85596925
7346c439,0.9936155
0719d5e2,0.56527174
68a20f15,0.9992797
fee78b0c,0.0020337203
c3fca286,0.00037885673
a873532e,0.9997861
93afeece,0.7368339
92a21542,0.00031678524
d65f8eb3,0.99918944
2e5462d9,1.4101907e-08
2757a316,0.76076454
7ce75dda,0.9986058
02e48c95,0.9998313
70a639ef,0.80174375
76412298,0.9188844
f8dd4fcc,3.102906e-08
e337d0b8,0.4227088
11a04625,0.092499115
3c866636,0.9964162
04bfcaec,0.99398017
42a86b3a,0.0381588
84fe7f94,0.14366403
04e6f331,0.42901626
92c90853,0.8889501
660a98a7,0.06620115
89670962,0.98452896
9d586019,0.328489
5f49ea3b,0.0016611834
968e1414,0.996412
389d7eaf,0.9173485
65ca9e76,0.9461777
a09cae27,0.24012111
00c5b3e0,0.24673676
7f9df2b0,0.99525034
a2303efc,0.97977483
cb62e5cb,0.9990381
9ff1e0f0,0.0003445896
39fd995a,0.8336311
544d0681,0.9994727
cb0319fc,0.9959513
d86deb2b,0.994365
cdee905a,0.9996427
2539742b,3.3536132e-09
2ea3c9f1,0.44290406
9cadda28,0.0315195
8376a077,0.9740985
04e11240,0.022501804
c7d6f6f8,0.99999106
bba1a0f1,0.18171921
7f66bb44,2.0694908e-07
9d8f326c,0.99518543
