id,is_iceberg
d4bb8bac,0.99765235
28612c22,3.7136208e-05
d5c8ab27,0.00452126
b8cf5edb,0.35857102
3f6778c5,0.41240063
0ecf7d79,1.4059484e-05
4acfe35a,0.8540041
a5b4d551,5.1909083e-05
cacbe718,0.99313194
de1244d8,0.98027647
04f859f9,0.9579606
cedc73e3,0.33847606
6f17e58c,0.07952614
d45f1475,0.95536435
c35ccd42,7.695696e-07
1799793b,0.98663914
bdf823e2,0.82233524
be0aa969,6.336185e-08
65951e77,0.97488844
e8b76fb7,0.96415806
ac6ca227,0.8965165
a8104355,0.9999374
e76a4a04,5.6204364e-05
502a8388,0.9930315
c0c841d0,2.8268614e-05
ee49f0fb,0.97225565
dc6fa59d,0.9751374
3cef79cb,0.99987984
84673729,0.8513177
c5227b8a,0.0002208591
574a1da7,0.9934482
207b59dd,0.34426457
309b5423,9.310077e-09
7cf1ff70,0.95131123
a8c38f58,0.0011425846
f659df68,0.87301415
076a815e,0.99999154
6a9478ad,0.7243476
f8661e3b,0.9819511
ea9da7da,3.9794897e-05
ec4952c3,0.7837475
1c607692,0.7521073
4cf47a74,0.6898751
e0cd0236,0.52976793
06b6ac23,0.9753753
11d06927,0.57312876
996ea0b1,0.99997723
e0ccd7bb,0.00043342402
b2bc5d27,0.5537142
71a0d13b,0.9997646
95ed1e8c,9.33501e-08
bffad1b6,0.7541558
ce151e35,0.9411264
020f5eaa,0.86396456
ed3f900a,0.031837862
58835983,0.9994273
a783bdb3,0.51813173
76bf0e79,0.6096878
aada72d9,0.0001300462
a1ca4187,0.9566451
5a3d8224,4.3171734e-05
328e68bd,0.13370147
32f5ee95,0.24779512
ce73809a,0.9999833
9a3c8482,9.657517e-05
b37083ff,0.0007217209
f01671c0,0.9993191
64e98469,6.7363843e-09
ebd806e6,0.9900129
0df5c436,0.0042570583
0bd98db1,6.291583e-06
9f5d3bfb,2.351964e-06
7a6149bc,0.9999039
2b92dadd,0.674129
b7555b43,0.0011093774
90230ea7,0.39146054
7dfdee78,0.7117752
5bbdfc71,0.9999274
ac16f7f2,0.6033594
862b4f57,0.9939189
4283f28a,0.030871902
850a381c,0.11703377
f78fd217,0.44806603
9e37732e,3.0326756e-08
e8f6b3f0,0.48051313
d5a615f8,0.0007051938
ee9b291e,0.7032046
affcd7bf,0.68587476
3b43490b,0.36777171
73efa120,1.08384306e-07
9b47d1bf,2.586094e-06
d3c1e961,0.9983358
63aae86a,0.0102231
95429378,0.98279196
de13af0f,0.032678295
328b74f4,0.9869834
d89d6fbc,0.10583449
7346c439,0.9934861
0719d5e2,0.62910265
68a20f15,0.99985147
fee78b0c,0.0019540929
c3fca286,0.00048046204
a873532e,0.99793315
93afeece,0.40655214
92a21542,0.00069238956
d65f8eb3,0.9949372
2e5462d9,2.7181464e-08
2757a316,0.877897
7ce75dda,0.998638
02e48c95,0.9998159
70a639ef,0.9228754
76412298,0.91989547
f8dd4fcc,1.7129437e-08
e337d0b8,0.35831764
11a04625,0.0032600206
3c866636,0.9903162
04bfcaec,0.99869436
42a86b3a,0.0103575885
84fe7f94,0.0034239502
04e6f331,0.71542156
92c90853,0.8909932
660a98a7,0.22574718
89670962,0.9670774
9d586019,0.24355212
5f49ea3b,4.0604413e-05
968e1414,0.99287534
389d7eaf,0.93671554
65ca9e76,0.9481576
a09cae27,0.028236449
00c5b3e0,0.09781173
7f9df2b0,0.99418783
a2303efc,0.97848815
cb62e5cb,0.99824154
9ff1e0f0,9.2801485e-05
39fd995a,0.8963198
544d0681,0.9979342
cb0319fc,0.97938836
d86deb2b,0.8593895
cdee905a,0.9995408
2539742b,1.2158463e-07
2ea3c9f1,0.39071757
9cadda28,0.00017377878
8376a077,0.98938215
04e11240,0.008889241
c7d6f6f8,0.9999856
bba1a0f1,0.008794895
7f66bb44,4.6309598e-08
9d8f326c,0.99657047
