id,is_iceberg
d4bb8bac,0.9972391
28612c22,6.1815895e-06
d5c8ab27,0.008184867
b8cf5edb,0.19834019
3f6778c5,0.76986396
0ecf7d79,5.9504066e-05
4acfe35a,0.6542831
a5b4d551,2.350328e-05
cacbe718,0.9889893
de1244d8,0.95432353
04f859f9,0.9243905
cedc73e3,0.20761584
6f17e58c,0.03617038
d45f1475,0.85198796
c35ccd42,3.680403e-07
1799793b,0.9481072
bdf823e2,0.40830213
be0aa969,2.920813e-06
65951e77,0.919948
e8b76fb7,0.2831584
ac6ca227,0.76440936
a8104355,0.9998578
e76a4a04,0.00016210221
502a8388,0.9718658
c0c841d0,0.00010692834
ee49f0fb,0.9703546
dc6fa59d,0.9608965
3cef79cb,0.9887094
84673729,0.8827305
c5227b8a,0.0022663623
574a1da7,0.9908325
207b59dd,0.77116287
309b5423,1.4621065e-07
7cf1ff70,0.9844222
a8c38f58,0.012705392
f659df68,0.6968194
076a815e,0.99981564
6a9478ad,0.5954226
f8661e3b,0.95408475
ea9da7da,0.00015090058
ec4952c3,0.8417585
1c607692,0.45850173
4cf47a74,0.6343065
e0cd0236,0.4805243
06b6ac23,0.9096521
11d06927,0.46040836
996ea0b1,0.9999696
e0ccd7bb,0.0009989281
b2bc5d27,0.50033903
71a0d13b,0.9993611
95ed1e8c,6.988293e-07
bffad1b6,0.6051004
ce151e35,0.85488266
020f5eaa,0.8355202
ed3f900a,0.023176609
58835983,0.9996195
a783bdb3,0.083659455
76bf0e79,0.651009
aada72d9,0.00047113374
a1ca4187,0.95979595
5a3d8224,7.814441e-05
328e68bd,0.10919455
32f5ee95,0.61582184
ce73809a,0.9995708
9a3c8482,2.6397362e-05
b37083ff,0.008203546
f01671c0,0.9992292
64e98469,6.0637e-08
ebd806e6,0.9675925
0df5c436,0.014808953
0bd98db1,8.411329e-06
9f5d3bfb,8.61598e-06
7a6149bc,0.9971343
2b92dadd,0.4091198
b7555b43,0.001868431
90230ea7,0.27973837
7dfdee78,0.78673106
5bbdfc71,0.9996038
ac16f7f2,0.8218335
862b4f57,0.99528956
4283f28a,0.022966053
850a381c,0.101097114
f78fd217,0.67573434
9e37732e,5.021201e-07
e8f6b3f0,0.17151082
d5a615f8,0.00020865655
ee9b291e,0.8148424
affcd7bf,0.69998103
3b43490b,0.22165795
73efa120,3.0499098e-06
9b47d1bf,0.0011950942
d3c1e961,0.99555343
63aae86a,0.022535514
95429378,0.9623179
de13af0f,0.10937426
328b74f4,0.9407545
d89d6fbc,0.293369
7346c439,0.99426043
0719d5e2,0.26409212
68a20f15,0.99988294
fee78b0c,0.0015739901
c3fca286,0.000106800144
a873532e,0.99784386
93afeece,0.3620636
92a21542,8.467172e-05
d65f8eb3,0.9611559
2e5462d9,3.205822e-07
2757a316,0.86018246
7ce75dda,0.993343
02e48c95,0.9995521
70a639ef,0.75013256
76412298,0.8709102
f8dd4fcc,3.8760405e-08
e337d0b8,0.49438116
11a04625,0.05405145
3c866636,0.9803796
04bfcaec,0.993765
42a86b3a,0.024257896
84fe7f94,0.0027507022
04e6f331,0.55785966
92c90853,0.8361818
660a98a7,0.08335646
89670962,0.96974427
9d586019,0.49590036
5f49ea3b,7.718989e-05
968e1414,0.9918892
389d7eaf,0.9453724
65ca9e76,0.9165387
a09cae27,0.028924119
00c5b3e0,0.2199764
7f9df2b0,0.97706145
a2303efc,0.9631332
cb62e5cb,0.99792165
9ff1e0f0,6.4249776e-05
39fd995a,0.33085507
544d0681,0.99064225
cb0319fc,0.9955772
d86deb2b,0.63726115
cdee905a,0.9987889
2539742b,4.8462855e-08
2ea3c9f1,0.40869543
9cadda28,1.5830452e-05
8376a077,0.9333398
04e11240,0.0025450033
c7d6f6f8,0.99991703
bba1a0f1,0.0046822424
7f66bb44,6.7383503e-09
9d8f326c,0.98759437
