id,is_iceberg
d4bb8bac,0.9998234
28612c22,8.744352e-05
d5c8ab27,9.801786e-06
b8cf5edb,0.10980466
3f6778c5,0.13635811
0ecf7d79,0.3261999
4acfe35a,0.756945
a5b4d551,3.0285797e-05
cacbe718,0.998323
de1244d8,0.96699655
04f859f9,0.8683455
cedc73e3,0.02100699
6f17e58c,0.015867686
d45f1475,0.72865975
c35ccd42,1.5376776e-06
1799793b,0.97380644
bdf823e2,0.3260802
be0aa969,1.1161729e-05
65951e77,0.8868265
e8b76fb7,0.85685194
ac6ca227,0.7060475
a8104355,0.9999633
e76a4a04,0.7189465
502a8388,0.97866815
c0c841d0,0.0010458764
ee49f0fb,0.988308
dc6fa59d,0.9789418
3cef79cb,0.99671304
84673729,0.89642423
c5227b8a,4.1480274e-05
574a1da7,0.99674255
207b59dd,0.51732314
309b5423,3.219207e-07
7cf1ff70,0.9974317
a8c38f58,0.032641493
f659df68,0.7571771
076a815e,0.999879
6a9478ad,0.4797013
f8661e3b,0.98059905
ea9da7da,5.0422947e-05
ec4952c3,0.8447163
1c607692,0.32139277
4cf47a74,0.18926379
e0cd0236,0.48203138
06b6ac23,0.9213585
11d06927,0.2797029
996ea0b1,0.9999995
e0ccd7bb,1.0209246e-06
b2bc5d27,0.3842412
71a0d13b,0.99983466
95ed1e8c,9.1508554e-07
bffad1b6,0.7955641
ce151e35,0.71877545
020f5eaa,0.39083052
ed3f900a,0.010578223
58835983,0.99999964
a783bdb3,0.020780703
76bf0e79,0.62097716
aada72d9,2.4040126e-05
a1ca4187,0.99987245
5a3d8224,0.00015479568
328e68bd,0.30609095
32f5ee95,0.06793074
ce73809a,0.9999856
9a3c8482,0.00019931232
b37083ff,0.0005326104
f01671c0,0.99992585
64e98469,3.832196e-06
ebd806e6,0.9563825
0df5c436,1.2151976e-05
0bd98db1,1.5091533e-07
9f5d3bfb,2.8943762e-06
7a6149bc,0.99939203
2b92dadd,0.14942151
b7555b43,0.0010729276
90230ea7,0.05511836
7dfdee78,0.71092
5bbdfc71,0.99990416
ac16f7f2,0.47435522
862b4f57,0.9932179
4283f28a,0.106938004
850a381c,0.016831005
f78fd217,0.7570932
9e37732e,1.0145005e-06
e8f6b3f0,0.26656434
d5a615f8,0.00016300911
ee9b291e,0.6177138
affcd7bf,0.3018585
3b43490b,0.065569565
73efa120,6.045389e-06
9b47d1bf,0.2183749
d3c1e961,0.9958026
63aae86a,0.0010886571
95429378,0.92035794
de13af0f,0.09599205
328b74f4,0.927267
d89d6fbc,0.03140516
7346c439,0.9992243
0719d5e2,0.19554073
68a20f15,0.9999925
fee78b0c,0.00037792782
c3fca286,2.2613806e-06
a873532e,0.9988815
93afeece,0.36640343
92a21542,9.501633e-06
d65f8eb3,0.9677311
2e5462d9,1.2288392e-07
2757a316,0.9200766
7ce75dda,0.99155945
02e48c95,0.99969316
70a639ef,0.6290151
76412298,0.80627865
f8dd4fcc,3.1302483e-07
e337d0b8,0.1956622
11a04625,0.012122443
3c866636,0.9880784
04bfcaec,0.99813604
42a86b3a,0.0117430845
84fe7f94,0.012639948
04e6f331,0.23952177
92c90853,0.90799165
660a98a7,0.021294892
89670962,0.97411036
9d586019,0.26382366
5f49ea3b,0.0013437126
968e1414,0.99087685
389d7eaf,0.92567915
65ca9e76,0.89422363
a09cae27,0.018032199
00c5b3e0,0.12152609
7f9df2b0,0.96557647
a2303efc,0.9562756
cb62e5cb,0.9973339
9ff1e0f0,2.592727e-06
39fd995a,0.3872567
544d0681,0.99953485
cb0319fc,0.99908733
d86deb2b,0.8451051
cdee905a,0.9999354
2539742b,0.00011668566
2ea3c9f1,0.3157461
9cadda28,0.00016108894
8376a077,0.9550992
04e11240,0.0036592642
c7d6f6f8,0.9999988
bba1a0f1,0.0004102732
7f66bb44,6.925755e-06
9d8f326c,0.9951233
