id,is_iceberg
d4bb8bac,0.69917166
28612c22,0.0021529654
d5c8ab27,0.003861615
b8cf5edb,0.28977296
3f6778c5,0.4569324
0ecf7d79,0.0007089025
4acfe35a,0.8387168
a5b4d551,0.015344391
cacbe718,0.9899608
de1244d8,0.89037895
04f859f9,0.869907
cedc73e3,0.47687873
6f17e58c,0.17695838
d45f1475,0.774793
c35ccd42,7.650945e-05
1799793b,0.945891
bdf823e2,0.34573218
be0aa969,0.0002565577
65951e77,0.90809065
e8b76fb7,0.64013696
ac6ca227,0.6087312
a8104355,0.99561656
e76a4a04,0.011186056
502a8388,0.91797864
c0c841d0,0.002910416
ee49f0fb,0.9870358
dc6fa59d,0.9868569
3cef79cb,0.73120964
84673729,0.832553
c5227b8a,0.013574434
574a1da7,0.9969031
207b59dd,0.15644768
309b5423,4.230309e-05
7cf1ff70,0.9826627
a8c38f58,0.04355231
f659df68,0.73424137
076a815e,0.9994679
6a9478ad,0.5368335
f8661e3b,0.9759411
ea9da7da,0.0010710811
ec4952c3,0.88025457
1c607692,0.5037986
4cf47a74,0.64559376
e0cd0236,0.6686371
06b6ac23,0.850899
11d06927,0.49062768
996ea0b1,0.9997092
e0ccd7bb,0.028125934
b2bc5d27,0.5020842
71a0d13b,0.9993136
95ed1e8c,0.00013283279
bffad1b6,0.6238078
ce151e35,0.77283746
020f5eaa,0.8480547
ed3f900a,0.2705482
58835983,0.9979577
a783bdb3,0.14167942
76bf0e79,0.49498057
aada72d9,0.0007635662
a1ca4187,0.9147089
5a3d8224,0.008073405
328e68bd,0.36669928
32f5ee95,0.304774
ce73809a,0.99921787
9a3c8482,0.0025647688
b37083ff,0.048687093
f01671c0,0.9975218
64e98469,2.8169661e-05
ebd806e6,0.87222326
0df5c436,0.014109009
0bd98db1,0.0001375397
9f5d3bfb,0.0012344028
7a6149bc,0.94730645
2b92dadd,0.58936
b7555b43,0.04802055
90230ea7,0.44053128
7dfdee78,0.5756675
5bbdfc71,0.99940145
ac16f7f2,0.7460991
862b4f57,0.86629784
4283f28a,0.2508504
850a381c,0.17850035
f78fd217,0.6429843
9e37732e,1.0841841e-05
e8f6b3f0,0.5606401
d5a615f8,0.009474308
ee9b291e,0.8822428
affcd7bf,0.60448545
3b43490b,0.4492241
73efa120,0.0018971593
9b47d1bf,0.00051360024
d3c1e961,0.96233183
63aae86a,0.12971805
95429378,0.84275466
de13af0f,0.27180916
328b74f4,0.920083
d89d6fbc,0.39928478
7346c439,0.9912788
0719d5e2,0.48981512
68a20f15,0.99252725
fee78b0c,0.046459626
c3fca286,0.008107289
a873532e,0.9984875
93afeece,0.55895835
92a21542,0.0049049123
d65f8eb3,0.97491044
2e5462d9,0.00017156058
2757a316,0.62160665
7ce75dda,0.99039674
02e48c95,0.99646676
70a639ef,0.5323886
76412298,0.70242304
f8dd4fcc,4.1410163e-05
e337d0b8,0.42252406
11a04625,0.18077631
3c866636,0.98866254
04bfcaec,0.9792311
42a86b3a,0.15074451
84fe7f94,0.4047234
04e6f331,0.49973503
92c90853,0.76969653
660a98a7,0.37608927
89670962,0.8186916
9d586019,0.5284756
5f49ea3b,0.034802847
968e1414,0.99162054
389d7eaf,0.8972236
65ca9e76,0.88819504
a09cae27,0.39927918
00c5b3e0,0.48611593
7f9df2b0,0.97321737
a2303efc,0.9048933
cb62e5cb,0.98790926
9ff1e0f0,0.0017183463
39fd995a,0.59112155
544d0681,0.9971301
cb0319fc,0.9971003
d86deb2b,0.94790626
cdee905a,0.9991129
2539742b,3.6416637e-05
2ea3c9f1,0.5262861
9cadda28,0.005109856
8376a077,0.9034142
04e11240,0.10613543
c7d6f6f8,0.9998933
bba1a0f1,0.080650456
7f66bb44,6.567962e-05
9d8f326c,0.99038833
