id,is_iceberg
d4bb8bac,0.99974173
28612c22,0.00011371177
d5c8ab27,0.0012173256
b8cf5edb,0.48253015
3f6778c5,0.26267108
0ecf7d79,0.20405744
4acfe35a,0.9819503
a5b4d551,6.76907e-06
cacbe718,0.9993198
de1244d8,0.9919716
04f859f9,0.9905984
cedc73e3,0.16754664
6f17e58c,0.22129822
d45f1475,0.9652734
c35ccd42,1.8790153e-07
1799793b,0.9971962
bdf823e2,0.42977148
be0aa969,0.00010352357
65951e77,0.98402715
e8b76fb7,0.9481927
ac6ca227,0.9789711
a8104355,0.9999684
e76a4a04,0.14078633
502a8388,0.9967719
c0c841d0,0.0066511617
ee49f0fb,0.9991247
dc6fa59d,0.9894817
3cef79cb,0.99975246
84673729,0.91953784
c5227b8a,6.481811e-05
574a1da7,0.999433
207b59dd,0.6754855
309b5423,2.897719e-07
7cf1ff70,0.99865615
a8c38f58,0.00040480518
f659df68,0.990044
076a815e,0.99998426
6a9478ad,0.8107047
f8661e3b,0.9962643
ea9da7da,0.0025556993
ec4952c3,0.97369677
1c607692,0.73176163
4cf47a74,0.47064558
e0cd0236,0.74645764
06b6ac23,0.99180543
11d06927,0.745554
996ea0b1,0.99999917
e0ccd7bb,0.00017619743
b2bc5d27,0.72695893
71a0d13b,0.9999815
95ed1e8c,3.2871384e-08
bffad1b6,0.8178533
ce151e35,0.9605901
020f5eaa,0.8057318
ed3f900a,0.08419933
58835983,0.9999987
a783bdb3,0.8691361
76bf0e79,0.8622104
aada72d9,0.0021430699
a1ca4187,0.9999392
5a3d8224,0.00015109696
328e68bd,0.10327096
32f5ee95,0.29359436
ce73809a,0.99999523
9a3c8482,8.7641376e-05
b37083ff,0.009312581
f01671c0,0.99997115
64e98469,1.8962932e-06
ebd806e6,0.995178
0df5c436,0.0030008245
0bd98db1,5.2376555e-07
9f5d3bfb,3.396301e-06
7a6149bc,0.9998079
2b92dadd,0.7848331
b7555b43,0.00041904746
90230ea7,0.2132642
7dfdee78,0.9404656
5bbdfc71,0.99999416
ac16f7f2,0.83342886
862b4f57,0.9979766
4283f28a,0.04918497
850a381c,0.28029037
f78fd217,0.9852055
9e37732e,0.0004488959
e8f6b3f0,0.79994154
d5a615f8,0.0006441815
ee9b291e,0.9458412
affcd7bf,0.90166926
3b43490b,0.25139824
73efa120,6.724583e-07
9b47d1bf,0.03267707
d3c1e961,0.9990627
63aae86a,0.008505365
95429378,0.9951428
de13af0f,0.10076335
328b74f4,0.99738485
d89d6fbc,0.4140357
7346c439,0.99982053
0719d5e2,0.7315756
68a20f15,0.9999701
fee78b0c,0.009760418
c3fca286,0.00022909808
a873532e,0.999964
93afeece,0.8526816
92a21542,0.00014051361
d65f8eb3,0.9991385
2e5462d9,1.1601039e-06
2757a316,0.9611189
7ce75dda,0.9993703
02e48c95,0.99995816
70a639ef,0.95202583
76412298,0.9737636
f8dd4fcc,4.8788294e-08
e337d0b8,0.4087508
11a04625,0.0031457688
3c866636,0.9993787
04bfcaec,0.99956113
42a86b3a,0.0027237688
84fe7f94,0.041975513
04e6f331,0.517826
92c90853,0.9693551
660a98a7,0.084763326
89670962,0.9981735
9d586019,0.64067554
5f49ea3b,0.00021914241
968e1414,0.99923444
389d7eaf,0.97742724
65ca9e76,0.9907872
a09cae27,0.006380919
00c5b3e0,0.24482022
7f9df2b0,0.9992067
a2303efc,0.9972819
cb62e5cb,0.99993765
9ff1e0f0,0.00023067996
39fd995a,0.6154699
544d0681,0.9999231
cb0319fc,0.99957556
d86deb2b,0.9975617
cdee905a,0.9999701
2539742b,0.002967107
2ea3c9f1,0.84708214
9cadda28,0.0035182724
8376a077,0.98661333
04e11240,0.0026559932
c7d6f6f8,0.99999964
bba1a0f1,0.0072668525
7f66bb44,1.2486292e-06
9d8f326c,0.9990476
