id,is_iceberg
d4bb8bac,0.960704
28612c22,0.000092
d5c8ab27,0.002200
b8cf5edb,0.180589
3f6778c5,0.353239
0ecf7d79,0.015490
4acfe35a,0.735791
a5b4d551,0.000380
cacbe718,0.996852
de1244d8,0.965388
04f859f9,0.943000
cedc73e3,0.214231
6f17e58c,0.099014
d45f1475,0.894401
c35ccd42,0.000002
1799793b,0.972401
bdf823e2,0.454152
be0aa969,0.000010
65951e77,0.957000
e8b76fb7,0.705314
ac6ca227,0.868690
a8104355,0.998896
e76a4a04,0.032520
502a8388,0.985891
c0c841d0,0.000328
ee49f0fb,0.976134
dc6fa59d,0.973515
3cef79cb,0.986002
84673729,0.875873
c5227b8a,0.003052
574a1da7,0.995993
207b59dd,0.373676
309b5423,0.000001
7cf1ff70,0.942390
a8c38f58,0.004936
f659df68,0.846417
076a815e,0.999728
6a9478ad,0.782776
f8661e3b,0.978887
ea9da7da,0.000098
ec4952c3,0.868452
1c607692,0.585238
4cf47a74,0.531878
e0cd0236,0.567759
06b6ac23,0.965477
11d06927,0.604112
996ea0b1,0.999928
e0ccd7bb,0.001328
b2bc5d27,0.584576
71a0d13b,0.999565
95ed1e8c,0.000002
bffad1b6,0.661609
ce151e35,0.860072
020f5eaa,0.772746
ed3f900a,0.081879
58835983,0.999433
a783bdb3,0.275995
76bf0e79,0.764322
aada72d9,0.000218
a1ca4187,0.936754
5a3d8224,0.000884
328e68bd,0.092078
32f5ee95,0.199303
ce73809a,0.999568
9a3c8482,0.000102
b37083ff,0.011080
f01671c0,0.998996
64e98469,0.000001
ebd806e6,0.967167
0df5c436,0.006278
0bd98db1,0.000021
9f5d3bfb,0.000090
7a6149bc,0.996336
2b92dadd,0.561660
b7555b43,0.003287
90230ea7,0.234805
7dfdee78,0.777961
5bbdfc71,0.999783
ac16f7f2,0.732015
862b4f57,0.980640
4283f28a,0.172519
850a381c,0.095209
f78fd217,0.831880
9e37732e,0.000007
e8f6b3f0,0.527629
d5a615f8,0.002378
ee9b291e,0.748795
affcd7bf,0.691549
3b43490b,0.302014
73efa120,0.000029
9b47d1bf,0.005849
d3c1e961,0.994342
63aae86a,0.016865
95429378,0.963859
de13af0f,0.101345
328b74f4,0.968151
d89d6fbc,0.350550
7346c439,0.995668
0719d5e2,0.435419
68a20f15,0.998769
fee78b0c,0.007289
c3fca286,0.000466
a873532e,0.996286
93afeece,0.606232
92a21542,0.000268
d65f8eb3,0.992542
2e5462d9,0.000003
2757a316,0.860859
7ce75dda,0.993094
02e48c95,0.999416
70a639ef,0.789687
76412298,0.897985
f8dd4fcc,0.000001
e337d0b8,0.432202
11a04625,0.044962
3c866636,0.994327
04bfcaec,0.995747
42a86b3a,0.045326
84fe7f94,0.068319
04e6f331,0.541453
92c90853,0.858312
660a98a7,0.108396
89670962,0.968808
9d586019,0.486859
5f49ea3b,0.001234
968e1414,0.992657
389d7eaf,0.936401
65ca9e76,0.948163
a09cae27,0.113877
00c5b3e0,0.208486
7f9df2b0,0.989279
a2303efc,0.972272
cb62e5cb,0.997300
9ff1e0f0,0.000110
39fd995a,0.582475
544d0681,0.998587
cb0319fc,0.989405
d86deb2b,0.904229
cdee905a,0.998961
2539742b,0.000120
2ea3c9f1,0.524875
9cadda28,0.003182
8376a077,0.971321
04e11240,0.015464
c7d6f6f8,0.999951
bba1a0f1,0.021732
7f66bb44,0.000005
9d8f326c,0.995356
